%YAML 1.1
%TAG !u! tag:unity3d.com,2011:
--- !u!114 &11400000
MonoBehaviour:
  m_ObjectHideFlags: 0
  m_CorrespondingSourceObject: {fileID: 0}
  m_PrefabInstance: {fileID: 0}
  m_PrefabAsset: {fileID: 0}
  m_GameObject: {fileID: 0}
  m_Enabled: 1
  m_EditorHideFlags: 0
  m_Script: {fileID: 11500000, guid: 840b9faabcaf77b499dc643532cc5012, type: 3}
  m_Name: CabinetData
  m_EditorClassIdentifier: 
  Data:
  - unlockNum: 2
    addition: 1
  - unlockNum: 2
    addition: 1
  - unlockNum: 2
    addition: 1
  - unlockNum: 0
    addition: 1.5
  - unlockNum: 1
    addition: 3
