%YAML 1.1
%TAG !u! tag:unity3d.com,2011:
--- !u!114 &11400000
MonoBehaviour:
  m_ObjectHideFlags: 0
  m_CorrespondingSourceObject: {fileID: 0}
  m_PrefabInstance: {fileID: 0}
  m_PrefabAsset: {fileID: 0}
  m_GameObject: {fileID: 0}
  m_Enabled: 1
  m_EditorHideFlags: 0
  m_Script: {fileID: 11500000, guid: 1aaa61d3dc3d81842a8ccb409494ed66, type: 3}
  m_Name: PeopleData1
  m_EditorClassIdentifier: 
  Data:
    path:
    - main: 0
      startPos: {x: 4.5, y: 0}
      endPos: {x: -0.21, y: 2.72}
      right: 0
      animName: Walk_B
      order: 4.1
    - main: 0
      startPos: {x: -6.67, y: -0.61}
      endPos: {x: -2.68, y: -2.91}
      right: 1
      animName: Walk_F
      order: 8.1
    - main: 0
      startPos: {x: -5.4, y: 0.5}
      endPos: {x: -5.4, y: 0.5}
      right: 0
      animName: Idle_B
      order: 4.1
    - main: 0
      startPos: {x: -1.83, y: 2.16}
      endPos: {x: -1.83, y: 2.16}
      right: 0
      animName: Idle_B
      order: 4.1
    - main: 0
      startPos: {x: -2.25, y: -0.41}
      endPos: {x: -2.25, y: -0.41}
      right: 0
      animName: Idle_B
      order: 6.1
    - main: 0
      startPos: {x: -0.61, y: 0.74}
      endPos: {x: -0.61, y: 0.74}
      right: 0
      animName: Idle_B
      order: 6.1
    - main: 0
      startPos: {x: -0.05, y: -1.83}
      endPos: {x: -0.05, y: -1.83}
      right: 0
      animName: Idle_B
      order: 8.1
    - main: 0
      startPos: {x: 2.08, y: -0.41}
      endPos: {x: 2.08, y: -0.41}
      right: 0
      animName: Idle_B
      order: 8.1
    - main: 0
      startPos: {x: -4.25, y: -0.54}
      endPos: {x: -4.25, y: -0.54}
      right: 1
      animName: Idle_B
      order: 8.1
    - main: 0
      startPos: {x: -1.87, y: -1.74}
      endPos: {x: -1.87, y: -1.74}
      right: 1
      animName: Idle_B
      order: 8.1
