%YAML 1.1
%TAG !u! tag:unity3d.com,2011:
--- !u!114 &11400000
MonoBehaviour:
  m_ObjectHideFlags: 0
  m_CorrespondingSourceObject: {fileID: 0}
  m_PrefabInstance: {fileID: 0}
  m_PrefabAsset: {fileID: 0}
  m_GameObject: {fileID: 0}
  m_Enabled: 1
  m_EditorHideFlags: 0
  m_Script: {fileID: 11500000, guid: 1df4732f926c0a84c911e86edb4e4733, type: 3}
  m_Name: SpecialPeopleData
  m_EditorClassIdentifier: 
  Data:
    peopleData:
    - name_C: Anna
      name_E: Anna
    - name_C: Belos
      name_E: Belos
    - name_C: Demon
      name_E: Demon
    - name_C: Doroelle
      name_E: Doroelle
    - name_C: Ellin
      name_E: Ellin
    - name_C: Kassandra
      name_E: Kassandra
    - name_C: Lica
      name_E: Lica
    - name_C: Lulu
      name_E: Lulu
    - name_C: MeiHong
      name_E: MeiHong
    - name_C: Rezia
      name_E: Rezia
