﻿0.對話方式,1.角色名稱,2.台詞,3.角色起點,4.角色終點,5.行走時間,6.角色表情,7.表情符號,8.服裝,9.淡入,10.特寫,11,12.事件參數1,13.事件參數2,14.事件參數3,15.事件參數4,16.事件參數5
,,{CreateBackground},,,,,,,,,,Store1,,,,
,,{PlayBGM},,,,,,,,,,bgm_days01,0.5,,,
,,{Wait},,,,,,,,,,0.5,,,,
對話,端木壹,「蓮心*我們再來單挑一場英傑聯盟吧*妳玩阿佳莉。」,-450,,,07,,制服,TRUE,,,,,,,
對話,夜蓮心,「………………」,450,,,12,無言,半制服,TRUE,,,,,,,
對話,夜蓮心,「你這精蟲衝腦的傢伙在想全什麼都寫在臉上了*說是玩*根本就只是想藉故襲擊我嘛。」,450,,,07,生氣,半制服,,,,,,,,
對話,夜蓮心,「前幾次只是『意外』就算了。」,450,,,15,,半制服,,,,,,,,
對話,夜蓮心,「上次一輸遊戲就要我穿上阿佳莉的服裝讓你『出氣』*現在還真給我食髓知味了？」,450,,,07,,半制服,,,,,,,,
對話,端木壹,「怎麼？難到妳會怕輸？」,-450,,,01,得意,制服,,,,,,,,
對話,夜蓮心,「誰會輸你啊！」,450,,,08,生氣,半制服,,,,,,,,
,,{Wait},,,,,,,,,,0.5,,,,
,,{DeleteAllActor},,,,,,,,,,,,,,
,,{CreateBackground},,,,,,,,,,Black,,,,
,,{Loading},,,,,,,,,,1.5,1.5,1,,
,,{CreateBackground},,,,,,,,,,OfficeA1,,,,
,,{Wait},,,,,,,,,,0.5,,,,
旁白,,我本來只是想逗弄夜蓮心*怎知……,,,,,,,,,,,,,,
,,{PlayEffect},,,,,,,,,,se_bad,FALSE,,,
對話,夜蓮心,「我輸了？輸給端木壹這個遊戲白癡？」,450,,,16,驚嘆號,半制服,TRUE,,,,,,,
,,{Shake},,,,,,,,,,,,,,
旁白,,是的*連我自己都不敢相信。,,,,,,,,,,,,,,
對話,端木壹,「妳之前沒這麼爛啊*不都已經打敗我好幾次了嗎？是不是故意放水啊？」,-450,,,06,反問號,制服,TRUE,,,,,,,
對話,夜蓮心,「我怎麼可能放水？就是今天玩得比較不好！」,450,,,08,,半制服,,,,,,,,
對話,端木壹,「是嗎……那就再打一場。」,-450,,,05,,制服,,,,,,,,
,,{Wait},,,,,,,,,,0.5,,,,
,,{DeleteAllActor},,,,,,,,,,,,,,
,,{Loading},,,,,,,,,,1.5,1.5,1,,
,,{Wait},,,,,,,,,,0.5,,,,
旁白,,這次也是很快就結束了。,,,,,,,,,,,,,,
旁白,,夜蓮心的操控還算正常*像是她平時的水準*但出乎意料是我拿下勝利。,,,,,,,,,,,,,,
,,{PlayEffect},,,,,,,,,,se_bad,FALSE,,,
對話,夜蓮心,「不玩了啦！」,450,,,08,生氣,半制服,TRUE,,,,,,,
對話,端木壹,「總覺得怪怪的……」,-450,,,05,無言,制服,TRUE,,,,,,,
對話,夜蓮心,「我本來就沒有玩得很好*別強迫我玩。以後還是不跟你玩了……」,450,,,15,,半制服,,,,,,,,
旁白,,我猜夜蓮心八成是故意在關鍵時刻輸給我*但她做得這麼明顯又有什麼好處？,,,,,,,,,,,,,,
,,{Wait},,,,,,,,,,0.5,,,,
,,{DeleteAllActor},,,,,,,,,,,,,,
,,{FadeBGM},,,,,,,,,,0,１,,,
,,{PlayBGM},,,,,,,,,,bgm_Heroine02,0.5,,,
心想,夜蓮心,（哼*局已經佈好了。）,1,,,10,,半制服,TRUE,TRUE,,,,,,
心想,夜蓮心,（從今以後只要單挑我就故意輸、同隊就打贏。）,1,,,02,,半制服,,TRUE,,,,,,
心想,夜蓮心,（反正這個階級的對手都很爛*我隨便都能打贏。）,1,,,14,,半制服,,TRUE,,,,,,
心想,夜蓮心,（呵*他根本沒察覺*我早就請人在他的電腦裡裝了木馬監測*他使用電腦的情況我一清二楚。）,1,,,13,,半制服,,TRUE,,,,,,
心想,夜蓮心,（等我下班*看到他在玩就開一百個帳號同時列隊*排到同隊就故意害他輸、在他對面就把他虐殺得體無完膚！）,1,,,13,,半制服,,TRUE,,,,,,
,,{PlayEffect},,,,,,,,,,se_sword02,FALSE,,,
心想,夜蓮心,（端木壹*你總有一天會輸到精神崩潰*到時候看我怎麼收拾你*哼哼哼哼哼……）,1,,,05,,半制服,,TRUE,,,,,,
,,{Wait},,,,,,,,,,1,,,,
,,{DeleteAllActor},,,,,,,,,,,,,,
,,,,,,,,,,,,,,,,
,,,,,,,,,,,,,,,,
,,,,,,,,,,,,,,,,
,,,,,,,,,,,,,,,,
,,,,,,,,,,,,,,,,
,,,,,,,,,,,,,,,,
,,,,,,,,,,,,,,,,
,,,,,,,,,,,,,,,,
,,,,,,,,,,,,,,,,
,,,,,,,,,,,,,,,,
,,,,,,,,,,,,,,,,
,,,,,,,,,,,,,,,,
,,,,,,,,,,,,,,,,
,,,,,,,,,,,,,,,,
,,,,,,,,,,,,,,,,
,,,,,,,,,,,,,,,,
,,,,,,,,,,,,,,,,
,,,,,,,,,,,,,,,,
,,,,,,,,,,,,,,,,
,,,,,,,,,,,,,,,,
,,,,,,,,,,,,,,,,
,,,,,,,,,,,,,,,,
,,,,,,,,,,,,,,,,
,,,,,,,,,,,,,,,,
,,,,,,,,,,,,,,,,
,,,,,,,,,,,,,,,,
,,,,,,,,,,,,,,,,
,,,,,,,,,,,,,,,,
,,,,,,,,,,,,,,,,
,,,,,,,,,,,,,,,,
,,,,,,,,,,,,,,,,
,,,,,,,,,,,,,,,,
,,,,,,,,,,,,,,,,
,,,,,,,,,,,,,,,,
,,,,,,,,,,,,,,,,
,,,,,,,,,,,,,,,,
,,,,,,,,,,,,,,,,
,,,,,,,,,,,,,,,,
,,,,,,,,,,,,,,,,
,,,,,,,,,,,,,,,,
,,,,,,,,,,,,,,,,
,,,,,,,,,,,,,,,,
,,,,,,,,,,,,,,,,
,,,,,,,,,,,,,,,,
,,,,,,,,,,,,,,,,
,,,,,,,,,,,,,,,,
,,,,,,,,,,,,,,,,
,,,,,,,,,,,,,,,,
,,,,,,,,,,,,,,,,
,,,,,,,,,,,,,,,,
,,,,,,,,,,,,,,,,
,,,,,,,,,,,,,,,,
,,,,,,,,,,,,,,,,
,,,,,,,,,,,,,,,,
,,,,,,,,,,,,,,,,
,,,,,,,,,,,,,,,,
,,,,,,,,,,,,,,,,
,,,,,,,,,,,,,,,,
,,,,,,,,,,,,,,,,
,,,,,,,,,,,,,,,,
,,,,,,,,,,,,,,,,
,,,,,,,,,,,,,,,,
,,,,,,,,,,,,,,,,
,,,,,,,,,,,,,,,,
,,,,,,,,,,,,,,,,
,,,,,,,,,,,,,,,,
,,,,,,,,,,,,,,,,
,,,,,,,,,,,,,,,,
,,,,,,,,,,,,,,,,
,,,,,,,,,,,,,,,,
,,,,,,,,,,,,,,,,
,,,,,,,,,,,,,,,,
,,,,,,,,,,,,,,,,
,,,,,,,,,,,,,,,,
,,,,,,,,,,,,,,,,
,,,,,,,,,,,,,,,,
,,,,,,,,,,,,,,,,
,,,,,,,,,,,,,,,,
,,,,,,,,,,,,,,,,
,,,,,,,,,,,,,,,,
,,,,,,,,,,,,,,,,
,,,,,,,,,,,,,,,,
,,,,,,,,,,,,,,,,
,,,,,,,,,,,,,,,,
,,,,,,,,,,,,,,,,
,,,,,,,,,,,,,,,,
,,,,,,,,,,,,,,,,
,,,,,,,,,,,,,,,,
,,,,,,,,,,,,,,,,
,,,,,,,,,,,,,,,,
,,,,,,,,,,,,,,,,
,,,,,,,,,,,,,,,,
,,,,,,,,,,,,,,,,
,,,,,,,,,,,,,,,,
,,,,,,,,,,,,,,,,
,,,,,,,,,,,,,,,,
,,,,,,,,,,,,,,,,
,,,,,,,,,,,,,,,,
,,,,,,,,,,,,,,,,
,,,,,,,,,,,,,,,,
,,,,,,,,,,,,,,,,
,,,,,,,,,,,,,,,,
,,,,,,,,,,,,,,,,
,,,,,,,,,,,,,,,,
,,,,,,,,,,,,,,,,
,,,,,,,,,,,,,,,,
,,,,,,,,,,,,,,,,
,,,,,,,,,,,,,,,,
,,,,,,,,,,,,,,,,
,,,,,,,,,,,,,,,,
,,,,,,,,,,,,,,,,
,,,,,,,,,,,,,,,,
,,,,,,,,,,,,,,,,
,,,,,,,,,,,,,,,,
,,,,,,,,,,,,,,,,
,,,,,,,,,,,,,,,,
,,,,,,,,,,,,,,,,
,,,,,,,,,,,,,,,,
,,,,,,,,,,,,,,,,
,,,,,,,,,,,,,,,,
,,,,,,,,,,,,,,,,
,,,,,,,,,,,,,,,,
,,,,,,,,,,,,,,,,
,,,,,,,,,,,,,,,,
,,,,,,,,,,,,,,,,
,,,,,,,,,,,,,,,,
,,,,,,,,,,,,,,,,
,,,,,,,,,,,,,,,,
,,,,,,,,,,,,,,,,
,,,,,,,,,,,,,,,,
,,,,,,,,,,,,,,,,
,,,,,,,,,,,,,,,,
,,,,,,,,,,,,,,,,
,,,,,,,,,,,,,,,,
,,,,,,,,,,,,,,,,
,,,,,,,,,,,,,,,,
,,,,,,,,,,,,,,,,
,,,,,,,,,,,,,,,,
,,,,,,,,,,,,,,,,
,,,,,,,,,,,,,,,,
,,,,,,,,,,,,,,,,
,,,,,,,,,,,,,,,,
,,,,,,,,,,,,,,,,
,,,,,,,,,,,,,,,,
,,,,,,,,,,,,,,,,
,,,,,,,,,,,,,,,,
,,,,,,,,,,,,,,,,
,,,,,,,,,,,,,,,,
,,,,,,,,,,,,,,,,
,,,,,,,,,,,,,,,,
,,,,,,,,,,,,,,,,
,,,,,,,,,,,,,,,,
,,,,,,,,,,,,,,,,
,,,,,,,,,,,,,,,,
,,,,,,,,,,,,,,,,
,,,,,,,,,,,,,,,,
,,,,,,,,,,,,,,,,
,,,,,,,,,,,,,,,,
,,,,,,,,,,,,,,,,
,,,,,,,,,,,,,,,,
,,,,,,,,,,,,,,,,
,,,,,,,,,,,,,,,,
,,,,,,,,,,,,,,,,
,,,,,,,,,,,,,,,,
,,,,,,,,,,,,,,,,
,,,,,,,,,,,,,,,,
,,,,,,,,,,,,,,,,
,,,,,,,,,,,,,,,,
,,,,,,,,,,,,,,,,
,,,,,,,,,,,,,,,,
,,,,,,,,,,,,,,,,
,,,,,,,,,,,,,,,,
,,,,,,,,,,,,,,,,
,,,,,,,,,,,,,,,,
,,,,,,,,,,,,,,,,
,,,,,,,,,,,,,,,,
,,,,,,,,,,,,,,,,
,,,,,,,,,,,,,,,,
,,,,,,,,,,,,,,,,
,,,,,,,,,,,,,,,,
,,,,,,,,,,,,,,,,
,,,,,,,,,,,,,,,,
,,,,,,,,,,,,,,,,
,,,,,,,,,,,,,,,,
,,,,,,,,,,,,,,,,
,,,,,,,,,,,,,,,,
,,,,,,,,,,,,,,,,
,,,,,,,,,,,,,,,,
,,,,,,,,,,,,,,,,
,,,,,,,,,,,,,,,,
,,,,,,,,,,,,,,,,
,,,,,,,,,,,,,,,,
,,,,,,,,,,,,,,,,
,,,,,,,,,,,,,,,,
,,,,,,,,,,,,,,,,
,,,,,,,,,,,,,,,,
,,,,,,,,,,,,,,,,
,,,,,,,,,,,,,,,,
,,,,,,,,,,,,,,,,
,,,,,,,,,,,,,,,,
,,,,,,,,,,,,,,,,
,,,,,,,,,,,,,,,,
,,,,,,,,,,,,,,,,
,,,,,,,,,,,,,,,,
,,,,,,,,,,,,,,,,
,,,,,,,,,,,,,,,,
,,,,,,,,,,,,,,,,
,,,,,,,,,,,,,,,,
,,,,,,,,,,,,,,,,
,,,,,,,,,,,,,,,,
,,,,,,,,,,,,,,,,
,,,,,,,,,,,,,,,,
,,,,,,,,,,,,,,,,
,,,,,,,,,,,,,,,,
,,,,,,,,,,,,,,,,
,,,,,,,,,,,,,,,,
,,,,,,,,,,,,,,,,
,,,,,,,,,,,,,,,,
