﻿0.對話方式,1.角色名稱,2.台詞,3.角色起點,4.角色終點,5.行走時間,6.角色表情,7.表情符號,8.服裝,9.淡入,10.特寫,11,12.事件參數1,13.事件參數2,14.事件參數3,15.事件參數4,16.事件參數5
,,{CreateBackground},,,,,,,,,,OfficeA1,,,,
,,{PlayBGM},,,,,,,,,,bgm_days01,0.5,,,
,,{Wait},,,,,,,,,,0.5,,,,
旁白,,Today I felt motivated. So I asked Lycianna to play League of Legends with me.,,,,,,,,,,,,,,
旁白,,My gaming skills are pretty good.,,,,,,,,,,,,,,
,,{PlayEffect},,,,,,,,,,se_good,FALSE,,,
對話,Manager,“The opponent still dares to choose ‘Agari’? Watch me handle her with my Beggar Sword ‘Glenn.’”,-450,,,4,開心,制服,TRUE,,,,,,,
對話,Lycianna Yeh,“Good luck. I depend on you. I'll do my best to give you support!”,450,,,14,,半制服,TRUE,,,,,,,
,,{Wait},,,,,,,,,,0.5,,,,
,,{DeleteAllActor},,,,,,,,,,,,,,
心想,Lycianna Yeh,(He already got killed 99 times by that Agari with the same character* why doesn't he learn?),1,,,15,無言,半制服,TRUE,TRUE,,,,,,
心想,Lycianna Yeh,(But* it's for the best. Every time he dies and shows his weakness* it'll be my murdering chance.),1,,,2,,半制服,,TRUE,,,,,,
,,{Wait},,,,,,,,,,0.5,,,,
,,{DeleteAllActor},,,,,,,,,,,,,,
,,{CreateBackground},,,,,,,,,,Black,,,,
,,{FadeBGM},,,,,,,,,,0,1,,,
,,{Loading},,,,,,,,,,1.5,1.5,1,,
,,{PlayBGM},,,,,,,,,,bgm_joke01,0.5,,,
,,{CreateBackground},,,,,,,,,,OfficeA1,,,,
,,{Wait},,,,,,,,,,0.5,,,,
心想,Lycianna Yeh,(To die 2 times one minute after the opening. It's like he's trying to play bad…..),450,,,16,,半制服,TRUE,,,,,,,
,Manager,{CreateActor},-450,,,6,汗顏,制服,TRUE,,,,,,,
,,{PlayEffect},,,,,,,,,,se_bad,FALSE,,,
旁白,,Aren't my skills good? How could it be like this!,,,,,,,,,,,,,,
旁白,,Even though the game ended* I stared blankly at the computer screen. Unable to get my consciousness back.,,,,,,,,,,,,,,
心想,Lycianna Yeh,(It feels like the right time to act. But to be on the safe side* it's better to taunt him for a bit.),450,,,2,,半制服,,,,,,,,
對話,Lycianna Yeh,“Manager* don't be upset. It's just a game.”,450,,,6,開心,半制服,,,,,,,,
對話,Lycianna Yeh,“Why are you changing your words from what you said before? Are you just playing word games?”,450,,,14,問號,半制服,,,,,,,,
對話,Manager,“…………….”,-450,,,5,,制服,,,,,,,,
對話,Lycianna Yeh,“All that talk. Did you not say you would totally annihilate her?”,450,,,14,,半制服,,,,,,,,
對話,Manager,“……………..”,-450,,,5,無言,制服,,,,,,,,
對話,Lycianna Yeh,“But with you being this bad. I don't want to play with you again…..ah* are you listening?”,450,,,6,,半制服,,,,,,,,
對話,Manager,“…………….”,-450,,,5,玻璃心,制服,,,,,,,,
對話,Manager,“Aaaaaaaaaaaaaaaaaaaaaaaaaaaaaaaaaah!”,-450,,,2,生氣,制服,,,,,,,,
,Lycianna Yeh,{UpdateActor},450,,,16,,半制服,,,,,,,,
旁白,,I can't take it anymore!,,,,,,,,,,,,,,
,,{PlayEffect},,,,,,,,,,se_run,FALSE,,,
,Manager,{MoveActor},-450,-900,0.5,表情,,制服,,,,,,,,
,,{DeleteActor},,,,,,,,,,Manager,,,,
旁白,,I decided to release my rage and sprinted out of the office while screaming.,,,,,,,,,,,,,,
,,{Wait},,,,,,,,,,0.5,,,,
,,{DeleteAllActor},,,,,,,,,,,,,,
,,{CreateBackground},,,,,,,,,,Black,,,,
,,{FadeBGM},,,,,,,,,,0,1,,,
,,{CreateBackground},,,,,,,,,,OfficeA1,,,,
,,{Wait},,,,,,,,,,0.5,,,,
,,{PlayEffect},,,,,,,,,,se_run,FALSE,,,
對話,Manager,“Phew…..phew phew……”,-900,-450,0.5,5,,制服,TRUE,,,,,,,
對話,Lycianna Yeh,“Manager* you're back? Where did you go?”,450,,,6,,半制服,TRUE,,,,,,,
對話,Manager,“To find your uniform! It will be this one. Put it on!”,-450,,,2,生氣,制服,,,,,,,,
對話,Lycianna Yeh,“Uniform? Am I not wearing one?”,450,,,16,,半制服,,,,,,,,
對話,Manager,“Stop talking. Just put it on as I said!”,-450,,,2,生氣,制服,,,,,,,,
,,{PlayEffect},,,,,,,,,,se_walk,FALSE,,,
,Lycianna Yeh,{MoveActor},450,900,0.5,1,,半制服,,,,,,,,
,,{DeleteActor},,,,,,,,,,Lycianna Yeh,,,,
旁白,,I hinted to Lycianna that she was unable to refuse. And she quietly changed in the staff room.,,,,,,,,,,,,,,
旁白,,When she wore it* she noticed it was the character ‘gari’ suit.,,,,,,,,,,,,,,
旁白,,I can't wait!,,,,,,,,,,,,,,
,,{Wait},,,,,,,,,,0.5,,,,
,,{DeleteAllActor},,,,,,,,,,,,,,
,,{CreateBackground},,,,,,,,,,Black,,,,
,,{FadeBGM},,,,,,,,,,0,1,,,
,,{Loading},,,,,,,,,,1.5,1.5,1,,
,,{PlayBGM},,,,,,,,,,bgm_sexy02,0.5,,,
,,{CreateBackground},,,,,,,,,,Lounge1,,,,
,,{Wait},,,,,,,,,,0.5,,,,
,,{PlayEffect},,,,,,,,,,se_doorop,FALSE,,,
旁白,,I burst into the staff room. The timing was perfect.,,,,,,,,,,,,,,
1,Lycianna Yeh,“What are you doing? I'm still changing!”,450,,,8,驚嘆號,cos,TRUE,,,,,,,
對話,Manager,“Shut up and show me some laughter.”,-450,,,5,,制服,TRUE,,,,,,,
2,Lycianna Yeh,“Ha* haha? Like this?”,450,,,16,,cos,,,,,,,,
,,{Wait},,,,,,,,,,0.5,,,,
,,{DeleteAllActor},,,,,,,,,,,,,,
3,Lycianna Yeh,(Wait* why should I laugh? Just because he asked me to? I'm not selling my laughs!),0,,,8,,cos,TRUE,TRUE,,,,,,
,,{Wait},,,,,,,,,,0.5,,,,
,,{DeleteAllActor},,,,,,,,,,,,,,
對話,Manager,“Laugh like you're happy.”,-450,,,5,,制服,TRUE,,,,,,,
4,Lycianna Yeh,(Dammit. This pervert is sick* but I feel like I can't go against him. Or there will be severe consequences……),450,,,8,,cos,TRUE,,,,,,,
5,Lycianna Yeh,“Ah hahahaha* hahaha?”,450,,,16,汗顏,cos,,,,,,,,
對話,Manager,“Then* cry sadly* like being stabbed by the Beggar Sword.”,-450,,,5,,制服,,,,,,,,
6,Lycianna Yeh,“Ok* I'll cry-----shit! How do you expect me to cry on the spot! And why do I have to listen to you!”,450,,,8,生氣,cos,,,,,,,,
對話,Manager,“Weren't you laughing so happily earlier? Weren't you just happily taunting me? Why do you act like nothing now?”,-450,,,2,,制服,,,,,,,,
7,Lycianna Yeh,“That was a joke* don't take it seriously…….”,450,,,6,汗顏,cos,,,,,,,,
對話,Manager,“It's not funny! This time I'll teach you a lesson!”,-450,,,2,生氣,制服,,,,,,,,
,,{Wait},,,,,,,,,,0.5,,,,
,,{DeleteAllActor},,,,,,,,,,,,,,
,,{CreateBackground},,,,,,,,,,Black,,,,
,,{FadeBGM},,,,,,,,,,0,1,,,
,,{Loading},,,,,,,,,,1.5,1.5,1,,
,,{PlayBGM},,,,,,,,,,bgm_sexy01,0.5,,,
,,{CreatePicture},,,,,,,,,,1,A5,LianShin_H5_001,,
,,{Wait},,,,,,,,,,0.5,,,,
,,{PlayEffect},,,,,,,,,,se_faint,FALSE,,,
8,Lycianna Yeh,“Hm humph* uh hum……..”,,,,,,,,,,,,,,
旁白,,I threw Lycianna down and pressed her against the sofa.,,,,,,,,,,,,,,
旁白,,A huge ‘Beggar Sword’ is also pointing at Lycianna's pussy.,,,,,,,,,,,,,,
,,{PlayEffect},,,,,,,,,,se_cloth,FALSE,,,
旁白,,Lycianna's outfit is designed to be extremely fitting* her stockings have holes* and half of her breasts are exposed. It's a unique model made for men.,,,,,,,,,,,,,,
,,{CreatePicture},,,,,,,,,,1,A5,LianShin_H5_002,,
旁白,,I strip off my pants. My cock is thrusting between Lycianna's legs.,,,,,,,,,,,,,,
旁白,,One of her thighs has a black stocking* while the other thigh is exposed white skin. Both sides' different touches stimulate my cock at the same time.,,,,,,,,,,,,,,
9,Lycianna Yeh,"""What are you doing? Hm hum* don't cross the line. It's just a game* uhm. Is it worth getting so mad? Let me go right now!""",,,,,,,,,,,,,,
對話,Manager,“It's just a game? Don’t look down on us gamers!”,,,,,,,,,,,,,,
對話,Manager,"""We put our heart and soul into each game! We give it all we got until the very end of each game!""",,,,,,,,,,,,,,
10,Lycianna Yeh,“And you are still playing this bad. I'm speechless……”,,,,,,,,,,,,,,
對話,Manager,“What did you say?”,,,,,,,,,,,,,,
11,Lycianna Yeh,“Nothing. I didn't say anything.”,,,,,,,,,,,,,,
對話,Manager,“I heard it! Don't deny it!”,,,,,,,,,,,,,,
12,Lycianna Yeh,“Why are you asking if you heard me the first time!”,,,,,,,,,,,,,,
13,Lycianna Yeh,“Huh* huh* uh huh……”,,,,,,,,,,,,,,
旁白,,Looking at her pussy lips appearing under her leggings. Made me horny.,,,,,,,,,,,,,,
,,{CreatePicture},,,,,,,,,,1,A5,LianShin_H5_003,,
旁白,,My cock started to get harder. I tear open her stockings and let my cock go through. The pleasure was inexplicable.,,,,,,,,,,,,,,
14,Lycianna Yeh,“Le me guess. Do you have a festish for women's stockings? You must be the type to secrety snap pictures of women in stockings! I'll call the cops on you!”,,,,,,,,,,,,,,
15,Lycianna Yeh,"""Uh ah* put me down quickly. It's so exhausting like this. Did you hear me* hey! Like this* huh uh* it's really* oh huh* tingling!""",,,,,,,,,,,,,,
16,Lycianna Yeh,“Let go of me! What do you think you're doing? This is not some Chinese martial arts training session come on…..”,,,,,,,,,,,,,,
17,Lycianna Yeh,“Hm ha! Uhmm! Aah!”,,,,,,,,,,,,,,
,,{CreatePicture},,,,,,,,,,1,A5,LianShin_H5_004,,
旁白,,I press forward with my body while my hands unhook her bra* exposing her cleavage.,,,,,,,,,,,,,,
,,{PlayEffect},,,,,,,,,,se_cloth,FALSE,,,
,,{CreatePicture},,,,,,,,,,1,A5,LianShin_H5_005,,
旁白,,One hand tearing off her bra* making her bouncing soft boobs wiggle along with her body movements.,,,,,,,,,,,,,,
旁白,,The other hand is rubbing her body through her shirt with my fingers squeezing hard.,,,,,,,,,,,,,,
18,Lycianna Yeh,“Hm-hm…..hey! That hurts! Don't hold it so tight* lighter please…..”,,,,,,,,,,,,,,
19,Lycianna Yeh,“So tingling….hm ha…..stop playing with my feet. Do you have a feet fetish or what* hmm…..”,,,,,,,,,,,,,,
20,Lycianna Yeh,“Ah* ah…..that's enough. Whatever you want* hmm….”,,,,,,,,,,,,,,
21,Lycianna Yeh,“Hm…..uh…..hm……”,,,,,,,,,,,,,,
旁白,,I've already foreseen all kinds of resistance from Lycianna and thought of their solution.,,,,,,,,,,,,,,
旁白,,But she stopped scolding me and stopped resisting. Even kindly cooperating?,,,,,,,,,,,,,,
對話,Manager,"""You're not resisting. What do you want to do?""",,,,,,,,,,,,,,
22,Lycianna Yeh,“Well* I'm cooperating with you for now. Just hurry up. I'm about to have cramps in my feet.”,,,,,,,,,,,,,,
23,Lycianna Yeh,(He has already made me unable to get out of bed. It even hurt while walking. I'd better just help him release…..),,,,,,,,,,,,,,
24,Lycianna Yeh,(Sigh* I was here to kill him. How did it end up like this……),,,,,,,,,,,,,,
對話,Manager,“I'll consider it based on how you perform.”,,,,,,,,,,,,,,
旁白,,My left hand is carressing her boobs while my right is rubbing my erected dick against her foot.,,,,,,,,,,,,,,
,,{Flash},,,,,,,,,,,,,,
,,{PlayHEffect},,,,,,,,,,SYASEI_2s,FALSE,,,
,,{CreatePicture},,,,,,,,,,1,A5,LianShin_H5_006,,
旁白,,I soon shot some thick cum on Lycianna's foot which trickle down slowly from her stockings.,,,,,,,,,,,,,,
26,Lycianna Yeh,“Tsk* so disgusting* and you keep forcing me to eat it. Later I'll definitely put it in your food……”,,,,,,,,,,,,,,
旁白,,While I'm still shaking from my orgasm. Lycianna quickly pulled her foot away to leave.,,,,,,,,,,,,,,
旁白,,But I didn't intend to let her go that easily. Again I press Lycianna down.,,,,,,,,,,,,,,
27,Lycianna Yeh,“What else do you want?”,,,,,,,,,,,,,,
對話,Manager,“Yea.”,,,,,,,,,,,,,,
28,Lycianna Yeh,“I mean. You wanna fuck again!”,,,,,,,,,,,,,,
對話,Manager,“Fuck again.”,,,,,,,,,,,,,,
29,Lycianna Yeh,“I've never seen an idiot man like you* uhm* what do you take me for* hm……”,,,,,,,,,,,,,,
,,{CreatePicture},,,,,,,,,,1,A5,LianShin_H5_007,,
30,Lycianna Yeh,“Uhm~Hmm~”,,,,,,,,,,,,,,
旁白,,My cock entered the inner side of her legs. That level of sensation didn't fade the hardness of my cock at all.,,,,,,,,,,,,,,
旁白,,Both my hands are uncontrollably touching Lycianna's body. Fondling her outfit and stopping at her boobs to rub them.,,,,,,,,,,,,,,
31,Lycianna Yeh,“I* I got it. I'll have sex with you* but….but at least find a bed?”,,,,,,,,,,,,,,
32,Lycianna Yeh,(I hid a gun next to the bed in the staff room. When the moment is right* I'll kill him!),,,,,,,,,,,,,,
對話,Manager,“No.”,,,,,,,,,,,,,,
33,Lycianna Yeh,“Can we change position? This current one is quite painful to my belly……”,,,,,,,,,,,,,,
34,Lycianna Yeh,(I remember there's a knife under the sofa just in case. Now is the right time to use it.),,,,,,,,,,,,,,
對話,Manager,“No.”,,,,,,,,,,,,,,
35,Lycianna Yeh,“You* you're crossing the line!”,,,,,,,,,,,,,,
對話,Manager,“Do you think I know not what you are up to? The worst has yet to come!”,,,,,,,,,,,,,,
36,Lycianna Yeh,“Phew* phew* phew* hm phew…..”,,,,,,,,,,,,,,
旁白,,Is Lycianna crazy? She actually held my balls.,,,,,,,,,,,,,,
,,{Shake},,,,,,,,,,,,,,
,,{PlayEffect},,,,,,,,,,se_putdown01,FALSE,,,
旁白,,I grabbed Lycianna* pulling her to the wall and switching her direction. Which made a loud sound ‘thump’.,,,,,,,,,,,,,,
對話,Manager,"""This looks more like an 'assassin.' You're not even resisting. It's so boring to tease you!""",,,,,,,,,,,,,,
旁白,,When Lycianna counterattacked* I took her as the character of Agari. The enemy in front of me is the one I wish I could tear apart.,,,,,,,,,,,,,,
旁白,,My cock is tilted and teasing around the entrance of her pussy.,,,,,,,,,,,,,,
旁白,,My glans were rubbing on her stockings. It was as if my cock wanted to penetrate through the pantyhose and thrust into her body.,,,,,,,,,,,,,,
37,Lycianna Yeh,“Uhm….humph* if you want to relive the contents of the game* then allow me to give to grab a knife and challenge you to a real fight. This time round I'll cut you up real good!”,,,,,,,,,,,,,,
對話,Manager,“Knives? How many?”,,,,,,,,,,,,,,
38,Lycianna Yeh,“Nine------that's not the point!”,,,,,,,,,,,,,,
對話,Manager,“Why would I give a weapon to the one I'm holding captive. Hehe* I'm not like the bad guy from TV dramas.”,,,,,,,,,,,,,,
39,Lycianna Yeh,“Hm* ah! Uh…..”,,,,,,,,,,,,,,
,,{CreatePicture},,,,,,,,,,1,A5,LianShin_H5_008,,
,,{PlayEffect},,,,,,,,,,se_punch,FALSE,,,
旁白,,I spank Lycianna's ass* her penetrating moans digged through the depths of my impulse.,,,,,,,,,,,,,,
旁白,,My hands slid down her legs* pulling her stockings to the side----and my cock pushed itself into Lycianna's body!,,,,,,,,,,,,,,
40,Lycianna Yeh,"""It hurts……wait* wait a minute! I really can't. It hurts so much* hmm……..""",,,,,,,,,,,,,,
41,Lycianna Yeh,“Ah Hm…..painful…..you pervert bastard! I will kill you* uhm! Uuh…..”,,,,,,,,,,,,,,
42,Lycianna Yeh,“Phew* ha……hmmmm! Ha* phew* phew* phew…..”,,,,,,,,,,,,,,
43,Lycianna Yeh,“Phew…..phew phew……”,,,,,,,,,,,,,,
,,{PlayHEffect},,,,,,,,,,SEX_M_12s,TRUE,,,
旁白,,Lycianna keeps moaning in pain.,,,,,,,,,,,,,,
旁白,,Because of the stockings and pulsing pussy* I got all kinds of feelings. It turned me on so much that I let out a groan.,,,,,,,,,,,,,,
旁白,,I barely controlled the urge to cum. Yet under the pressure of this warm and tight pussy she started to leak out of her pussy* and she was slightly wet.,,,,,,,,,,,,,,
旁白,,I still wasn't satisfied with Lycianna's current look. So I held her hair into a ponytail with my hands. With her hair in a ponytail* she completely imitated the style of Agari.,,,,,,,,,,,,,,
44,Lycianna Yeh,“Phew* phew….hm….you despicable* perverted* sex maniac* phew* hmm…..I hope that from now on everytime your mother goes to get groceries there would be a price hike and no schools would ever take your son in…..”,,,,,,,,,,,,,,
對話,Manager,“Isn't she also your mother after we get married? And if our son can't go to kindergarten* we'll just teach him how to get things done.”,,,,,,,,,,,,,,
45,Lycianna Yeh,“Stop talking nonsense. Who would want to marry you and have kids* uh! Painful….I WILL kill you. I'll cut you into pieces…..”,,,,,,,,,,,,,,
,,{CreatePicture},,,,,,,,,,1,A5,LianShin_H5_009,,
46,Lycianna Yeh,“Hm~uh~hmmm~”,,,,,,,,,,,,,,
旁白,,The gradually wet pussy starts to give pleasure* and her pussy is leaking down her legs.,,,,,,,,,,,,,,
,,{PlayEffect},,,,,,,,,,se_punch,FALSE,,,
旁白,,Seeing Lycianna this cooperative. I pull her ponytail with one hand while the other is rubbing and spanking her ass. It was as if I was teasing her like crazy.,,,,,,,,,,,,,,
47,Lycianna Yeh,“Uh* hm* you* hm* teasing me* uuh…..”,,,,,,,,,,,,,,
對話,Manager,“The more I spank* the tighter you get. You like this too* don't you?”,,,,,,,,,,,,,,
48,Lycianna Yeh,“Not* not at all* ugh….dammit! I will definitely insert a vibrator in your asshole. Let you experience the meaning of pain* hm…..”,,,,,,,,,,,,,,
49,Lycianna Yeh,“Hm! Ah! Uh! Hm ah!”,,,,,,,,,,,,,,
,,{StopEffect},,,,,,,,,,SEX_M_12s,,,,
,,{PlayHEffect},,,,,,,,,,SEX_B_15s,TRUE,,,
旁白,,The pleasure was intensifying. I get more active with my movements. My cock quickly thrusts in the direction of my waist* each time making a loud clapping noise.,,,,,,,,,,,,,,
旁白,,The rough sex made Lycianna suddenly numb and weak. She was about to fall.,,,,,,,,,,,,,,
50,Lycianna Yeh,“No* I can't. I admit defeat! Just finish it quickly…..”,,,,,,,,,,,,,,
51,Lycianna Yeh,“It feels weird* hm* hmm! The place usually out of reach is now reachable with his thrusting* uhm…..”,,,,,,,,,,,,,,
52,Lycianna Yeh,“Something is coming out soon* hm hum…….”,,,,,,,,,,,,,,
53,Lycianna Yeh,“Hm* hm* hm* now* it's now-----uhmmmmmm!”,,,,,,,,,,,,,,
,,{StopEffect},,,,,,,,,,SEX_B_15s,,,,
,,{Flash},,,,,,,,,,,,,,
,,{PlayHEffect},,,,,,,,,,SYASEI_2s,FALSE,,,
,,{CreatePicture},,,,,,,,,,1,A5,LianShin_H5_010,,
旁白,,Hearing the soft apologetic words. My resentment was finally released.,,,,,,,,,,,,,,
旁白,,I take a deep breath and go at full speed. Shooting the hot cum into Lycianna.,,,,,,,,,,,,,,
,,{Flash},,,,,,,,,,,,,,
,,{PlayHEffect},,,,,,,,,,SYASEI_4s,FALSE,,,
旁白,,I let Lycianna fall to the ground* forceless. The cum is leaking out of her tight pussy* bit by bit. The erotic atmosphere is spreading everywhere.,,,,,,,,,,,,,,
54,Lycianna Yeh,“Phew* phew* phew….. are you satisfied this time? So dirty…..”,,,,,,,,,,,,,,
對話,Manager,“Not yet.”,,,,,,,,,,,,,,
55,Lycianna Yeh,“You satisfied now? I'll go get dress then----what?”,,,,,,,,,,,,,,
對話,Manager,“This was just to prepare your body* I'm just warming up.”,,,,,,,,,,,,,,
56,Lycianna Yeh,“What* what else do you want?”,,,,,,,,,,,,,,
對話,Manager,“Didn't I just say it?”,,,,,,,,,,,,,,
57,Lycianna Yeh,“What did you say?”,,,,,,,,,,,,,,
對話,Manager,“Oral.”,,,,,,,,,,,,,,
旁白,,Lycianna couldn't help but roll her eyes* unable to even smile.,,,,,,,,,,,,,,
,,{Wait},,,,,,,,,,0.5,,,,
,,{DeletePicture},,,,,,,,,,,,,,
,,{CreateBackground},,,,,,,,,,Lounge1,,,,
,,{Wait},,,,,,,,,,0.5,,,,
旁白,,I pushed my cum laden dick onto Lycianna's mouth. She refuse to cooperate so I held her head still and rub my dick against her lips.,,,,,,,,,,,,,,
58,Lycianna Yeh,“Uh* uhm* uhz….”,0,,,8,,裸,TRUE,TRUE,,,,,,
旁白,,Lycianna sighed and finally gave in. She held my cock in her mouth* licking off every bits of cum on it.,,,,,,,,,,,,,,
59,Lycianna Yeh,"""Is there anything else* uh….""",0,,,10,,裸,,TRUE,,,,,,
對話,Manager,“Anything else? Hmm* yes* lick it* lick it clean.”,,,,,,,,,,,,,,
60,Lycianna Yeh,“I'll bite* uh* it off…..”,0,,,10,,裸,,TRUE,,,,,,
,,{Wait},,,,,,,,,,0.5,,,,
,,{DeleteAllActor},,,,,,,,,,,,,,
旁白,,Her threats send a shiver down my spine and gave me a shock. I quickly pull my dick away from her to put an end to this.,,,,,,,,,,,,,,
旁白,,"I'll forever remember this scene* 'Agari's Staff Room Battle.' Will be a good ""side dish"" to savour from time to time.",,,,,,,,,,,,,,
,,{Wait},,,,,,,,,,1,,,,
