﻿0.對話方式,1.角色名稱,2.台詞,3.角色起點,4.角色終點,5.行走時間,6.角色表情,7.表情符號,8.服裝,9.淡入,10.特寫,11,12.事件參數1,13.事件參數2,14.事件參數3,15.事件參數4,16.事件參數5
,,{CreateBackground},,,,,,,,,,Black,,,,
,,{Wait},,,,,,,,,,0.5,,,,
旁白,,Lycianna had a dream that night,,,,,,,,,,,,,,
旁白,,While dreaming she recalled a heart aching grudge with Dominic* which she'd rather forget.,,,,,,,,,,,,,,
,,{PlayBGM},,,,,,,,,,bgm_days02,0.5,,,
心想,Lycianna Yeh,I didn’t expect this place to be so guarded. Having to be blindfolded just to journey the mountains.,,,,,,,,,,,,,,
心想,Lycianna Yeh,Luckily* I’m prepared. I won’t be tricked.,,,,,,,,,,,,,,
對話,Driver,We have arrived* time to get off.,,,,,,,,,,,,,,
,,{DeleteAllActor},,,,,,,,,,,,,,
,,{CreateBackground},,,,,,,,,,Black,,,,
,,{Loading},,,,,,,,,,2,2,1,,
,,{CreateBackground},,,,,,,,,,Villa1,,,,
,,{Wait},,,,,,,,,,0.5,,,,
旁白,,Lycianna removed her blinds and got sight of a secluded villa on the moutainside. It appeared both luxurious and low-key.,,,,,,,,,,,,,,
旁白,,She's here for a gathering which many celebrities also supposedly will attend. Lucianna's master has told her about the place.,,,,,,,,,,,,,,
旁白,,As she approached the entrance a guard stopped her.,,,,,,,,,,,,,,
對話,Guard,"“Stop there* where are you going?""",450,,,EX24,,,TRUE,,,,,,,
對話,Lycianna Yeh,“Why do you have to ask* don't you see what I'm wearing?”,-450,,,4,,旗袍,TRUE,,,,,,,
旁白,,During such gatherings the guard was used to seeing strangers and sexually dressed women enter.,,,,,,,,,,,,,,
,Guard,{MoveActor},450,1,0.5,EX24,,,,,,,,,,
旁白,,The guard initially searched Lucianna's body using a metal detector* before being more thorough with his hands.,,,,,,,,,,,,,,
旁白,,Lucianna was dressed in cheongsam* tightly wrapped around her graceful body. Her nipples seductively pointing out from the fabric* teasing anyone that layed eyes on them.,,,,,,,,,,,,,,
對話,Guard,“Sorry* I'm just doing my job.”,1,,,EX24,,,,,,,,,,
,,{PlayEffect},,,,,,,,,,se_poipoi,FALSE,,,
旁白,,The guard proceeded to grope Lucianna's highly raised boobs* taking his time while rubbing them.,,,,,,,,,,,,,,
對話,Lycianna Yeh,“Finished touching?”,-450,,,12,,旗袍,,,,,,,,
旁白,,The guard stopped as Lucianna raised her voice.,,,,,,,,,,,,,,
對話,Guard,Like I said* I'm only doing my job. Don't be nervous.,1,450,0.5,EX24,,,,,,,,,,
對話,Lycianna Yeh,“Well if you want to keep touching you should stop guarding the door and step inside”,-450,,,15,,旗袍,,,,,,,,
對話,Guard,“Thanks for the advice. You may enter.”,450,,,EX24,,,,,,,,,,
心想,Lycianna Yeh,(How would you find out).,-450,,,2,得意,旗袍,,,,,,,,
旁白,,Lucianna avoided the guard seizing the poison she had hidden by her nipples. She figured this area to be both functional and discreet.,,,,,,,,,,,,,,
,,{DeleteAllActor},,,,,,,,,,,,,,
,,{CreateBackground},,,,,,,,,,Black,,,,
,,{FadeBGM},,,,,,,,,,0,1,,,
,,{Loading},,,,,,,,,,2,2,1,,
,,{PlayBGM},,,,,,,,,,bgm_Heroine02,0.5,,,
,,{CreateBackground},,,,,,,,,,Villa2,,,,
,,{Wait},,,,,,,,,,0.5,,,,
,Lycianna Yeh,{CreateActor},-450,,,1,,旗袍,TRUE,,,,,,,
旁白,,As Lucianna enters the banquet hall* the gathering is yet to start. Looking around it's apparent most men scattered around the hall have already found partners.,,,,,,,,,,,,,,
旁白,,Whereas the other women are also wearing cheongsam* theirs leaves nothing to the imagination. With all curves showing* there's no chance of any of them concealing weapons.,,,,,,,,,,,,,,
旁白,,An uncouth* wealthy and somewhat sketchy looking fellow approached Lycianna.,,,,,,,,,,,,,,
對話,Man,“You must be the whore A-long introduced? Hehe* those boobs look amazing. I bet your booty must be nice to fuck too* hahaha.”,450,,,EX14,開心,,TRUE,,,,,,,
旁白,,Amidst his rude attitude* Lycianna only responded with a flirtatious smile.,,,,,,,,,,,,,,
對話,Lycianna Yeh,“How would you know if you haven't tried?”,-450,,,14,,旗袍,,,,,,,,
對話,Man,“Well* does that mean you'll let me?”,450,,,EX14,,,,,,,,,,
對話,Lycianna Yeh,“Why else would I be here? Naturally your offer must be sufficient though”,-450,,,13,,旗袍,,,,,,,,
對話,Man,“Oh* is that so? Well I've got plenty of money* don't you worry”,450,,,EX14,得意,,,,,,,,,
對話,Lycianna Yeh,“Well* what are you waiting for?”,-450,,,4,,旗袍,,,,,,,,
,,{DeleteAllActor},,,,,,,,,,,,,,
旁白,,The uncouth man laughed as he carried Lycianna to a room beside the banquet hall.,,,,,,,,,,,,,,
旁白,,The nearby guessed grinned* but thought little of it. Shouldn't they be used to such arrangements when attending such gatherings?,,,,,,,,,,,,,,
,,{DeleteAllActor},,,,,,,,,,,,,,
,,{CreateBackground},,,,,,,,,,Black,,,,
,,{Loading},,,,,,,,,,1.5,1.5,1,,
,,{CreateBackground},,,,,,,,,,Villaroom,,,,
,,{Wait},,,,,,,,,,0.5,,,,
,Man,{CreateActor},0,,,EX14,,,TRUE,,,,,,,
,,{Wait},,,,,,,,,,1,,,,
,,{PlayEffect},,,,,,,,,,se_faint,FALSE,,,
,,{DeleteAllActor},,,,,,,,,,,,,,
旁白,,Upon entering the room* Lycianna easily knocked the man out using her knife.,,,,,,,,,,,,,,
對話,Lycianna Yeh,“Found the target straight away* it must be my lucky day”,0,,,5,開心,旗袍,TRUE,,,,,,,
旁白,,Lycianna removes the poison from besides her nipples and places it in his mouth. It is designed to work after one day.,,,,,,,,,,,,,,
旁白,,Thereafter she feeds him some hallucinogenic drugs* leaving him feeling fizzy as he loses consciousness.,,,,,,,,,,,,,,
對話,Lycianna Yeh,“This is a unique treatment* sweet dreams.”,0,,,14,得意,旗袍,,,,,,,,
,,{DeleteAllActor},,,,,,,,,,,,,,
旁白,,Lycianna strips off the mans clothing and spreads lubricant around the room and his crotch* hypnotically moaning to create an illusion.,,,,,,,,,,,,,,
旁白,,All this had taken her no longer than 5 minutes....,,,,,,,,,,,,,,
心想,Lycianna Yeh,(Was I too fast* maybe I should wait a moment?),0,,,1,,旗袍,TRUE,TRUE,,,,,,
心想,Lycianna Yeh,(Whatever. He'd probably last 3 seconds* so 5 minutes is being generous),0,,,14,開心,旗袍,,TRUE,,,,,,
,,{DeleteAllActor},,,,,,,,,,,,,,
,,{CreateBackground},,,,,,,,,,Black,,,,
,,{Loading},,,,,,,,,,1.5,1.5,1,,
,,{CreateBackground},,,,,,,,,,Villa1,,,,
,,{Wait},,,,,,,,,,0.5,,,,
旁白,,As Lycianna leaves the room she tells the waiters not to disturb the man.,,,,,,,,,,,,,,
旁白,,Heading for the exit the guard got a strange feeling* stopping Lycianna promptly.,,,,,,,,,,,,,,
對話,Guard,“Leaving already?”,450,,,EX24,,,TRUE,,,,,,,
對話,Lycianna Yeh,“I'm only interested in money* not love. What else is there to do?”,-450,,,6,,旗袍,TRUE,,,,,,,
對話,Guard,“Alright* we'll arrange for someone to escort you down in a moment.”,450,,,EX24,,,,,,,,,,
對話,Lycianna Yeh,“Don't worry* I see there is a bus stop in the area* I'll wait there.”,-450,,,5,,旗袍,,,,,,,,
心想,Lycianna Yeh,(The longer I stick around the more dangerous it will become.),-450,,,12,,旗袍,,,,,,,,
旁白,,Not wanting the guard to delay her further* Lycianna whispered to him.,,,,,,,,,,,,,,
對話,Lycianna Yeh,“If you'd like to play with me you should bring more money* and I'll treat you properly.”,-450,,,14,,旗袍,,,,,,,,
旁白,,The guard seemingly in awe gives Lucianna the necessary time to leave.,,,,,,,,,,,,,,
,,{Wait},,,,,,,,,,0.5,,,,
,,{DeleteAllActor},,,,,,,,,,,,,,
,,{CreateBackground},,,,,,,,,,Black,,,,
旁白,,She found a small bus stop nearby* but the bus won't arrive for a while. The plan had seemingly gone very easy.,,,,,,,,,,,,,,
旁白,,It started raining and within little time it was practically storming outside.,,,,,,,,,,,,,,
旁白,,The bus stop was a whreck. The rain would fall on a chair before bouncing back on Lycianna. She could only wait* but with little clothes she was beginning to get cold.,,,,,,,,,,,,,,
,,{PlayEffect},,,,,,,,,,se_faint,FALSE,,,
旁白,,Shortly after the bus finally arrived… As the doors opened the driver quickly sprung off his seat* grabbing Lucianna before she got the chance to react.,,,,,,,,,,,,,,
1,Lycianna Yeh,“Aren't you the guard* what's going on!?”,,,,,,,,,,,,,,
對話,Guard,“I expected you to have figured it out by now* guess I'll have to remove my disguise.”,,,,,,,,,,,,,,
2,Lycianna Yeh,“What do you mean? Who the fuck are you?!”,,,,,,,,,,,,,,
,,{DeleteAllActor},,,,,,,,,,,,,,
,,{CreateBackground},,,,,,,,,,Black,,,,
,,{FadeBGM},,,,,,,,,,0,1,,,
,,{Loading},,,,,,,,,,2,2,1,,
,,{PlayBGM},,,,,,,,,,bgm_sexy01,0.5,,,
,,{CreatePicture},,,,,,,,,,1,B1,LianShin_Hex1_001,,
,,{Wait},,,,,,,,,,0.5,,,,
對話,Manager,“hehe* it's me Dominic! It's been a while Lycianna!”,,,,,,,,,,,,,,
對話,Manager,“You seem very energetic* must've been living well?”,,,,,,,,,,,,,,
3,Lycianna Yeh,“What are you doing here?”,,,,,,,,,,,,,,
對話,Manager,“You were acting suspicious so I checked out the room... your little tricks won't fool me. The man you abandoned has already been sent to the hospital.”,,,,,,,,,,,,,,
對話,Manager,“I'm a security guard after all. Just doing my job* right?”,,,,,,,,,,,,,,
對話,Manager,“If I were to find you* my boss has instructed me to 'punish that whore greatly'. Something I intend to take great pleasure in.”,,,,,,,,,,,,,,
4,Lycianna Yeh,“What* what do you mean? Don't touch me!”,,,,,,,,,,,,,,
對話,Manager,“I just told you whore! It is my job to punish you immensely.”,,,,,,,,,,,,,,
旁白,,As he spoke* Dominic tied Lycianna's hands together fixed by a tree.,,,,,,,,,,,,,,
5,Lycianna Yeh,“Per* pervert! Let me go at once or I'll call for help!”,,,,,,,,,,,,,,
對話,Manager,“Call as much as you want. Even bursting your throat won't help you out here.”,,,,,,,,,,,,,,
旁白,,Lycianna looked around. This whrecked village bus stop probably doesn't serve many people* and all this rain surely hides any sound she could make... It's doubtful she'd alert any passerbys.,,,,,,,,,,,,,,
旁白,,By now one of Lycianna's legs has already been raised.,,,,,,,,,,,,,,
旁白,,Her clothes torn apart with half of her round and giant boobs falling out.,,,,,,,,,,,,,,
對話,Manager,“You seem excited already.”,,,,,,,,,,,,,,
對話,Manager,“Surely this will be less of a punishment to you and more like a reward?”,,,,,,,,,,,,,,
6,Lycianna Yeh,“How* how so?! You think this is normal?!”,,,,,,,,,,,,,,
對話,Manager,“Well for you being ready to fuck must be normal* right?”,,,,,,,,,,,,,,
7,Lycianna Yeh,“No* not at all! Who do you think I am?!”,,,,,,,,,,,,,,
對話,Manager,“Well didn't you just do it when you were inside the villa?”,,,,,,,,,,,,,,
8,Lycianna Yeh,“Duh* I wouldn't let that dirty man touch me.”,,,,,,,,,,,,,,
對話,Manager,“Well given what you told me I'm won't be holding anything back!”,,,,,,,,,,,,,,
9,Lycianna Yeh,“Don't say that* uhmmmmmm!”,,,,,,,,,,,,,,
,,{CreatePicture},,,,,,,,,,1,B1,LianShin_Hex1_002,,
旁白,,Dominic straightened his body putting his dick inside her without warning* using her like his filthy toy.,,,,,,,,,,,,,,
旁白,,Lycianna was already quite wet* but with little foreplay his huge cock tore her pussy wide open. Lycianna felt pain and a sore paralyzing feeling taking over her body.,,,,,,,,,,,,,,
10,Lycianna Yeh,“Ah! Uh* uh.....”,,,,,,,,,,,,,,
旁白,,Although Lycianna didn't want to show any emotions* she couldn't help but mask the pain.,,,,,,,,,,,,,,
對話,Manager,“Given your beauty I don't want to be this rude* I just can't help myself. After all you're being punished.”,,,,,,,,,,,,,,
11,Lycianna Yeh,“You* you......uhmm.... Well aren't you afraid that I uhmmm.....”,,,,,,,,,,,,,,
對話,Manager,“I'll do what I can to please you* so just enjoy it.”,,,,,,,,,,,,,,
12,Lycianna Yeh,“Stop* stop* that's just wishful thinking on your part… Uhmm!”,,,,,,,,,,,,,,
,,{PlayHEffect},,,,,,,,,,SEX_M_12s,TRUE,,,
旁白,,Dominic cared little for what Lycianna had to say* he slowly swayed their bodies to let his cock thrust her hole back and forth.,,,,,,,,,,,,,,
旁白,,Her tiny pussy was like a hungry mouth* sucking Dominic's hard glans* making a erotic ‘pop’ sound as he thrusted back and forth.,,,,,,,,,,,,,,
13,Lycianna Yeh,“Don't think for a second that* uh* uh.....that I'll let this slide* I can't believe you'd do this.....”,,,,,,,,,,,,,,
旁白,,In twisting her body Lycianna attempts to resist* but that only makes her tight pussy grip harder on Dominic's cock* allowing him to feel around her pussy.,,,,,,,,,,,,,,
14,Lycianna Yeh,“Get it out! uhm.....hew* hew....I will* I'm going to kill you.....”,,,,,,,,,,,,,,
旁白,,Dominic turned sideways. The immense pleasure as his dick rubbe back and forth eroding his sanity.,,,,,,,,,,,,,,
15,Lycianna Yeh,“Uhm* hmm* please I beg you* let me go.....”,,,,,,,,,,,,,,
旁白,,Lycianna's behavior started becoming softer. Her pussy was no longer gripping as hard. She was wet and moist as if she needed more dick inside.,,,,,,,,,,,,,,
旁白,,She began making a mourning sound. Her begging became less so for mercy and more as if she was desiring to be conquered!,,,,,,,,,,,,,,
16,Lycianna Yeh,“Uhm* hm* hmmmmm....”,,,,,,,,,,,,,,
17,Lycianna Yeh,“No* no it's too big* ah* ah* you're going to break me if you fuck me like this ....I really can't hmmmm~”,,,,,,,,,,,,,,
旁白,,Dominic only increased his making Lycianna's moans of pleasure out of her control. Her face was turning all red as she became totally immersed in the pleasure of sex.,,,,,,,,,,,,,,
對話,Manager,“Your moans turn me on. No one's around* just scream as loud as you want.”,,,,,,,,,,,,,,
18,Lycianna Yeh,“Don't* don't say that* ha* hm* you shouldn't be proud* I'm going to make you pay for this.”,,,,,,,,,,,,,,
19,Lycianna Yeh,“Hum* hum hm* I won't yield* it's not happening* absolutely not* ha aah”,,,,,,,,,,,,,,
對話,Manager,“Still acting stubborn* I must've not punished you enough yet.”,,,,,,,,,,,,,,
20,Lycianna Yeh,“What* what else could you possibly do? No-----uuuh!”,,,,,,,,,,,,,,
,,{StopEffect},,,,,,,,,,SEX_M_12s,,,,
,,{CreatePicture},,,,,,,,,,1,B1,LianShin_Hex1_003,,
旁白,,Dominic started groping Lycianna's boobs.,,,,,,,,,,,,,,
旁白,,Being stimulated on two fronts Lycianna can't hide her excitement. By slightly touching her extremely sensitive boobs* Lycianna continued moaning while her pussy kept getting wetter.,,,,,,,,,,,,,,
對話,Manager,“Seems like your boobs are heavy* I'll help you with that.”,,,,,,,,,,,,,,
21,Lycianna Yeh,“Don't* don't exaggerate! Get your dirty hands off me!”,,,,,,,,,,,,,,
對話,Manager,“I didn't get enough of a feel earlier* so now I'm really going to have a good time.”,,,,,,,,,,,,,,
22,Lycianna Yeh,“Really* hew* hew hm* such grudge holder.....”,,,,,,,,,,,,,,
23,Lycianna Yeh,“Please just let me go quickly* not there please* I'll* I'll turn strange....”,,,,,,,,,,,,,,
對話,Manager,“Really? Well let me change my approach then.”,,,,,,,,,,,,,,
旁白,,With that* Dominic's hands began rubbing them immensely* his fingers locking Lyciannas nipples* rubbing them back and forth.,,,,,,,,,,,,,,
,,{CreatePicture},,,,,,,,,,1,B1,LianShin_Hex1_004,,
,,{PlayHEffect},,,,,,,,,,SYASEI_4s,FALSE,,,
24,Lycianna Yeh,“Uh* uh----aaaaaaaaaaaah!”,,,,,,,,,,,,,,
旁白,,Lycianna was reaching the peak of her orgasm* her pussy squirting out* turning the whole lower body soaking wet.,,,,,,,,,,,,,,
25,Lycianna Yeh,“You* you* wow... hew* hew* you're so good* everything splashed out of me hmm....it's so good.....”,,,,,,,,,,,,,,
對話,Manager,“Hey* this is punishments* you shouldn't be comming first.”,,,,,,,,,,,,,,
26,Lycianna Yeh,“Shut up pervert* if you want it so bad just continue till you're done.”,,,,,,,,,,,,,,
對話,Manager,“Why* do you think I'm scared?”,,,,,,,,,,,,,,
27,Lycianna Yeh,“Come on put it in as deep as you can* enjoy me more hmm”,,,,,,,,,,,,,,
旁白,,Lycianna's orgasm made her dizzy from her. She no longer cared and as her reserved behavior vanished. Her moaning continued in pleasure.,,,,,,,,,,,,,,
對話,Manager,“As if my big cock won't satisfy you enough.”,,,,,,,,,,,,,,
,,{PlayHEffect},,,,,,,,,,SEX_B_15s,TRUE,,,
旁白,,Dominic became furious* straightening his dick and fucking Lycianna as if he was crazy. The sound of their bodies colliding almost overpowering the rain.,,,,,,,,,,,,,,
28,Lycianna Yeh,“You're so intense* it's so hard uhmmm* it's going to break if you keep going like this uuuh.....”,,,,,,,,,,,,,,
旁白,,Lycianna moans uncontrollably from the pain and extreme pleasure she's experiencing.,,,,,,,,,,,,,,
旁白,,Dominic isn't showing any intention of slowing down* he keeps thrusting crazily.,,,,,,,,,,,,,,
對話,Manager,“Ok* then I'll stop....but first I have to fill you up!”,,,,,,,,,,,,,,
29,Lycianna Yeh,“Hot* hew hm* I feel your cum bursting in* ah* ah* please* faster!....”,,,,,,,,,,,,,,
30,Lycianna Yeh,“wow* hm* uhm* you're amazing* it even poked opened a bit of my womb* hew* hm.....”,,,,,,,,,,,,,,
31,Lycianna Yeh,“Don't* don't stop* don't hold anything back! Shoot all your cum inside me* I want it all ahmmmmmmm~”,,,,,,,,,,,,,,
對話,Manager,“Hm!”,,,,,,,,,,,,,,
,,{Flash},,,,,,,,,,,,,,
32,Lycianna Yeh,“Uuuuuuuuuh!”,,,,,,,,,,,,,,
,,{StopEffect},,,,,,,,,,SEX_B_15s,,,,
,,{PlayHEffect},,,,,,,,,,SYASEI_4s,,,,
,,{Wait},,,,,,,,,,1.5,,,,
,,{Flash},,,,,,,,,,,,,,
旁白,,Dominic groans quietly* he shoots his massive load inside Lycianna as she trembles instensely. Her screams quieter as she reaches another orgasm.,,,,,,,,,,,,,,
33,Lycianna Yeh,“Amazing* wow* that was so good....”,,,,,,,,,,,,,,
對話,Manager,“Satisfied already?”,,,,,,,,,,,,,,
34,Lycianna Yeh,“More* more....uh! No*no I mean let me go at once!”,,,,,,,,,,,,,,
對話,Manager,“Then I'll pull it out.”,,,,,,,,,,,,,,
35,Lycianna Yeh,“Stop* stop talking and pull that dirty dick out.”,,,,,,,,,,,,,,
對話,Manager,“As you wish.”,,,,,,,,,,,,,,
36,Lycianna Yeh,“Wait* slow* slowly uuhmmmmmmm!”,,,,,,,,,,,,,,
,,{PlayHEffect},,,,,,,,,,SYASEI_2s,,,,
,,{CreatePicture},,,,,,,,,,1,B1,LianShin_Hex1_005,,
旁白,,Dominic quickly pulls out his dick as her pussy wrinkles together* giving an extremely sensitive Lycianna yet another orgasm.,,,,,,,,,,,,,,
37,Lycianna Yeh,“Hew* hew hm* really what even is this....”,,,,,,,,,,,,,,
38,Lycianna Yeh,“Now that you're happy* let me go. I have to get out of here.”,,,,,,,,,,,,,,
對話,Manager,“No* who told you that I was finished? I'm just having a bit of a breather.”,,,,,,,,,,,,,,
39,Lycianna Yeh,“Don't cross the line! Haven't you accomplished your mission!?”,,,,,,,,,,,,,,
對話,Manager,“Yea sure* the mission of punishing you is done. Next I'm going to revenge how you despised me and stopped me from touching you”,,,,,,,,,,,,,,
40,Lycianna Yeh,“That doesn't make any sense* who would randomly allow you to touch them.”,,,,,,,,,,,,,,
對話,Manager,“Hum hum* nothing in this world makes sense* you should know that much.”,,,,,,,,,,,,,,
,,{CreatePicture},,,,,,,,,,1,B1,LianShin_Hex1_002,,
,,{PlayHEffect},,,,,,,,,,SEX_M_12s,TRUE,,,
旁白,,Dominic's cock didn't need much of a break. Having just ejaculated* he proceeded to immediately start another round as he put it in her pussy full of semen.,,,,,,,,,,,,,,
41,Lycianna Yeh,“Ahm* uuh.....again! it's already so deep please....”,,,,,,,,,,,,,,
42,Lycianna Yeh,“I just* I just came* I'm so sore and numb. Uhm* it's so sensitive......”,,,,,,,,,,,,,,
對話,Manager,“I can tell* your pussy is even tighter now.”,,,,,,,,,,,,,,
43,Lycianna Yeh,“Your cock* is destroying my pussy....”,,,,,,,,,,,,,,
44,Lycianna Yeh,“Uhm* my body feels so strange* I can't think straight anymore........”,,,,,,,,,,,,,,
對話,Manager,“Just leave everything to me* hehe* you just keep enjoying yourself.”,,,,,,,,,,,,,,
,,{StopEffect},,,,,,,,,,SEX_M_12s,,,,
,,{PlayHEffect},,,,,,,,,,SEX_B_15s,TRUE,,,
,,{CreatePicture},,,,,,,,,,1,B1,LianShin_Hex1_003,,
旁白,,As he's spoke Dominic began speeding up* innocently and yet roughly using Lycianna as he pleases.,,,,,,,,,,,,,,
45,Lycianna Yeh,“I'm* I'm* hm* you're forcing me....but it's so good* uuh* really it's incredible....”,,,,,,,,,,,,,,
旁白,,The passive Lycianna can no longer resist* she's expressing her overflowing pleasure through delicatly moaning.,,,,,,,,,,,,,,
46,Lycianna Yeh,“Don't forget my nipples* they want it too.”,,,,,,,,,,,,,,
對話,Manager,“Seriously* I'm sure that before you accept me* you'll first love our sex together.”,,,,,,,,,,,,,,
47,Lycianna Yeh,“It's so* so great* I'm already cumming again aaaaaaah”,,,,,,,,,,,,,,
,,{Wait},,,,,,,,,,0.5,,,,
,,{DeleteAllActor},,,,,,,,,,,,,,
,,{CreateBackground},,,,,,,,,,Black,,,,
,,{DeletePicture},,,,,,,,,,,,,,
旁白,,The two won't stop cumming as it splashes all around and leaks out from all the thrusting. The entire bus stop being filled with a thick sex odor.,,,,,,,,,,,,,,
,,{StopEffect},,,,,,,,,,SEX_B_15s,,,,
,,{Loading},,,,,,,,,,2,2,1,,
,,{CreatePicture},,,,,,,,,,1,B1,LianShin_Hex1_004,,
旁白,,Some time passes before the two finally wakes up from their seemingly endless enjoyment.,,,,,,,,,,,,,,
旁白,,The wonderful aftertaste is still there* seems like someone doesn't want it to end like this........,,,,,,,,,,,,,,
對話,Manager,“Lycianna* I think we're made for each other* just see how you enjoyed it. How about you quit from the organization and follow me?”,,,,,,,,,,,,,,
48,Lycianna Yeh,“Dream on!”,,,,,,,,,,,,,,
對話,Manager,“Really* well fine then. I'm going.”,,,,,,,,,,,,,,
49,Lycianna Yeh,“Get the fuck out! I'd better not see you ever again!”,,,,,,,,,,,,,,
,,{CreatePicture},,,,,,,,,,1,B1,LianShin_Hex1_005,,
旁白,,Dominic shrugs his shoulders as he leaves the area.,,,,,,,,,,,,,,
50,Lycianna Yeh,“Wait* wait* where are you going? Release me first!”,,,,,,,,,,,,,,
對話,Manager,“Just wait hehe* let's see if you're lucky. I don't know wether the next person will release you* or maybe find additional people to fuck you as well?”,,,,,,,,,,,,,,
對話,Lycianna Yeh,“Let me go or I won't forget it!”,,,,,,,,,,,,,,
旁白,,Dominic gets on the bus.,,,,,,,,,,,,,,
51,Lycianna Yeh,“I'm begging you* just release me!”,,,,,,,,,,,,,,
旁白,,Dominic sits down on the driver's seat.,,,,,,,,,,,,,,
52,Lycianna Yeh,“Wait* wait!”,,,,,,,,,,,,,,
旁白,,Dominic ignites the engine.,,,,,,,,,,,,,,
53,Lycianna Yeh,“Fine! I'll fuck you one last time* for half day* half day ok!? Don't leave me here!”,,,,,,,,,,,,,,
對話,Manager,“Hum hum* as you please.”,,,,,,,,,,,,,,
,,{Wait},,,,,,,,,,0.5,,,,
,,{DeleteAllActor},,,,,,,,,,,,,,
,,{DeletePicture},,,,,,,,,,,,,,
,,{CreateBackground},,,,,,,,,,Black,,,,
旁白,,Dominic untied her hands and carried Lycianna onboard the bus......,,,,,,,,,,,,,,
旁白,,This memory still haunts Lycianna's mind.,,,,,,,,,,,,,,
,,{Wait},,,,,,,,,,1.5,,,,
,,{DeleteAllActor},,,,,,,,,,,,,,
