﻿0.對話方式,1.角色名稱,2.台詞,3.角色起點,4.角色終點,5.行走時間,6.角色表情,7.表情符號,8.服裝,9.淡入,10.特寫,11,12.事件參數1,13.事件參數2,14.事件參數3,15.事件參數4,16.事件參數5
,,{CreateBackground},,,,,,,,,,Store1,,,,
,,{PlayBGM},,,,,,,,,,bgm_days01,0.5,,,
,,{Wait},,,,,,,,,,0.5,,,,
對話,Stella,“Here's your condom* 131 Yuan* aaah~”,-600,,,WK06,,,TRUE,,,,,,,
對話,customer,“Are you ok? Why did you suddenly scream?”,600,,,EX08,問號,,TRUE,,,,,,,
對話,Stella,“Nothing. I wanted to ask if you guys are short of people? Do you want me to teach you how to be comfortable?”,-600,,,WK06,,,,,,,,,,
對話,customer,“No. I'm good* thanks.”,600,,,EX08,,,,,,,,,,
對話,Gin Yen,“Please don't argue with the male customers!”,1,,,10,生氣,半制服,TRUE,,,,,,,
,,{DeleteAllActor},,,,,,,,,,,,,,
,,{CreateBackground},,,,,,,,,,Black,,,,
,,{Loading},,,,,,,,,,1.5,1.5,1,,
,,{CreateBackground},,,,,,,,,,Store1,,,,
,,{Wait},,,,,,,,,,0.5,,,,
對話,Stella,“Wow customer* this toy of yours is really awesome. I bet it would be so comfortable to play with it.”,-600,,,WK06,,,TRUE,,,,,,,
對話,customer,“Oh! This lady is weird!”,600,,,EX01,,,TRUE,,,,,,,
對話,Gin Yen,“Now don't go doing it to our female customers either….”,1,,,10,汗顏,半制服,TRUE,,,,,,,
,,{DeleteAllActor},,,,,,,,,,,,,,
,,{CreateBackground},,,,,,,,,,Black,,,,
,,{Loading},,,,,,,,,,1.5,1.5,1,,
,,{CreateBackground},,,,,,,,,,Store1,,,,
,,{Wait},,,,,,,,,,0.5,,,,
對話,Stella,“Gin* come check this out.”,-450,,,WK06,,,TRUE,,,,,,,
對話,Gin Yen,“What? Isn't it just a dog?”,450,,,1,,半制服,TRUE,,,,,,,
對話,Stella,“My god this dog outside has a really huge penis* so huge! I wonder what it feels like if I were to stick it inside me….”,-450,,,WK06,,,,,,,,,,
對話,Gin Yen,“……….”,450,,,6,無言,半制服,,,,,,,,
,,{Wait},,,,,,,,,,1,,,,
,,{DeleteAllActor},,,,,,,,,,,,,,
