﻿0.對話方式,1.角色名稱,2.台詞,3.角色起點,4.角色終點,5.行走時間,6.角色表情,7.表情符號,8.服裝,9.淡入,10.特寫,11,12.事件參數1,13.事件參數2,14.事件參數3,15.事件參數4,16.事件參數5
,,{CreateBackground},,,,,,,,,,Store,,,,
,,{PlayBGM},,,,,,,,,,bgm_days01,0.5,,,
,,{Wait},,,,,,,,,,0.5,,,,
對話,Customer,“I like you a lot! Do you want to date me!”,,,,,,,,,,,,,,
旁白,,There was a disturbance outside. I poke my head out to investigate and see a Customer confessing to Erika with a bucket of flowers.,,,,,,,,,,,,,,
,Customer,{CreateActor},450,,,EX08,,,TRUE,,,,,,,
對話,Erika,“Sorry* I'm married.”,-450,,,WK07,,,TRUE,,,,,,,
旁白,,Erika was worried that he wouldn't believe her. So she showed her wedding ring to him* but…..,,,,,,,,,,,,,,
對話,Customer,“Isn't it better?”,450,,,EX08,,,,,,,,,,
對話,Erika,“What?”,-450,,,WK07,反問號,,,,,,,,,
對話,Customer,“As the saying goes* ‘stealing someone's love is the definition of true love* takes a real man to date someone who is already taken’----”,450,,,EX08,,,,,,,,,,
對話,Customer,“Ma'am* I like you! Please date me!”,450,,,EX08,驚嘆號,,,,,,,,,
對話,Erika,“Uh….Thanks for your admiration…..but I won't betray my husband.”,-450,,,WK07,,,,,,,,,,
對話,Manager,“Sorry* that is my wife. Please don't bother her like this.”,-1,,,1,,制服,,,,,,,,
對話,Customer,“Oh….Wait* you're the husband?”,450,,,EX08,,,,,,,,,,
對話,Manager,“Not really no. I'm her other man if you know what I mean and no* we don't have room for one more.”,-1,,,4,,制服,,,,,,,,
對話,Customer,“……………”,450,,,EX08,無言,,,,,,,,,
旁白,,Seeing Erika distressed* I stepped over to help and sent the man away.,,,,,,,,,,,,,,
,,{DeleteAllActor},,,,,,,,,,,,,,
對話,Erika,“Ah* I can't believe this happened….I wonder how John will react when I tell him?”,0,,,WK07,開心,,TRUE,TRUE,,,,,,
,,{Wait},,,,,,,,,,1,,,,
,,{DeleteAllActor},,,,,,,,,,,,,,
