﻿0.對話方式,1.角色名稱,2.台詞,3.角色起點,4.角色終點,5.行走時間,6.角色表情,7.表情符號,8.服裝,9.淡入,10.特寫,11,12.事件參數1,13.事件參數2,14.事件參數3,15.事件參數4,16.事件參數5
,,{CreateBackground},,,,,,,,,,Store1,,,,
,,{PlayBGM},,,,,,,,,,bgm_days02,0.5,,,
,,{Wait},,,,,,,,,,0.5,,,,
對話,EKKO,“Hello* welcome* do you need anything?”,-450,,,WK08,,,TRUE,,,,,,,
對話,Customer,“Could I get something drink…..”,450,,,EX09,,,TRUE,,,,,,,
對話,EKKO,“Ok* I'm Ekko. Here is your coffee!”,-450,,,WK08,,,,,,,,,,
對話,Customer,“That fast? I haven't even ordered yet….”,450,,,EX09,問號,,,,,,,,,
對話,EKKO,“No problem* I knew order. Do you need anything else?”,-450,,,WK08,,,,,,,,,,
對話,Customer,“Ok* hmm* can I get….”,450,,,EX09,,,,,,,,,,
對話,EKKO,“Done. Here is your spaghetti. Your total is 99 Yuan! Thanks for your purchase!”,-450,,,WK08,,,,,,,,,,
對話,Customer,“It's like she can read my mind!”,450,,,EX09,驚嘆號,,,,,,,,,
對話,EKKO,"""I see your lips curving* your brows show a feeling of desire* and your pants have an elevation of 3.25cm. I suggest you buy a pack of condoms.”",-450,,,WK08,,,,,,,,,,
對話,Customer,“Haha* I don't really need it…..”,450,,,EX09,,,,,,,,,,
對話,EKKO,“No problem. I recommend you buy a morning-after pill at the pharmacy across the street. Raising a child nowadays could be at least 10 million Yuan.”,-450,,,WK08,,,,,,,,,,
對話,Customer,“…..Fine* I'll buy a pack* thank you….”,450,,,EX09,無言,,,,,,,,,
對話,EKKO,“Next!”,-450,,,WK08,,,,,,,,,,
,,{Wait},,,,,,,,,,1,,,,
,,{DeleteAllActor},,,,,,,,,,,,,,
