0.對話方式,1.角色名稱,2.台詞,3.角色起點,4.角色終點,5.行走時間,6.角色表情,7.表情符號,8.服裝,9.淡入,10.特寫,11,12.事件參數1,13.事件參數2,14.事件參數3,15.事件參數4,16.事件參數5
,,{DisableAllButton},,,,,,,,,,,,,,
,,{CloseMainPanel},,,,,,,,,,,,,,
,,{Teach},,,,,,,,,,TRUE,FALSE,,,
,,{MoveTeach},,,,,,,,,,0,200,,,
教學,顏無菁,「剛才選購的商品已經順利進貨到倉儲了！」,,,,,,,,,,,,,,
教學,顏無菁,「那麼趕快把貨物重新上架吧！」,,,,,,,,,,,,,,
,,{ShowTeachMask},,,,,,,,,,7,,,,
,,{MoveTeach},,,,,,,,,,-150,-200,,,
教學,顏無菁,「請點擊<商品管理>。」,,,,,,,,,,BackgroundCanvas/MainButtons/,CommoditySetting,,,
,,{DisableButtonInChild},,,,,,,,,,GameUICanvas/MainAction/BuildCommodity/Menu,,,,
,,{DisableButtonInChild},,,,,,,,,,GameUICanvas/MainAction/BuildCommodity/Panel/Research,,,,
,,{ShowTeachMask},,,,,,,,,,16,,,,
,,{MoveTeach},,,,,,,,,,180,-135,,,
教學,顏無菁,「請點擊<商品擺放>。」,,,,,,,,,,GameUICanvas/MainAction/BuildCommodity/Menu/,SetupCommodity,,,
,,{UseSetupCommodity},,,,,,,,,,FALSE,,,,
,,{ShowTeachMask},,,,,,,,,,17,,,,
,,{MoveTeach},,,,,,,,,,400,0,,,
,,{DisableButtonInChild},,,,,,,,,,GameUICanvas/MainAction/BuildCommodity/Panel/SetupCommodity,,,,
,,{ShowCabinet},,,,,,,,,,4,0,TRUE,,
教學,顏無菁,「生蠔煎因為銷售一空*已經從架上消失了。」,,,,,,,,,,,,,,
教學,顏無菁,「只要販售到零的商品都會自動從商品架上下架*隨時檢查商品貨源也是便利商店非常重要的一環唷！」,,,,,,,,,,,,,,
,,{ShowTeachMask},,,,,,,,,,18,,,,
,,{EnableSetupCommodity},,,,,,,,,,4,0,,,
,,{UseSetupCommodity},,,,,,,,,,TRUE,,,,
教學,顏無菁,「請將<生蠔煎>拖曳至<主打商品櫃>的空格。」,,,,,,,,,,,,,,
,,{SetupCommodity},,,,,,,,,,,,2,,
,,{ShowCabinet},,,,,,,,,,4,0,FALSE,,
,,{ShowCabinet},,,,,,,,,,1,0,TRUE,,
,,{ShowTeachMask},,,,,,,,,,18,,,,
,,{ShowTeachMask},,,,,,,,,,21-2,,,,
,,{UseSetupCommodity},,,,,,,,,,FALSE,,,,
教學,顏無菁,「請點擊<飲品>種類。」,,,,,,,,,,GameUICanvas/MainAction/BuildCommodity/Panel/SetupCommodity/BuildSetupCommodity/,Type1,,,
,,{ShowTeachMask},,,,,,,,,,19-1,,,,
,,{EnableSetupCommodity},,,,,,,,,,1,0,,,
,,{UseSetupCommodity},,,,,,,,,,TRUE,,,,
教學,顏無菁,「請把<零諷飲>擺放到<飲品櫃>上。」,,,,,,,,,,,,,,
,,{SetupCommodity},,,,,,,,,,,,19,,
,,{ShowCabinet},,,,,,,,,,1,0,FALSE,,
,,{ShowCabinet},,,,,,,,,,2,0,TRUE,,
,,{ShowTeachMask},,,,,,,,,,22,,,,
,,{UseSetupCommodity},,,,,,,,,,FALSE,,,,
教學,顏無菁,「請點擊<雜貨>種類。」,,,,,,,,,,GameUICanvas/MainAction/BuildCommodity/Panel/SetupCommodity/BuildSetupCommodity/,Type2,,,
,,{ShowTeachMask},,,,,,,,,,19-2,,,,
,,{EnableSetupCommodity},,,,,,,,,,2,0,,,
,,{UseSetupCommodity},,,,,,,,,,TRUE,,,,
教學,顏無菁,「請把<超薄型口香糖>擺放到<雜貨櫃>上。」,,,,,,,,,,,,,,
,,{SetupCommodity},,,,,,,,,,,,34,,
,,{ShowCabinet},,,,,,,,,,2,0,FALSE,,
,,{ShowTeachMask},,,,,,,,,,20,,,,
,,{UseSetupCommodity},,,,,,,,,,FALSE,,,,
教學,顏無菁,「請點擊<確定>。」,,,,,,,,,,GameUICanvas/MainAction/BuildCommodity/Panel/SetupCommodity/BuildSetupCommodity/,OKBtn,,,
,,{UseSetupCommodity},,,,,,,,,,TRUE,,,,
,,{ClearTeachMask},,,,,,,,,,,,,,
,,{MoveTeach},,,,,,,,,,0,0,,,