0.對話方式,1.角色名稱,2.台詞,3.角色起點,4.角色終點,5.行走時間,6.角色表情,7.表情符號,8.服裝,9.淡入,10.特寫,11,12.事件參數1,13.事件參數2,14.事件參數3,15.事件參數4,16.事件參數5
,,{DisableAllButton},,,,,,,,,,,,,,
,,{Teach},,,,,,,,,,TRUE,FALSE,,,
,,{MoveTeach},,,,,,,,,,0,0,,,
教學,顏無菁,「因為生蠔煎放在主打商品櫃上*現在食品櫃上沒有任何商品。」,,,,,,,,,,,,,,
教學,顏無菁,「所以我建議店長可以再研發一個食品*來補充食品櫃的空缺。」,,,,,,,,,,,,,,
教學,顏無菁,「現在將選擇權交到店長手上*為了便利商店的獲利*深思熟慮之後再行動吧。」,,,,,,,,,,,,,,
,,{Teach},,,,,,,,,,FALSE,FALSE,,,
,,{WaitNextTeach},,,,,,,,,,GameUICanvas/MainAction/BuildCommodity/Menu/,Research,,,
,,{DisableButtonInChild},,,,,,,,,,GameUICanvas/MainAction/BuildCommodity/Menu,,,,
,,{DisableButtonInChild},,,,,,,,,,GameUICanvas/MainAction/BuildCommodity/Panel/Research,,,,
,,{EnableButton},,,,,,,,,,GameUICanvas/MainAction/BuildCommodity/Panel/Research/OKBtn,TRUE,,TRUE,
,,{WaitNextTeach},,,,,,,,,,GameUICanvas/MainAction/BuildCommodity/Panel/Research/,Type0,,,
,,{WaitNextTeach},,,,,,,,,,EffectCanvas/ResearchAnim(Clone)/Card/,Card_Content,TRUE,,
,,{Wait},,,,,,,,,,1,,,,