﻿0.對話方式,1.角色名稱,2.台詞,3.角色起點,4.角色終點,5.行走時間,6.角色表情,7.表情符號,8.服裝,9.淡入,10.特寫,11,12.事件參數1,13.事件參數2,14.事件參數3,15.事件參數4,16.事件參數5
,,{DisableAllButton},,,,,,,,,,,,,,
,,{CloseMainPanel},,,,,,,,,,,,,,
,,{Teach},,,,,,,,,,TRUE,FALSE,,,
,,{MoveTeach},,,,,,,,,,0,200,,,
教學,Gin Yen,“The goods have been stored in the storage room!”,,,,,,,,,,,,,,
教學,Gin Yen,“Let's quickly disply the goods!”,,,,,,,,,,,,,,
,,{ShowTeachMask},,,,,,,,,,7,,,,
,,{MoveTeach},,,,,,,,,,-150,-200,,,
教學,Gin Yen,“Click <Goods Management>.”,,,,,,,,,,BackgroundCanvas/MainButtons/,CommoditySetting,,,
,,{DisableButtonInChild},,,,,,,,,,GameUICanvas/MainAction/BuildCommodity/Menu,,,,
,,{DisableButtonInChild},,,,,,,,,,GameUICanvas/MainAction/BuildCommodity/Panel/Research,,,,
,,{ShowTeachMask},,,,,,,,,,16,,,,
,,{MoveTeach},,,,,,,,,,180,-135,,,
教學,Gin Yen,“Click <Goods Display>.”,,,,,,,,,,GameUICanvas/MainAction/BuildCommodity/Menu/,SetupCommodity,,,
,,{ShowTeachMask},,,,,,,,,,17,,,,
,,{MoveTeach},,,,,,,,,,400,0,,,
,,{DisableButtonInChild},,,,,,,,,,GameUICanvas/MainAction/BuildCommodity/Panel/SetupCommodity,,,,
,,{ShowCabinet},,,,,,,,,,4,0,TRUE,,
教學,Gin Yen,“Because the Oyster Omelets are sold out* the display shelves are now empty.”,,,,,,,,,,,,,,
教學,Gin Yen,“If a product fails to sell* it will automatically be taken off the shelves. Inspecting the source of a product periodically is also a very important aspect of a convenience store!”,,,,,,,,,,,,,,
,,{ShowTeachMask},,,,,,,,,,18,,,,
,,{EnableSetupCommodity},,,,,,,,,,4,0,,,
教學,Gin Yen,“Drag <Oyster Omelets> to the space of <Flagship Cabinet>.”,,,,,,,,,,,,,,
,,{SetupCommodity},,,,,,,,,,,,2,,
,,{ShowCabinet},,,,,,,,,,4,0,FALSE,,
,,{ShowCabinet},,,,,,,,,,1,0,TRUE,,
,,{ShowTeachMask},,,,,,,,,,18,,,,
,,{ShowTeachMask},,,,,,,,,,21-2,,,,
教學,Gin Yen,“Click Categories of <Drinks>.”,,,,,,,,,,GameUICanvas/MainAction/BuildCommodity/Panel/SetupCommodity/BuildSetupCommodity/,Type1,,,
,,{ShowTeachMask},,,,,,,,,,19-1,,,,
,,{EnableSetupCommodity},,,,,,,,,,1,0,,,
教學,Gin Yen,“Display <Ling Fong Yin> on <Drinks Cabinet>.”,,,,,,,,,,,,,,
,,{SetupCommodity},,,,,,,,,,,,19,,
,,{ShowCabinet},,,,,,,,,,1,0,FALSE,,
,,{ShowCabinet},,,,,,,,,,2,0,TRUE,,
,,{ShowTeachMask},,,,,,,,,,22,,,,
教學,Gin Yen,“Click Category of <Groceries>.”,,,,,,,,,,GameUICanvas/MainAction/BuildCommodity/Panel/SetupCommodity/BuildSetupCommodity/,Type2,,,
,,{ShowTeachMask},,,,,,,,,,19-2,,,,
,,{EnableSetupCommodity},,,,,,,,,,2,0,,,
教學,Gin Yen,“Display <Super Thin Gum> on <Grocery Cabinet>.”,,,,,,,,,,,,,,
,,{SetupCommodity},,,,,,,,,,,,34,,
,,{ShowCabinet},,,,,,,,,,2,0,FALSE,,
,,{ShowTeachMask},,,,,,,,,,20,,,,
教學,Gin Yen,“Click <Confirm>.”,,,,,,,,,,GameUICanvas/MainAction/BuildCommodity/Panel/SetupCommodity/BuildSetupCommodity/,OKBtn,,,
,,{ClearTeachMask},,,,,,,,,,,,,,
,,{MoveTeach},,,,,,,,,,0,0,,,
