﻿0.對話方式,1.角色名稱,2.台詞,3.角色起點,4.角色終點,5.行走時間,6.角色表情,7.表情符號,8.服裝,9.淡入,10.特寫,11,12.事件參數1,13.事件參數2,14.事件參數3,15.事件參數4,16.事件參數5
,,{DisableAllButton},,,,,,,,,,,,,,
,,{Teach},,,,,,,,,,TRUE,FALSE,,,
,,{MoveTeach},,,,,,,,,,0,-100,,,
,,{DisableButtonInChild},,,,,,,,,,GameUICanvas/MainAction/BuildLog,,,,
教學,Gin Yen,“The second opening day is also a success. Thank you for the hard work!”,,,,,,,,,,,,,,
教學,Gin Yen,“Let's check today's Income Statement!”,,,,,,,,,,,,,,
,,{OpenStoryLog},,,,,,,,,,,,,,
,,{Teach},,,,,,,,,,FALSE,FALSE,,,
,,{Wait},,,,,,,,,,1,,,,
,,{Teach},,,,,,,,,,TRUE,FALSE,,,
教學,Gin Yen,“Unlike the first day* today I had scheduled employee's shift. The income from each shift grew more than yesterday.”,,,,,,,,,,,,,,
教學,Gin Yen,“Apart from the fixed employee deployments for morning shifts* you can also use the Shift Schedule System to pre-schedule or adjust future Shift Schedules.”,,,,,,,,,,,,,,
教學,Gin Yen,“In addition to bonuses* the statement will also provide today's sale status on goods* employees* and store's information.”,,,,,,,,,,,,,,
,,{ShowTeachMask},,,,,,,,,,31,,,,
教學,Gin Yen,“For example* in the income section* <Sales Champion> is the product with the highest revenue of the day.”,,,,,,,,,,,,,,
,,{ShowTeachMask},,,,,,,,,,31-1,,,,
教學,Gin Yen,“While <Most Accepted Good> is the product that sold most of the day.”,,,,,,,,,,,,,,
教學,Gin Yen,“Always try to display the high profit* sufficient stock* and periodic acceptance goods on the Flagship Cabinet.”,,,,,,,,,,,,,,
教學,Gin Yen,“Goods with a high rarity rating may not be popular at first. But after they are improved* they can greatly increase in price and the periodic acceptance level.”,,,,,,,,,,,,,,
教學,Gin Yen,“To quickly meet the requirements needed to upgrade these goods. Consider displaying them on the Flagship Cabinet to quickly increase the sales of this kind of goods.”,,,,,,,,,,,,,,
,,{ShowTeachMask},,,,,,,,,,32,,,,
教學,Gin Yen,"""In the information section of employees and store* there is important information on what happened on a given day. Like emergencies* events* employee's affection level* and status.""",,,,,,,,,,,,,,
教學,Gin Yen,“The information available seems small for now* but later* this will be your irreplaceable support tool.”,,,,,,,,,,,,,,
,,{ClearTeachMask},,,,,,,,,,,,,,
教學,Gin Yen,“Data and information will help you manage the store better and help make decisions.”,,,,,,,,,,,,,,
教學,Gin Yen,“Checking today's income statement won't cost Action Points. Check it as often as you want!”,,,,,,,,,,,,,,
,,{Teach},,,,,,,,,,FALSE,FALSE,,,
,,{Loading},,,,,,,,,,4,3,0.5,,
,,{Teach},,,,,,,,,,FALSE,TRUE,,,
,,{CreateBackground},,,,,,,,,,Store2,,,,
,,{PlayBGM},,,,,,,,,,bgm_days03,0.5,,,
,,{Wait},,,,,,,,,,0.5,,,,
對話,Gin Yen,"""Manager* with the correct employee shift assigned* today's sales have increased.”",600,,,1,,制服,TRUE,,,,,,,
對話,Manager,“Phew* the hard work wasn't wasted.”,-600,,,4,開心,制服,TRUE,,,,,,,
對話,Elissa Lin,“That's great!”,-1,,,4,開心,制服,TRUE,,,,,,,
對話,Gin Yen,“Is it ok if Elissa is in charge of the Night Shift?”,600,,,5,,制服,,,,,,,,
對話,Elissa Lin,“Elissa can handle this.”,-1,,,1,,制服,,,,,,,,
對話,Manager,“I'll also help.”,-600,,,1,,制服,,,,,,,,
對話,Elissa Lin,“Goodbye Gin~”,-1,,,4,開心,制服,,,,,,,,
對話,Gin Yen,“Goodnight.”,600,,,1,,制服,,,,,,,,
,,{PlayEffect},,,,,,,,,,se_walk,FALSE,,,
,Gin Yen,{MoveActor},600,900,0.5,1,,制服,,,,,,,,
,,{DeleteActor},,,,,,,,,,Gin Yen,,,,
,,{PlayEffect},,,,,,,,,,se_bell,FALSE,,,
,,{Wait},,,,,,,,,,0.5,,,,
,,{DeleteAllActor},,,,,,,,,,,,,,
對話,Manager,“Elissa* do you want to take a break? I'll finish my tasks and go to sleep. Then you can be in charge of the store.”,-450,,,1,,制服,TRUE,,,,,,,
對話,Elissa Lin,“No Manager! Elissa* like Gin and Lycianna are all full-time employees. Therefore I must make sure all my work is done!”,450,,,6,,制服,TRUE,,,,,,,
對話,Manager,“I'm happy to hear your work ethic* but…..hm……won't you get exhausted?”,-450,,,5,反問號,制服,,,,,,,,
,,{DeleteAllActor},,,,,,,,,,,,,,
對話,Elissa Lin,“Not at all! I'm just happy that you hired me.”,0,,,1,開心,制服,TRUE,TRUE,,,,,,
對話,Elissa Lin,“I grew up in an orphanage* and I was always clumsy* making trouble for everyone.”,0,,,3,汗顏,制服,,TRUE,,,,,,
對話,Elissa Lin,“Being able to work together with everyone in the convenience store is all I need. I won't get tired at all* no matter how much work.”,0,,,4,得意,制服,,TRUE,,,,,,
,,{DeleteAllActor},,,,,,,,,,,,,,
,Elissa Lin,{CreateActor},450,,,1,,制服,TRUE,,,,,,,
對話,Manager,“Wow! I may have underestimated you.”,-450,,,1,,制服,TRUE,,,,,,,
對話,Manager,“Fine. I'll leave it to you. I'm going for a nap……”,-450,,,1,,制服,,,,1.5,,,,
對話,Elissa Lin,“Don't worry!”,450,,,4,,制服,,,,,,,,
,,{DeleteAllActor},,,,,,,,,,,,,,
,,{CreateBackground},,,,,,,,,,Black,,,,
,,{Loading},,,,,,,,,,1.5,1.5,1,,
,,{CreateBackground},,,,,,,,,,Lounge3,,,,
,,{Wait},,,,,,,,,,0.5,,,,
心想,Manager,(I'm always worried…..),0,,,5,,制服,TRUE,TRUE,,,,,,
心想,Manager,(But I'll trust Elissa.),0,,,8,,制服,,TRUE,,,,,,
,,{DeleteAllActor},,,,,,,,,,,,,,
旁白,,Feeling exhausted* I laid down and fell asleep.,,,,,,,,,,,,,,
,,{DeleteAllActor},,,,,,,,,,,,,,
,,{CreateBackground},,,,,,,,,,Black,,,,
,,{FadeBGM},,,,,,,,,,0,1,,,
,,{Loading},,,,,,,,,,2,2,1,,
,,{PlayBGM},,,,,,,,,,bgm_days01,0.5,,,
,,{CreateBackground},,,,,,,,,,Store,,,,
,,{Wait},,,,,,,,,,0.5,,,,
旁白,,I enter the store the next day and meet Gin.,,,,,,,,,,,,,,
對話,Gin Yen,“Manager* because of the continuous shift scheduling* the employees are all tired. You need to schedule some rest days appropriately.”,450,,,1,,制服,TRUE,,,,,,,
對話,Manager,“Hm…..But if no one works* there won't be any sales.”,-450,,,5,汗顏,制服,TRUE,,,,,,,
對話,Gin Yen,"""Yesterday* I published ads to hire part-time students. There'll be 2 coming for an interview today. Hopefully* we will have sufficient staff.""",450,,,1,,制服,,,,,,,,
對話,Manager,“Tsk tsk* unnecessary expenses again.”,-450,,,5,無言,制服,,,,,,,,
對話,Gin Yen,“This is a necessary purchase! Unlike your pointless phone game expenses!”,450,,,10,生氣,制服,,,,,,,,
對話,Gin Yen,“Doesn't matter. There'll be 2 interviews this afternoon. Finish your morning tasks quickly!”,450,,,2,,制服,,,,,,,,
,,{Wait},,,,,,,,,,1.5,,,,
,,{DeleteAllActor},,,,,,,,,,,,,,
,,{CancelSkip},,,,,,,,,,,,,,
,,{Loading},,,,,,,,,,2,1,0.5,,
,,{Teach},,,,,,,,,,FALSE,FALSE,,,
,,{CloseMainPanel},,,,,,,,,,,,,,
,,{NextShift},,,,,,,,,,FALSE,,,,
