﻿0.對話方式,1.角色名稱,2.台詞,3.角色起點,4.角色終點,5.行走時間,6.角色表情,7.表情符號,8.服裝,9.淡入,10.特寫,11,12.事件參數1,13.事件參數2,14.事件參數3,15.事件參數4,16.事件參數5
,,{CreateBackground},,,,,,,,,,Store,,,,
,,{PlayBGM},,,,,,,,,,bgm_Heroine01,0.5,,,
,,{Wait},,,,,,,,,,0.5,,,,
,顏無菁,{CreateActor},450,,,01,,制服,TRUE,,,,,,,
對話,端木壹,「無菁*我有個很重要的問題想問。」,-900,-450,0.5,01,開心,制服,,,,,,,,
對話,顏無菁,「沒空。」,450,,,02,,制服,,,,,,,,
對話,端木壹,「別這麼無情嘛！妳又不是叫顏無情。」,-450,,,04,,制服,,,,,,,,
對話,顏無菁,「我只是覺得店長你肯定又是要問無聊的問題！」,450,,,09,無言,制服,,,,,,,,
對話,端木壹,「不不不*這個問題真的很重要。」,-450,,,05,,制服,,,,,,,,
對話,顏無菁,「好吧……你要問什麼問題？」,450,,,01,,制服,,,,,,,,
,,{FadeBGM},,,,,,,,,,0,1,,,
,,{PlayBGM},,,,,,,,,,bgm_joke02,0.5,,,
對話,端木壹,「無菁妳今天內褲是什麼顏色？」,-450,,,07,反問號,制服,,,,,,,,
,,{Shake},,,,,,,,,,,,,,
對話,顏無菁,「什──」,450,,,08,,制服,,,,,,,,
對話,顏無菁,「果然又是這種性騷擾問題！不但無聊而且還下流！」,450,,,02,生氣,制服,,,,,,,,
對話,端木壹,「怎麼會？比起『妳胸部多大』之類的*這個問題顯得更有意義嗎？」,-450,,,04,,制服,,,,,,,,
對話,端木壹,「反正妳的一定跟紅玉一樣大嘛*但紅玉的胸部已經揉夠了所以沒什麼興趣。」,-450,,,07,,制服,,,,,,,,
對話,顏無菁,「……店長！夠了喔！」,450,,,06,無言,制服,,,,,,,,
對話,端木壹,「反倒是內褲的部份*妳喜歡穿的款式肯定跟紅玉完全不一樣吧。」,-450,,,01,,制服,,,,,,,,
對話,顏無菁,「你……你怎麼能肯定？」,450,,,05,,制服,,,,,,,,
對話,端木壹,「根據英國研究顯示*一個人喜歡穿的內褲與個性之間有非常密切的相關性。」,-450,,,01,,制服,,,,,,,,
對話,端木壹,「那麼妳今天究竟是穿什麼顏色呢？來*請說！」,-450,,,01,,制服,,,,,,,,
對話,顏無菁,「我才不跟你瞎起鬨*我要繼續去工作了！」,450,,,06,汗顏,制服,,,,,,,,
對話,端木壹,「不想說沒關係*讓我來推理一下。」,-450,,,04,,制服,,,,,,,,
對話,端木壹,「根據我的分析*百分之九十是穿樸素的花色*百分之八十五是穿絲質的……」,-450,,,05,,制服,,,,,,,,
對話,端木壹,「綜合以上線索*我認為無菁今天穿的應該是──」,-450,,,05,靈光一閃,制服,,,,,,,,
對話,端木壹,「──有小熊圖案的內褲！」,-450,,,08,,制服,,,,,,,,
,,{PlayEffect},,,,,,,,,,se_punch,FALSE,,,
,,{Shake},,,,,,,,,,,,,,
對話,顏無菁,「我才不會穿那種幼稚的內褲呢！只是普通的白色蕾絲邊……」,450,,,10,,制服,,,,,,,,
對話,端木壹,「喔齁……」,-450,,,07,開心,制服,,,,,,,,
,,{PlayEffect},,,,,,,,,,se_page,FALSE,,,
旁白,,得知了員工的重要情報*我趕緊拿出筆記本抄寫。,,,,,,,,,,,,,,
,,{DeleteAllActor},,,,,,,,,,,,,,
,,{Shake},,,,,,,,,,,,,,
對話,顏無菁,「快、快住手你這變態店長！居然在做筆記！」,0,,,10,,制服,TRUE,TRUE,,,,,,
對話,端木壹,「這是妳自己說漏嘴的*我可沒強迫妳。」,,,,,,,,,,,,,,
對話,顏無菁,「真是的！以後再也不回應店長你的問題了！」,0,,,02,生氣,制服,,,,,,,,
,,{FadeBGM},,,,,,,,,,0,1,,,
,,{Wait},,,,,,,,,,0.5,,,,
,,{DeleteAllActor},,,,,,,,,,,,,,
,,{PlayBGM},,,,,,,,,,bgm_Heroine01,0.5,,,
,,{PlayEffect},,,,,,,,,,se_walk,FALSE,,,
,,{Wait},,,,,,,,,,1,,,,
,端木壹,{CreateActor},-1,,,08,,制服,,,,,,,,
旁白,,明明就沒走光還拼命想壓住裙擺*無菁這反應實在可愛*讓人忍不住會想作弄她。,,,,,,,,,,,,,,
旁白,,無菁就是太拘謹了*輕鬆點隨便點才更能發揮出實力。,,,,,,,,,,,,,,
旁白,,而我這刺激療法似乎還蠻有成效的*現在無菁面對客人時放鬆多了*不像一開始那麼僵硬。,,,,,,,,,,,,,,
,端木壹,{UpdateActor},,,,04,,制服,,,,,,,,
旁白,,下次該怎麼逗她才好呢？,,,,,,,,,,,,,,
,,{Wait},,,,,,,,,,0.5,,,,
,,{DeleteAllActor},,,,,,,,,,,,,,
,,{Wait},,,,,,,,,,1,,,,
,,,,,,,,,,,,,,,,
,,,,,,,,,,,,,,,,
,,,,,,,,,,,,,,,,
,,,,,,,,,,,,,,,,
,,,,,,,,,,,,,,,,
,,,,,,,,,,,,,,,,
,,,,,,,,,,,,,,,,
,,,,,,,,,,,,,,,,
,,,,,,,,,,,,,,,,
,,,,,,,,,,,,,,,,
,,,,,,,,,,,,,,,,
,,,,,,,,,,,,,,,,
,,,,,,,,,,,,,,,,
,,,,,,,,,,,,,,,,
,,,,,,,,,,,,,,,,
,,,,,,,,,,,,,,,,
,,,,,,,,,,,,,,,,
,,,,,,,,,,,,,,,,
,,,,,,,,,,,,,,,,
,,,,,,,,,,,,,,,,
,,,,,,,,,,,,,,,,
,,,,,,,,,,,,,,,,
,,,,,,,,,,,,,,,,
,,,,,,,,,,,,,,,,
,,,,,,,,,,,,,,,,
,,,,,,,,,,,,,,,,
,,,,,,,,,,,,,,,,
,,,,,,,,,,,,,,,,
,,,,,,,,,,,,,,,,
,,,,,,,,,,,,,,,,
,,,,,,,,,,,,,,,,
,,,,,,,,,,,,,,,,
,,,,,,,,,,,,,,,,
,,,,,,,,,,,,,,,,
,,,,,,,,,,,,,,,,
,,,,,,,,,,,,,,,,
,,,,,,,,,,,,,,,,
,,,,,,,,,,,,,,,,
,,,,,,,,,,,,,,,,
,,,,,,,,,,,,,,,,
,,,,,,,,,,,,,,,,
,,,,,,,,,,,,,,,,
,,,,,,,,,,,,,,,,
,,,,,,,,,,,,,,,,
,,,,,,,,,,,,,,,,
,,,,,,,,,,,,,,,,
,,,,,,,,,,,,,,,,
,,,,,,,,,,,,,,,,
,,,,,,,,,,,,,,,,
,,,,,,,,,,,,,,,,
,,,,,,,,,,,,,,,,
,,,,,,,,,,,,,,,,
,,,,,,,,,,,,,,,,
,,,,,,,,,,,,,,,,
,,,,,,,,,,,,,,,,
,,,,,,,,,,,,,,,,
,,,,,,,,,,,,,,,,
,,,,,,,,,,,,,,,,
,,,,,,,,,,,,,,,,
,,,,,,,,,,,,,,,,
,,,,,,,,,,,,,,,,
,,,,,,,,,,,,,,,,
,,,,,,,,,,,,,,,,
,,,,,,,,,,,,,,,,
,,,,,,,,,,,,,,,,
,,,,,,,,,,,,,,,,
,,,,,,,,,,,,,,,,
,,,,,,,,,,,,,,,,
,,,,,,,,,,,,,,,,
,,,,,,,,,,,,,,,,
,,,,,,,,,,,,,,,,
,,,,,,,,,,,,,,,,
,,,,,,,,,,,,,,,,
,,,,,,,,,,,,,,,,
,,,,,,,,,,,,,,,,
,,,,,,,,,,,,,,,,
,,,,,,,,,,,,,,,,
,,,,,,,,,,,,,,,,
,,,,,,,,,,,,,,,,
,,,,,,,,,,,,,,,,
,,,,,,,,,,,,,,,,
,,,,,,,,,,,,,,,,
,,,,,,,,,,,,,,,,
,,,,,,,,,,,,,,,,
,,,,,,,,,,,,,,,,
,,,,,,,,,,,,,,,,
,,,,,,,,,,,,,,,,
,,,,,,,,,,,,,,,,
,,,,,,,,,,,,,,,,
,,,,,,,,,,,,,,,,
,,,,,,,,,,,,,,,,
,,,,,,,,,,,,,,,,
,,,,,,,,,,,,,,,,
,,,,,,,,,,,,,,,,
,,,,,,,,,,,,,,,,
,,,,,,,,,,,,,,,,
,,,,,,,,,,,,,,,,
,,,,,,,,,,,,,,,,
,,,,,,,,,,,,,,,,
,,,,,,,,,,,,,,,,
,,,,,,,,,,,,,,,,
,,,,,,,,,,,,,,,,
,,,,,,,,,,,,,,,,
,,,,,,,,,,,,,,,,
,,,,,,,,,,,,,,,,
,,,,,,,,,,,,,,,,
,,,,,,,,,,,,,,,,
,,,,,,,,,,,,,,,,
,,,,,,,,,,,,,,,,
,,,,,,,,,,,,,,,,
,,,,,,,,,,,,,,,,
,,,,,,,,,,,,,,,,
,,,,,,,,,,,,,,,,
,,,,,,,,,,,,,,,,
,,,,,,,,,,,,,,,,
,,,,,,,,,,,,,,,,
,,,,,,,,,,,,,,,,
,,,,,,,,,,,,,,,,
,,,,,,,,,,,,,,,,
,,,,,,,,,,,,,,,,
,,,,,,,,,,,,,,,,
,,,,,,,,,,,,,,,,
,,,,,,,,,,,,,,,,
,,,,,,,,,,,,,,,,
,,,,,,,,,,,,,,,,
,,,,,,,,,,,,,,,,
,,,,,,,,,,,,,,,,
,,,,,,,,,,,,,,,,
,,,,,,,,,,,,,,,,
,,,,,,,,,,,,,,,,
,,,,,,,,,,,,,,,,
,,,,,,,,,,,,,,,,
,,,,,,,,,,,,,,,,
,,,,,,,,,,,,,,,,
,,,,,,,,,,,,,,,,
,,,,,,,,,,,,,,,,
,,,,,,,,,,,,,,,,
,,,,,,,,,,,,,,,,
,,,,,,,,,,,,,,,,
,,,,,,,,,,,,,,,,
,,,,,,,,,,,,,,,,
,,,,,,,,,,,,,,,,
,,,,,,,,,,,,,,,,
,,,,,,,,,,,,,,,,
,,,,,,,,,,,,,,,,
,,,,,,,,,,,,,,,,
,,,,,,,,,,,,,,,,
,,,,,,,,,,,,,,,,
,,,,,,,,,,,,,,,,
,,,,,,,,,,,,,,,,
,,,,,,,,,,,,,,,,
,,,,,,,,,,,,,,,,
,,,,,,,,,,,,,,,,
,,,,,,,,,,,,,,,,
,,,,,,,,,,,,,,,,
,,,,,,,,,,,,,,,,
,,,,,,,,,,,,,,,,
,,,,,,,,,,,,,,,,
,,,,,,,,,,,,,,,,
,,,,,,,,,,,,,,,,
,,,,,,,,,,,,,,,,
,,,,,,,,,,,,,,,,
,,,,,,,,,,,,,,,,
,,,,,,,,,,,,,,,,
,,,,,,,,,,,,,,,,
,,,,,,,,,,,,,,,,
,,,,,,,,,,,,,,,,
,,,,,,,,,,,,,,,,
,,,,,,,,,,,,,,,,
,,,,,,,,,,,,,,,,
,,,,,,,,,,,,,,,,
,,,,,,,,,,,,,,,,
,,,,,,,,,,,,,,,,
,,,,,,,,,,,,,,,,
,,,,,,,,,,,,,,,,
,,,,,,,,,,,,,,,,
,,,,,,,,,,,,,,,,
,,,,,,,,,,,,,,,,
,,,,,,,,,,,,,,,,
,,,,,,,,,,,,,,,,
,,,,,,,,,,,,,,,,
,,,,,,,,,,,,,,,,
,,,,,,,,,,,,,,,,
,,,,,,,,,,,,,,,,
,,,,,,,,,,,,,,,,
,,,,,,,,,,,,,,,,
,,,,,,,,,,,,,,,,
,,,,,,,,,,,,,,,,
,,,,,,,,,,,,,,,,
,,,,,,,,,,,,,,,,
,,,,,,,,,,,,,,,,
,,,,,,,,,,,,,,,,
,,,,,,,,,,,,,,,,
,,,,,,,,,,,,,,,,
,,,,,,,,,,,,,,,,
,,,,,,,,,,,,,,,,
,,,,,,,,,,,,,,,,
,,,,,,,,,,,,,,,,
,,,,,,,,,,,,,,,,
,,,,,,,,,,,,,,,,
,,,,,,,,,,,,,,,,
,,,,,,,,,,,,,,,,
,,,,,,,,,,,,,,,,
,,,,,,,,,,,,,,,,
,,,,,,,,,,,,,,,,
,,,,,,,,,,,,,,,,
,,,,,,,,,,,,,,,,
,,,,,,,,,,,,,,,,
,,,,,,,,,,,,,,,,
,,,,,,,,,,,,,,,,
,,,,,,,,,,,,,,,,
,,,,,,,,,,,,,,,,
,,,,,,,,,,,,,,,,
,,,,,,,,,,,,,,,,
,,,,,,,,,,,,,,,,
,,,,,,,,,,,,,,,,
,,,,,,,,,,,,,,,,
,,,,,,,,,,,,,,,,
,,,,,,,,,,,,,,,,
,,,,,,,,,,,,,,,,
,,,,,,,,,,,,,,,,
,,,,,,,,,,,,,,,,
,,,,,,,,,,,,,,,,
,,,,,,,,,,,,,,,,
,,,,,,,,,,,,,,,,
,,,,,,,,,,,,,,,,
,,,,,,,,,,,,,,,,
,,,,,,,,,,,,,,,,
