﻿0.對話方式,1.角色名稱,2.台詞,3.角色起點,4.角色終點,5.行走時間,6.角色表情,7.表情符號,8.服裝,9.淡入,10.特寫,11,12.事件參數1,13.事件參數2,14.事件參數3,15.事件參數4,16.事件參數5
,,{CreateBackground},,,,,,,,,,Store,,,,
,,{PlayBGM},,,,,,,,,,bgm_warm,0.5,,,
,,{Wait},,,,,,,,,,0.5,,,,
對話,顏無菁,「找您57元*謝謝光臨。」,-450,,,01,,制服,TRUE,,,,,,,
對話,男客人,「這間店不錯*我會再來的。」,450,,,EX08,,,TRUE,,,,,,,
,,{DeleteAllActor},,,,,,,,,,,,,,
心想,端木壹,（看來無菁已經能應對好客人了*想到她之前每天打碎的東西比營業額還高*真是殘酷的地獄啊。）,0,,,01,,制服,TRUE,TRUE,,,,,,
,,{DeleteAllActor},,,,,,,,,,,,,,
旁白,,我看著一如往常卻又不太一樣的便利商店*不禁產生些許感慨。,,,,,,,,,,,,,,
旁白,,經過我的不懈努力*店裡的經營慢慢走上軌道、店員們也越來越熟悉業務。,,,,,,,,,,,,,,
旁白,,但跟司馬小仙借的可不是筆小數目*加上吃人不吐骨頭的利息*經營狀況仍是舉步維艱。,,,,,,,,,,,,,,
旁白,,為了這次還債*我非常辛苦的籌錢*連續好幾天都不睡覺親自值班*就怕出一點差錯……,,,,,,,,,,,,,,
,,{FadeBGM},,,,,,,,,,0,1,,,
,,{PlayBGM},,,,,,,,,,bgm_joke02,0.5,,,
對話,司馬小仙,「說完了嗎？說完可以把錢給我了嗎？」,450,,,03,,制服,TRUE,,,,,,,
對話,端木壹,「我說了那麼多*妳都不會覺得感動*應該少收一點錢嗎？」,-450,,,02,,制服,TRUE,,,,,,,
對話,司馬小仙,「不會*還錢。」,450,,,03,,制服,,,,,,,,
對話,端木壹,「妳見到這間店生意蒸蒸日上*難道不會想看到它一天天長大的樣子嗎？」,-450,,,02,,制服,,,,,,,,
對話,司馬小仙,「不想*還錢。」,450,,,03,,制服,,,,,,,,
,,{PlayEffect},,,,,,,,,,se_putdown01,FALSE,,,
對話,端木壹,「拿去啦。」,-450,,,02,無言,制服,,,,,,,,
旁白,,我把辛苦賺來的錢交給司馬小仙*看來接下來一個禮拜都只能偷吃無菁、蓮心跟伊姍的便當了。,,,,,,制服,,,,,,,,
對話,司馬小仙,「看你那印堂發黑、面黃肌瘦*日子過得挺辛苦的吧？」,450,,,01,,制服,,,,,,,,
對話,端木壹,「……不苦。」,-450,,,05,,制服,,,,,,,,
心想,端木壹,（雖然還賺不到什麼錢*但能夠逐步實現姑姑的夢想*倒真不覺得辛苦。),-450,,,01,開心,制服,,,,,,,,
對話,司馬小仙,「其實以你的能力*何必堅持要開這間便利商店？」,450,,,01,,制服,,,,,,,,
對話,司馬小仙,「就算不想聽別人號令*也能用其他方法賺錢啊！例如暗殺X國總統之類的。」,450,,,01,,制服,,,,,,,,
對話,司馬小仙,「我這裡就有幾個『好工作』*如果你願意*現在就可以上工。」,450,,,04,靈光一閃,制服,,,,,,,,
對話,端木壹,「不*比起成為傭兵*經營便利商店才是我最大的夢想」,-450,,,01,,制服,,,,,,,,
對話,端木壹,「這也是我報答姑姑養育之恩的方式*所以妳不必再說了。」,-450,,,01,,制服,,,,,,,,
對話,司馬小仙,「姑姑？我記得資料上寫著你是孤兒*也沒有任何親戚啊。」,450,,,01,問號,制服,,,,,,,,
對話,端木壹,「那是……咳！這是我的私事*沒必要向妳報備吧。」,-450,,,06,,制服,,,,,,,,
對話,司馬小仙,「也是*但你也可以一邊經營便利商店一邊做些副業吧*我這裡有很多報酬豐厚的案子。」,450,,,01,,制服,,,,,,,,
對話,端木壹,「喔？這倒是可以考慮看看。」,-450,,,04,開心,制服,,,,,,,,
對話,司馬小仙,「比如說有一個仇家很想把你吊起來狠狠抽打一頓*放心*我會保證你的生命安全。」,450,,,04,,制服,,,,,,,,
對話,端木壹,「……」,-450,,,05,無顏,制服,,,,,,,,
對話,司馬小仙,「不好嗎？那還有一間生物研究所*想徹底研究你的身體構造*應該是要做些超級複製人什麼的。」,450,,,01,,制服,,,,,,,,
對話,端木壹,「……」,-450,,,05,無顏,制服,,,,,,,,
對話,司馬小仙,「也不行？對了*之前某國的王子對你一見鍾情*想要狠狠的肛……咳！想跟你多『蕉流蕉流』。」,450,,,02,,制服,,,,,,,,
,,{DeleteAllActor},,,,,,,,,,,,,,
對話,端木壹,「那些都不需要！我自己會想辦法！」,0,,,02,生氣,制服,TRUE,TRUE,,,,,,
,,{Wait},,,,,,,,,,1.5,,,,
,,{DeleteAllActor},,,,,,,,,,,,,,
,,,,,,,,,,,,,,,,
,,,,,,,,,,,,,,,,
,,,,,,,,,,,,,,,,
,,,,,,,,,,,,,,,,
,,,,,,,,,,,,,,,,
,,,,,,,,,,,,,,,,
,,,,,,,,,,,,,,,,
,,,,,,,,,,,,,,,,
,,,,,,,,,,,,,,,,
,,,,,,,,,,,,,,,,
,,,,,,,,,,,,,,,,
,,,,,,,,,,,,,,,,
,,,,,,,,,,,,,,,,
,,,,,,,,,,,,,,,,
,,,,,,,,,,,,,,,,
,,,,,,,,,,,,,,,,
,,,,,,,,,,,,,,,,
,,,,,,,,,,,,,,,,
,,,,,,,,,,,,,,,,
,,,,,,,,,,,,,,,,
,,,,,,,,,,,,,,,,
,,,,,,,,,,,,,,,,
,,,,,,,,,,,,,,,,
,,,,,,,,,,,,,,,,
,,,,,,,,,,,,,,,,
,,,,,,,,,,,,,,,,
,,,,,,,,,,,,,,,,
,,,,,,,,,,,,,,,,
,,,,,,,,,,,,,,,,
,,,,,,,,,,,,,,,,
,,,,,,,,,,,,,,,,
,,,,,,,,,,,,,,,,
,,,,,,,,,,,,,,,,
,,,,,,,,,,,,,,,,
,,,,,,,,,,,,,,,,
,,,,,,,,,,,,,,,,
,,,,,,,,,,,,,,,,
,,,,,,,,,,,,,,,,
,,,,,,,,,,,,,,,,
,,,,,,,,,,,,,,,,
,,,,,,,,,,,,,,,,
,,,,,,,,,,,,,,,,
,,,,,,,,,,,,,,,,
,,,,,,,,,,,,,,,,
,,,,,,,,,,,,,,,,
,,,,,,,,,,,,,,,,
,,,,,,,,,,,,,,,,
,,,,,,,,,,,,,,,,
,,,,,,,,,,,,,,,,
,,,,,,,,,,,,,,,,
,,,,,,,,,,,,,,,,
,,,,,,,,,,,,,,,,
,,,,,,,,,,,,,,,,
,,,,,,,,,,,,,,,,
,,,,,,,,,,,,,,,,
,,,,,,,,,,,,,,,,
,,,,,,,,,,,,,,,,
,,,,,,,,,,,,,,,,
,,,,,,,,,,,,,,,,
,,,,,,,,,,,,,,,,
,,,,,,,,,,,,,,,,
,,,,,,,,,,,,,,,,
,,,,,,,,,,,,,,,,
,,,,,,,,,,,,,,,,
,,,,,,,,,,,,,,,,
,,,,,,,,,,,,,,,,
,,,,,,,,,,,,,,,,
,,,,,,,,,,,,,,,,
,,,,,,,,,,,,,,,,
,,,,,,,,,,,,,,,,
,,,,,,,,,,,,,,,,
,,,,,,,,,,,,,,,,
,,,,,,,,,,,,,,,,
,,,,,,,,,,,,,,,,
,,,,,,,,,,,,,,,,
,,,,,,,,,,,,,,,,
,,,,,,,,,,,,,,,,
,,,,,,,,,,,,,,,,
,,,,,,,,,,,,,,,,
,,,,,,,,,,,,,,,,
,,,,,,,,,,,,,,,,
,,,,,,,,,,,,,,,,
,,,,,,,,,,,,,,,,
,,,,,,,,,,,,,,,,
,,,,,,,,,,,,,,,,
,,,,,,,,,,,,,,,,
,,,,,,,,,,,,,,,,
,,,,,,,,,,,,,,,,
,,,,,,,,,,,,,,,,
,,,,,,,,,,,,,,,,
,,,,,,,,,,,,,,,,
,,,,,,,,,,,,,,,,
,,,,,,,,,,,,,,,,
,,,,,,,,,,,,,,,,
,,,,,,,,,,,,,,,,
,,,,,,,,,,,,,,,,
,,,,,,,,,,,,,,,,
,,,,,,,,,,,,,,,,
,,,,,,,,,,,,,,,,
,,,,,,,,,,,,,,,,
,,,,,,,,,,,,,,,,
,,,,,,,,,,,,,,,,
,,,,,,,,,,,,,,,,
,,,,,,,,,,,,,,,,
,,,,,,,,,,,,,,,,
,,,,,,,,,,,,,,,,
,,,,,,,,,,,,,,,,
,,,,,,,,,,,,,,,,
,,,,,,,,,,,,,,,,
,,,,,,,,,,,,,,,,
,,,,,,,,,,,,,,,,
,,,,,,,,,,,,,,,,
,,,,,,,,,,,,,,,,
,,,,,,,,,,,,,,,,
,,,,,,,,,,,,,,,,
,,,,,,,,,,,,,,,,
,,,,,,,,,,,,,,,,
,,,,,,,,,,,,,,,,
,,,,,,,,,,,,,,,,
,,,,,,,,,,,,,,,,
,,,,,,,,,,,,,,,,
,,,,,,,,,,,,,,,,
,,,,,,,,,,,,,,,,
,,,,,,,,,,,,,,,,
,,,,,,,,,,,,,,,,
,,,,,,,,,,,,,,,,
,,,,,,,,,,,,,,,,
,,,,,,,,,,,,,,,,
,,,,,,,,,,,,,,,,
,,,,,,,,,,,,,,,,
,,,,,,,,,,,,,,,,
,,,,,,,,,,,,,,,,
,,,,,,,,,,,,,,,,
,,,,,,,,,,,,,,,,
,,,,,,,,,,,,,,,,
,,,,,,,,,,,,,,,,
,,,,,,,,,,,,,,,,
,,,,,,,,,,,,,,,,
,,,,,,,,,,,,,,,,
,,,,,,,,,,,,,,,,
,,,,,,,,,,,,,,,,
,,,,,,,,,,,,,,,,
,,,,,,,,,,,,,,,,
,,,,,,,,,,,,,,,,
,,,,,,,,,,,,,,,,
,,,,,,,,,,,,,,,,
,,,,,,,,,,,,,,,,
,,,,,,,,,,,,,,,,
,,,,,,,,,,,,,,,,
,,,,,,,,,,,,,,,,
,,,,,,,,,,,,,,,,
,,,,,,,,,,,,,,,,
,,,,,,,,,,,,,,,,
,,,,,,,,,,,,,,,,
,,,,,,,,,,,,,,,,
,,,,,,,,,,,,,,,,
,,,,,,,,,,,,,,,,
,,,,,,,,,,,,,,,,
,,,,,,,,,,,,,,,,
,,,,,,,,,,,,,,,,
,,,,,,,,,,,,,,,,
,,,,,,,,,,,,,,,,
,,,,,,,,,,,,,,,,
,,,,,,,,,,,,,,,,
,,,,,,,,,,,,,,,,
,,,,,,,,,,,,,,,,
,,,,,,,,,,,,,,,,
,,,,,,,,,,,,,,,,
,,,,,,,,,,,,,,,,
,,,,,,,,,,,,,,,,
,,,,,,,,,,,,,,,,
,,,,,,,,,,,,,,,,
,,,,,,,,,,,,,,,,
,,,,,,,,,,,,,,,,
,,,,,,,,,,,,,,,,
,,,,,,,,,,,,,,,,
,,,,,,,,,,,,,,,,
,,,,,,,,,,,,,,,,
,,,,,,,,,,,,,,,,
,,,,,,,,,,,,,,,,
,,,,,,,,,,,,,,,,
,,,,,,,,,,,,,,,,
,,,,,,,,,,,,,,,,
,,,,,,,,,,,,,,,,
,,,,,,,,,,,,,,,,
,,,,,,,,,,,,,,,,
,,,,,,,,,,,,,,,,
,,,,,,,,,,,,,,,,
,,,,,,,,,,,,,,,,
,,,,,,,,,,,,,,,,
,,,,,,,,,,,,,,,,
,,,,,,,,,,,,,,,,
,,,,,,,,,,,,,,,,
,,,,,,,,,,,,,,,,
,,,,,,,,,,,,,,,,
,,,,,,,,,,,,,,,,
,,,,,,,,,,,,,,,,
,,,,,,,,,,,,,,,,
,,,,,,,,,,,,,,,,
,,,,,,,,,,,,,,,,
,,,,,,,,,,,,,,,,
,,,,,,,,,,,,,,,,
,,,,,,,,,,,,,,,,
,,,,,,,,,,,,,,,,
,,,,,,,,,,,,,,,,
,,,,,,,,,,,,,,,,
,,,,,,,,,,,,,,,,
,,,,,,,,,,,,,,,,
,,,,,,,,,,,,,,,,
,,,,,,,,,,,,,,,,
,,,,,,,,,,,,,,,,
,,,,,,,,,,,,,,,,
,,,,,,,,,,,,,,,,
,,,,,,,,,,,,,,,,
,,,,,,,,,,,,,,,,