﻿0.對話方式,1.角色名稱,2.台詞,3.角色起點,4.角色終點,5.行走時間,6.角色表情,7.表情符號,8.服裝,9.淡入,10.特寫,11,12.事件參數1,13.事件參數2,14.事件參數3,15.事件參數4,16.事件參數5
,,{CreateBackground},,,,,,,,,,Store,,,,
,,{PlayBGM},,,,,,,,,,bgm_Heroine01,0.5,,,
,,{Wait},,,,,,,,,,0.5,,,,
,Gin Yen,{CreateActor},450,,,1,,制服,TRUE,,,,,,,
對話,Manager,“Gin* I have a very important question for you.”,-900,-450,0.5,1,開心,制服,,,,,,,,
對話,Gin Yen,“I'm busy.”,450,,,2,,制服,,,,,,,,
對話,Manager,“Don't be so harsh! You're not called ‘Merciless Yen.’”,-450,,,4,,制服,,,,,,,,
對話,Gin Yen,“I just think that you will ask boring questions!”,450,,,9,無言,制服,,,,,,,,
對話,Manager,“No* no. This question is really important.”,-450,,,5,,制服,,,,,,,,
對話,Gin Yen,“Fine…..what's your question?”,450,,,1,,制服,,,,,,,,
,,{FadeBGM},,,,,,,,,,0,1,,,
,,{PlayBGM},,,,,,,,,,bgm_joke02,0.5,,,
對話,Manager,“What color are your panties today?”,-450,,,7,反問號,制服,,,,,,,,
,,{Shake},,,,,,,,,,,,,,
對話,Gin Yen,“Wh------”,450,,,8,,制服,,,,,,,,
對話,Gin Yen,“Another inappropriate question! Not only boring but also indecent!”,450,,,2,生氣,制服,,,,,,,,
對話,Manager,“How come? This question is better than past questions like* ‘how big are your breasts* don't you think?”,-450,,,4,,制服,,,,,,,,
對話,Manager,“Your breasts are definitely as big as Harmony's. But I've touched her breasts enough and lost interest.”,-450,,,7,,制服,,,,,,,,
對話,Gin Yen,“……Manager! That's enough!”,450,,,6,無言,制服,,,,,,,,
對話,Manager,“But as for panties* I'm sure you have a different style than Harmony.”,-450,,,1,,制服,,,,,,,,
對話,Gin Yen,“What makes you think that?”,450,,,5,,制服,,,,,,,,
對話,Manager,“According to an English study* the preferred style of panties and personality are closely related.”,-450,,,1,,制服,,,,,,,,
對話,Manager,“So* what color are your panties? Come on* say it!”,-450,,,1,,制服,,,,,,,,
對話,Gin Yen,“I won't entertain this conversation. I'm going back to work!”,450,,,6,汗顏,制服,,,,,,,,
對話,Manager,“It's fine if you don't want to tell me. I'll just have to deduce I guess.”,-450,,,4,,制服,,,,,,,,
對話,Manager,“According to my predictions* there is a 90% chance it's gonne be just plain style* 85% its lacey…..”,-450,,,5,,制服,,,,,,,,
對話,Manager,“From the previous clues* I deduct that Gin is wearing--------”,-450,,,5,靈光一閃,制服,,,,,,,,
對話,Manager,“------panties with a teddy bear design!”,-450,,,8,,制服,,,,,,,,
,,{PlayEffect},,,,,,,,,,se_punch,FALSE,,,
,,{Shake},,,,,,,,,,,,,,
對話,Gin Yen,“I wouldn't wear such childish panties! It's just a white color with laces on the side……”,450,,,10,,制服,,,,,,,,
對話,Manager,“Oh…..”,-450,,,7,開心,制服,,,,,,,,
,,{PlayEffect},,,,,,,,,,se_page,FALSE,,,
旁白,,Knowing about each employee is important. So* I quickly take out my notebook to write it down.,,,,,,,,,,,,,,
,,{DeleteAllActor},,,,,,,,,,,,,,
,,{Shake},,,,,,,,,,,,,,
對話,Gin Yen,“Stop it pervert! You're even taking notes!”,0,,,10,,制服,TRUE,TRUE,,,,,,
對話,Manager,“I didn't force you to tell me!”,,,,,,,,,,,,,,
對話,Gin Yen,“Seriously! I'll never answer any of your questions again!”,0,,,2,生氣,制服,,,,,,,,
,,{FadeBGM},,,,,,,,,,0,1,,,
,,{Wait},,,,,,,,,,0.5,,,,
,,{DeleteAllActor},,,,,,,,,,,,,,
,,{PlayBGM},,,,,,,,,,bgm_Heroine01,0.5,,,
,,{PlayEffect},,,,,,,,,,se_walk,FALSE,,,
,,{Wait},,,,,,,,,,1,,,,
,Manager,{CreateActor},-1,,,8,,制服,,,,,,,,
旁白,,She keeps pulling her dress down even though she wasn't even close to actually exposing herself. Her reaction is so cute and I couldn't help but to tease her about it.,,,,,,,,,,,,,,
旁白,,Gin is too reserved. She needs to relax more to make good use of her strengths.,,,,,,,,,,,,,,
旁白,,And my provoking behavior seems to be pretty effective. Gin is more relaxed in front of customers* unlike before.,,,,,,,,,,,,,,
,Manager,{UpdateActor},,,,4,,制服,,,,,,,,
旁白,,How should I tease her next time?,,,,,,,,,,,,,,
,,{Wait},,,,,,,,,,0.5,,,,
,,{DeleteAllActor},,,,,,,,,,,,,,
,,{Wait},,,,,,,,,,1,,,,
