0.對話方式,1.角色名稱,2.台詞,3.角色起點,4.角色終點,5.行走時間,6.角色表情,7.表情符號,8.服裝,9.淡入,10.特寫,11,12.事件參數1,13.事件參數2,14.事件參數3,15.事件參數4,16.事件參數5
,,{DisableAllButton},,,,,,,,,,,,,,
,,{TeachTarget},,,,,,,,,,GameUICanvas/MainAction/BuildCommodity/Menu/Upgrade,商品改良,,,
,,{EnableButton},,,,,,,,,,GameUICanvas/MainAction/BuildCommodity/Panel/Upgrade/Background/Type0,TRUE,,TRUE,
,,{EnableButton},,,,,,,,,,GameUICanvas/MainAction/BuildCommodity/Panel/Upgrade/Background/Type1,TRUE,,TRUE,
,,{EnableButton},,,,,,,,,,GameUICanvas/MainAction/BuildCommodity/Panel/Upgrade/Background/Type2,TRUE,,TRUE,
,,{WaitNextTeach},,,,,,,,,,GameUICanvas/MainAction/BuildCommodity/Menu/,Upgrade,,,
,,{WaitNextTeach},,,,,,,,,,GameUICanvas/MainAction/BuildCommodity/Menu/,Close,,,