﻿0.對話方式,1.角色名稱,2.台詞,3.角色起點,4.角色終點,5.行走時間,6.角色表情,7.表情符號,8.服裝,9.淡入,10.特寫,11,12.事件參數1,13.事件參數2,14.事件參數3,15.事件參數4,16.事件參數5
,,{CreateBackground},,,,,,,,,,Lounge1,,,,
,,{PlayBGM},,,,,,,,,,bgm_days01,0.5,,,
,,{Wait},,,,,,,,,,0.5,,,,
對話,端木壹,「就快完成啦！」,-450,,,04,開心,制服,TRUE,,,,,,,
旁白,,我每週會安排一天開發新產品*而那天當天當班的員工必須參與測試。,,,,,,,,,,,,,,
,笭伊姍,{CreateActor},450,,,01,,半制服,TRUE,,,,,,,
旁白,,今天當班的員工是伊姍*我和她一起來到休息室*測試新產品到底好不好。,,,,,,,,,,,,,,
,,{PlayEffect},,,,,,,,,,se_good,FALSE,,,
對話,端木壹,「來！伊姍這是我研發的全新飲料『包力達蠻羊！』」,-450,,,04,得意,制服,,,,,,,,
001,笭伊姍,「包力達蠻羊*我們不是一直以來都有賣嗎？為什麼還要研發這個？」,450,,,05,,半制服,,,,,,,,
對話,端木壹,「這可不是一般的包力達蠻羊*而是店長改良的包力達蠻羊！」,-450,,,02,,制服,,,,,,,,
對話,端木壹,「來！快點問我*這跟一般的蠻羊有什麼不一樣。」,-450,,,01,,制服,,,,,,,,
002,笭伊姍,「有什麼不一樣？」,450,,,05,,半制服,,,,,,,,
對話,端木壹,「這麼配合我讓我實在太感動了*真希望夜蓮心和無菁可以多學學妳。」,-450,,,08,,制服,,,,,,,,
對話,端木壹,「既然妳這麼想知道*那我就大發慈悲告訴妳！」,-450,,,04,,制服,,,,,,,,
003,笭伊姍,「伊姍知道這個！接下來是不是要說*那我就大發慈悲的告訴妳！為了防止世界被破壞………」,450,,,04,,半制服,,,,,,,,
對話,端木壹,「停停停*妳再說下去*我們可能就要接到律師函了。」,-450,,,06,汗顏,制服,,,,,,,,
004,笭伊姍,「那麼這個蠻羊有什麼特別的？伊姍想要知道。」,450,,,01,,半制服,,,,,,,,
對話,端木壹,「還記得之前我在用蜂蜜和檸檬治好妳感冒的事情嗎？」,-450,,,01,,制服,,,,,,,,
005,笭伊姍,「記得*伊姍也還記得三星蔥和橘子的事情！」,450,,,04,,半制服,,,,,,,,
對話,端木壹,「不*妳不需要記得那種事情……」,-450,,,06,汗顏,制服,,,,,,,,
對話,端木壹,「總之人的皮膚也能吸收營養*因此我研發了這個『塗抹式蠻羊』。」,-450,,,01,,制服,,,,,,,,
對話,端木壹,「只要抹上去*就會跟喝了蠻羊一樣精力充沛*而且吸收更快更好！」,-450,,,04,得意,制服,,,,,,,,
006,笭伊姍,「喔喔！用抹的蠻羊！聽起來好像很厲害的樣子！請務必讓伊姍用用看。」,450,,,06,,半制服,,,,,,,,
對話,端木壹,「我就是在等這句話*試看看吧！」,-450,,,01,,制服,,,,,,,,
007,笭伊姍,「伊姍準備好了！」,450,,,01,開心,半制服,,,,,,,,
對話,端木壹,「看我用力搖！搖搖！蠻羊大噴射！！」,-450,,,02,,制服,,,,,,,,
,,{Flash},,,,,,,,,,,,,,
008,笭伊姍,「耶嘿嘿*伊姍全身濕答答的。」,450,,,06,驚嘆號,半制服,,,,,,,,
對話,端木壹,「有沒有什麼感覺？」,-450,,,01,,制服,,,,,,,,
009,笭伊姍,「姆*感覺除了變得全身濕答答又黏答答之外*好像沒有什麼特別的。」,450,,,03,,半制服,,,,,,,,
對話,端木壹,「效果沒那麼快嗎……」,-450,,,05,,制服,,,,,,,,
010,笭伊姍,「嗯？好奇怪呦*房間是不是有點熱？」,450,,,03,問號,半制服,,,,,,,,
對話,端木壹,「沒有吧*空調一切正常。」,-450,,,01,,制服,,,,,,,,
,,{FadeBGM},,,,,,,,,,0,１,,,
,,{Flash},,,,,,,,,,,,,,
,,{PlayBGM},,,,,,,,,,bgm_sexy02,0.5,,,
011,笭伊姍,「哈啊……哈哈……好熱……好熱……伊姍覺得好熱……伊姍熱到不想穿衣服……」,450,,,03,,半制服,,,,,,,,
對話,端木壹,「來了嗎！這個是促進代謝的發熱反應！」,-450,,,01,,制服,,,,,,,,
012,笭伊姍,「伊姍穿不住衣服了……想要全部脫掉……店長……不要看……」,450,,,03,,半制服,,,,,,,,
對話,端木壹,「不行*我必須仔細記錄*快點說說現在有什麼感覺。」,-450,,,01,,制服,,,,,,,,
,,{PlayEffect},,,,,,,,,,se_cloth,FALSE,,,
,,{Wait},,,,,,,,,,0.5,,,,
,,{DeleteAllActor},,,,,,,,,,,,,,
,端木壹,{CreateActor},-450,,,01,,制服,,,,,,,,
013,笭伊姍,（嗚*店長在看了……好丟臉呦…）,450,,,07,,裸,,,,,,,,
014,笭伊姍,（但是……這是重要的工作*絕對不能讓店長失望！）,450,,,03,,裸,,,,,,,,
015,笭伊姍,「伊姍覺得全身發熱*身體……麻麻的感覺很舒服……胸部覺得有些燥動……下腹一直在緊縮的感覺……哈啊……哈啊……哈啊哈啊……」,450,,,03,,裸,,,,,,,,
對話,端木壹,「原來如此*代謝提升、肌肉收縮。」,-450,,,01,,制服,,,,,,,,
016,笭伊姍,「而且……還有種……想要上廁所………要忍不住了……嗚嗚嗚嗚………啊啊……要不行了……」,450,550,0.5,03,,裸,,,,,,,,
對話,端木壹,「真奇怪？為什麼會想上廁所*不應該這樣。」,-450,,,05,反問號,制服,,,,,,,,
017,笭伊姍,「店長……讓伊姍去上廁所……真的要不行了……」,550,600,0.5,02,,裸,,,,,,,,
對話,端木壹,「抱歉還不行*我要觀察妳和身體變化*給我忍著。」,-450,,,05,,制服,,,,,,,,
,,{Wait},,,,,,,,,,0.5,,,,
,,{DeleteAllActor},,,,,,,,,,,,,,
018,笭伊姍,（不能讓店長失望……可是……伊姍又快要尿出來……而且又有之前那種舒服又害羞的感覺。）,0,,,07,,裸,TRUE,TRUE,,,,,,
019,笭伊姍,「哈啊……哈啊……要出來了……要出來了……嗚阿……啊啊阿……」,0,,,02,,裸,,TRUE,,,,,,
020,笭伊姍,「伊姍真的忍不住了！！啊啊啊出來了………噴出來了……」,0,,,07,,裸,,TRUE,,,,,,
對話,端木壹,「居然會這樣……這真是預料外的作用。」,,,,,,,,,,,,,,
,,{PlayHEffect},,,,,,,,,,SFE_S_36s,FALSE,,,
旁白,,為了進一步確認*我用舌頭品嚐著伊娜雪白無毛的祕密花園。,,,,,,,,,,,,,,
旁白,,花園中散發著稚嫩的體香*以及高潮液體帶來的淫靡氣息。,,,,,,,,,,,,,,
旁白,,兩股味道交織出來的味道比任何蜜水更加甜膩*舔舐花縫所帶來的背德感*更是讓味道嚐起來更加美味。,,,,,,,,,,,,,,
021,笭伊姍,「店長在舔伊姍的尿尿的地方……要快點阻止店長才可以………因為那裡……嗚嗚……」,0,,,03,,裸,,TRUE,,,,,,
022,笭伊姍,「為什麼伊姍會覺得舒服起來……明明應該要快點阻止店長才對……要快點……」,0,,,03,,裸,,TRUE,,,,,,
023,笭伊姍,「要快點阻止店長……可是又好舒服……店長……真的好厲害……」,0,,,07,,裸,,TRUE,,,,,,
對話,端木壹,「體液的味道竟然變了？」,,,,,,,,,,,,,,
對話,端木壹,「這味道真不錯*讓我也有點受不了呢。」,,,,,,,,,,,,,,
024,笭伊姍,「哈啊……哈啊……哈啊阿……」,0,,,03,,裸,,TRUE,,,,,,
025,笭伊姍,「好熱……伊姍覺得更熱了……但是這種燥熱感……卻又好舒服……這個也是蠻羊的效果嗎？」,0,,,03,,裸,,TRUE,,,,,,
對話,端木壹,「咻嚕咻嚕咻嚕咻嚕……」,,,,,,,,,,,,,,
026,笭伊姍,「伊姍……伊姍……又要忍不住了……嗚嗚嗚。」,0,,,02,,裸,,TRUE,,,,,,
027,笭伊姍,「啊啊啊啊啊啊……」,0,,,02,,裸,,TRUE,,,,,,
028,笭伊姍,「去了！伊姍又要去了！伊姍是壞孩子！」,0,,,07,,裸,,TRUE,,,,,,
旁白,,花園中的蜜豆被我靈活的舌頭不停挑逗。,,,,,,,,,,,,,,
旁白,,隨著湧出更多愛液*伊姍最後整個人幾乎要站不穩。,,,,,,,,,,,,,,
,,{StopEffect},,,,,,,,,,FE_S_35s,,,,
,,{Flash},,,,,,,,,,,,,,
,,{PlayHEffect},,,,,,,,,,SYASEI_2s,FALSE,,,
,,{Wait},,,,,,,,,,0.5,,,,
,,{DeleteAllActor},,,,,,,,,,,,,,
029,笭伊姍,「伊姍……伊姍……又忍不住了……嗚嗚嗚。」,450,,,03,,裸,TRUE,,,,,,,
對話,端木壹,「看來這個產品不僅可以提振精神*還有媚藥的效果。」,-450,,,01,,制服,TRUE,,,,,,,
030,笭伊姍,「店長……伊姍……忽然覺得好難受……但是又好舒服………」,450,,,03,,裸,,,,,,,,
對話,端木壹,「我懂*高潮就是這樣。」,-450,,,01,,制服,,,,,,,,
對話,端木壹,「不過也不能讓妳一直處於這種狀態*既然知道效果了就來好好解毒一下。」,-450,,,04,,制服,,,,,,,,
對話,端木壹,「解毒的方法就是喝下我的熱牛奶！」,-450,,,07,,制服,,,,,,,,
,,{Wait},,,,,,,,,,0.5,,,,
,,{DeleteAllActor},,,,,,,,,,,,,,
,,{CreateBackground},,,,,,,,,,Black,,,,
,,{Loading},,,,,,,,,,1.5,1.5,1,,
,,{CreatePicture},,,,,,,,,,2,A3,YiShan_H3_001,,
,,{Wait},,,,,,,,,,0.5,,,,
旁白,,我再次把滿臉通紅、不停嬌喘著伊姍抱到了沙發上。,,,,,,,,,,,,,,
,,{PlayEffect},,,,,,,,,,se_zipper,FALSE,,,
旁白,,接著脫下褲子跨坐在伊姍身上*露出前端紅潤、挺硬的雄壯肉棒。,,,,,,,,,,,,,,
031,笭伊姍,「店長的肉棒*還是一樣好大又好厲害。」,,,,,,,,,,,,,,
032,笭伊姍,「而且一樣還散發著濃烈的味道。」,,,,,,,,,,,,,,
033,笭伊姍,「可是為什麼……明明麼難聞……伊姍想要一直想要聞下去。」,,,,,,,,,,,,,,
034,笭伊姍,（而且伊姍……好想舔……好想舔店長的肉棒。）,,,,,,,,,,,,,,
旁白,,伊姍順應我之前的教導*努力擠著自己小小的胸部*做出一條緊實又柔軟的乳穴。,,,,,,,,,,,,,,
旁白,,看到此景*我再也按耐不住膨脹的性慾*讓肉棒深入乳穴*然後開始抽插起來。,,,,,,,,,,,,,,
,,{PlayHEffect},,,,,,,,,,SEX_S_12s,TRUE,,,
,,{CreatePicture},,,,,,,,,,2,A3,YiShan_H3_002,,
035,笭伊姍,「哈啊……哈啊……哈……啊啊阿阿……哈啊阿……」,,,,,,,,,,,,,,
036,笭伊姍,「店長看起來很開心的樣子*被店長喜歡的伊姍感覺好幸福喔。」,,,,,,,,,,,,,,
037,笭伊姍,「伊姍想要讓店長更開心！」,,,,,,,,,,,,,,
038,笭伊姍,「想要、想要、想要！還想要！」,,,,,,,,,,,,,,
,,{CreatePicture},,,,,,,,,,2,A3,YiShan_H3_003,,
旁白,,伊姍自動自發含住肉棒粉色的前端*像是渴望著母乳和愛的小嬰兒一樣*吸吮。,,,,,,,,,,,,,,
039,笭伊姍,「噗哧噗哧噗哧噗哧。」,,,,,,,,,,,,,,
040,笭伊姍,「好棒……店長的味道充滿了伊姍的嘴巴。」,,,,,,,,,,,,,,
041,笭伊姍,「伊姍想要喝店長的熱牛奶！」,,,,,,,,,,,,,,
042,笭伊姍,（伊姍必須讓店長更舒服才行！）,,,,,,,,,,,,,,
043,笭伊姍,（要更努力、更溫柔、更輕柔……）,,,,,,,,,,,,,,
對話,端木壹,「沒想到妳這麼主動……可惡…我快要受不了了……」,,,,,,,,,,,,,,
旁白,,看到伊姍如此渴求我的精液*原本的忍耐*瞬間消失的無影無蹤。,,,,,,,,,,,,,,
旁白,,我想要填滿眼前這名渴求自己的女孩的口腔和胃*徹徹底底征服她。,,,,,,,,,,,,,,
,,{StopEffect},,,,,,,,,,SEX_S_12s,,,,
,,{Flash},,,,,,,,,,,,,,
,,{PlayHEffect},,,,,,,,,,SYASEI_4s,FALSE,,,
,,{CreatePicture},,,,,,,,,,2,A3,YiShan_H3_004,,
旁白,,於是比之前大量更濃稠的精液*一口氣湧進了伊姍的口中。,,,,,,,,,,,,,,
044,笭伊姍,「嗚咕……咕嚕…咕嗚……咕嗚……咕嚕嚕……」,,,,,,,,,,,,,,
045,笭伊姍,「好多*店長的熱牛奶都進來了。」,,,,,,,,,,,,,,
,,{CreatePicture},,,,,,,,,,2,A3,YiShan_H3_005,,
046,笭伊姍,「不夠……伊姍想要更多熱牛奶……」,,,,,,,,,,,,,,
047,笭伊姍,「咕嚕咕嚕……咕嚕……」,,,,,,,,,,,,,,
048,笭伊姍,「沒有了嗎？好難過……」,,,,,,,,,,,,,,
旁白,,真是的……我又忍不住戲弄伊姍了。,,,,,,,,,,,,,,
對話,端木壹,「呼……這樣應該就可以解毒了*不過沒想到我也受到媚藥的影響*噴了這麼多。」,,,,,,,,,,,,,,
049,笭伊姍,「伊姍……伊姍……還是覺得好熱……伊姍……身上的毒好像還沒有解掉……店長……店長……拜託……再給伊姍一些熱牛奶。」,,,,,,,,,,,,,,
對話,端木壹,「伊姍！等等！讓我休息一下*等！」,,,,,,,,,,,,,,
,,{Wait},,,,,,,,,,0.5,,,,
,,{DeletePicture},,,,,,,,,,,,,,
,,{CreateBackground},,,,,,,,,,Black,,,,
旁白,,然後到了隔天……,,,,,,,,,,,,,,
,,{FadeBGM},,,,,,,,,,0,１,,,
,,{Loading},,,,,,,,,,1.5,1.5,1,,
,,{PlayBGM},,,,,,,,,,bgm_joke02,0.5,,,
,,{CreateBackground},,,,,,,,,,Store,,,,
,,{Wait},,,,,,,,,,0.5,,,,
,笭伊姍,{CreateActor},0,,,01,開心,半制服,TRUE,TRUE,,,,,,
旁白,,伊姍看起來容光煥發、精神飽滿的樣子*甚至連皮膚也變得更加滑嫩細緻。,,,,,,,,,,,,,,
旁白,,反觀我因為昨天接連大爆射*整個人精神不濟、渾身無力、腰酸背痛。,,,,,,,,,,,,,,
,,{Wait},,,,,,,,,,0.5,,,,
,,{DeleteAllActor},,,,,,,,,,,,,,
對話,端木壹,「那個蠻羊……還是停止開發吧……」,-450,,,05,汗顏,制服,TRUE,,,,,,,
050,笭伊姍,「店長看起來好像很累的樣子*要不要喝一點蠻羊提提神？」,450,,,04,問號,半制服,TRUE,,,,,,,
,,{PlayEffect},,,,,,,,,,se_bad,FALSE,,,
對話,端木壹,「妳……妳不要過來呀！把那個東西離我遠一點！！」,-450,-600,0.5,06,驚嘆號,制服,,,,,,,,
旁白,,至少一個禮拜內*我不要再看到蠻什麼的提神飲料了！,,,,,,,,,,,,,,
,,{Wait},,,,,,,,,,1,,,,
,,{DeleteAllActor},,,,,,,,,,,,,,
,,,,,,,,,,,,,,,,
,,,,,,,,,,,,,,,,
,,,,,,,,,,,,,,,,
,,,,,,,,,,,,,,,,
,,,,,,,,,,,,,,,,
,,,,,,,,,,,,,,,,
,,,,,,,,,,,,,,,,
,,,,,,,,,,,,,,,,
,,,,,,,,,,,,,,,,
,,,,,,,,,,,,,,,,
,,,,,,,,,,,,,,,,
,,,,,,,,,,,,,,,,
,,,,,,,,,,,,,,,,
,,,,,,,,,,,,,,,,
,,,,,,,,,,,,,,,,
,,,,,,,,,,,,,,,,
,,,,,,,,,,,,,,,,
,,,,,,,,,,,,,,,,
,,,,,,,,,,,,,,,,
,,,,,,,,,,,,,,,,
,,,,,,,,,,,,,,,,
,,,,,,,,,,,,,,,,
,,,,,,,,,,,,,,,,
,,,,,,,,,,,,,,,,
,,,,,,,,,,,,,,,,
,,,,,,,,,,,,,,,,
,,,,,,,,,,,,,,,,
,,,,,,,,,,,,,,,,
,,,,,,,,,,,,,,,,
,,,,,,,,,,,,,,,,
,,,,,,,,,,,,,,,,
,,,,,,,,,,,,,,,,
,,,,,,,,,,,,,,,,
,,,,,,,,,,,,,,,,
,,,,,,,,,,,,,,,,
,,,,,,,,,,,,,,,,
,,,,,,,,,,,,,,,,
,,,,,,,,,,,,,,,,
,,,,,,,,,,,,,,,,
,,,,,,,,,,,,,,,,
,,,,,,,,,,,,,,,,
,,,,,,,,,,,,,,,,
,,,,,,,,,,,,,,,,
,,,,,,,,,,,,,,,,
,,,,,,,,,,,,,,,,
,,,,,,,,,,,,,,,,
,,,,,,,,,,,,,,,,
,,,,,,,,,,,,,,,,
,,,,,,,,,,,,,,,,
,,,,,,,,,,,,,,,,
,,,,,,,,,,,,,,,,
,,,,,,,,,,,,,,,,
,,,,,,,,,,,,,,,,
,,,,,,,,,,,,,,,,
,,,,,,,,,,,,,,,,
,,,,,,,,,,,,,,,,
,,,,,,,,,,,,,,,,
,,,,,,,,,,,,,,,,
,,,,,,,,,,,,,,,,
,,,,,,,,,,,,,,,,
,,,,,,,,,,,,,,,,
,,,,,,,,,,,,,,,,
,,,,,,,,,,,,,,,,
,,,,,,,,,,,,,,,,
,,,,,,,,,,,,,,,,
,,,,,,,,,,,,,,,,
,,,,,,,,,,,,,,,,
,,,,,,,,,,,,,,,,
,,,,,,,,,,,,,,,,
,,,,,,,,,,,,,,,,
,,,,,,,,,,,,,,,,
,,,,,,,,,,,,,,,,
,,,,,,,,,,,,,,,,
,,,,,,,,,,,,,,,,
,,,,,,,,,,,,,,,,
,,,,,,,,,,,,,,,,
,,,,,,,,,,,,,,,,
,,,,,,,,,,,,,,,,
,,,,,,,,,,,,,,,,
,,,,,,,,,,,,,,,,
,,,,,,,,,,,,,,,,
,,,,,,,,,,,,,,,,
,,,,,,,,,,,,,,,,
,,,,,,,,,,,,,,,,
,,,,,,,,,,,,,,,,
,,,,,,,,,,,,,,,,
,,,,,,,,,,,,,,,,
,,,,,,,,,,,,,,,,
,,,,,,,,,,,,,,,,
,,,,,,,,,,,,,,,,
,,,,,,,,,,,,,,,,
,,,,,,,,,,,,,,,,
,,,,,,,,,,,,,,,,
,,,,,,,,,,,,,,,,
,,,,,,,,,,,,,,,,
,,,,,,,,,,,,,,,,
,,,,,,,,,,,,,,,,
,,,,,,,,,,,,,,,,
,,,,,,,,,,,,,,,,
,,,,,,,,,,,,,,,,
,,,,,,,,,,,,,,,,
,,,,,,,,,,,,,,,,
,,,,,,,,,,,,,,,,
,,,,,,,,,,,,,,,,
,,,,,,,,,,,,,,,,
,,,,,,,,,,,,,,,,
,,,,,,,,,,,,,,,,
,,,,,,,,,,,,,,,,
,,,,,,,,,,,,,,,,
,,,,,,,,,,,,,,,,
,,,,,,,,,,,,,,,,
,,,,,,,,,,,,,,,,
,,,,,,,,,,,,,,,,
,,,,,,,,,,,,,,,,
,,,,,,,,,,,,,,,,
,,,,,,,,,,,,,,,,
,,,,,,,,,,,,,,,,
,,,,,,,,,,,,,,,,
,,,,,,,,,,,,,,,,
,,,,,,,,,,,,,,,,
,,,,,,,,,,,,,,,,
,,,,,,,,,,,,,,,,
,,,,,,,,,,,,,,,,
,,,,,,,,,,,,,,,,
