0.對話方式,1.角色名稱,2.台詞,3.角色起點,4.角色終點,5.行走時間,6.角色表情,7.表情符號,8.服裝,9.淡入,10.特寫,11,12.事件參數1,13.事件參數2,14.事件參數3,15.事件參數4,16.事件參數5
,,{DisableAllButton},,,,,,,,,,,,,,
,,{Teach},,,,,,,,,,TRUE,FALSE,,,
,,{OpenStoryLog},,,,,,,,,,,,,,
教學,顏無菁,「那麼*基本的商店經營全都介紹完畢了。」,,,,,,,,,,,,,,
教學,顏無菁,「由店長自行決定接下來的行動*好好發揮你的聰明才智*經營只屬於你的便利商店吧!」,,,,,,,,,,,,,,
,,{Teach},,,,,,,,,,FALSE,FALSE,,,
,,{RemoveListener},,,,,,,,,,GameUICanvas/MainAction/BuildLog/,OKBtn,,,
,,{WaitNextTeach},,,,,,,,,,GameUICanvas/MainAction/BuildLog/,OKBtn,TRUE,,
,,{AddOldListener},,,,,,,,,,GameUICanvas/MainAction/BuildLog/,OKBtn,,,
,,{FadeBGM},,,,,,,,,,0,1,,,
,,{Loading},,,,,,,,,,2,1,0.5,,
,,{CloseMainPanel},,,,,,,,,,,,,,
,,{NextShift},,,,,,,,,,FALSE,,,,
,,{Wait},,,,,,,,,,0.5,,,,
,,{EnableAllButton},,,,,,,,,,,,,,