﻿0.對話方式,1.角色名稱,2.台詞,3.角色起點,4.角色終點,5.行走時間,6.角色表情,7.表情符號,8.服裝,9.淡入,10.特寫,11,12.事件參數1,13.事件參數2,14.事件參數3,15.事件參數4,16.事件參數5
,,{CreateBackground},,,,,,,,,,Black,,,,
,,{PlayBGM},,,,,,,,,,bgm_days02,,,,
,,{Wait},,,,,,,,,,0.5,,,,
旁白,,Since Gin anounced her departure from home* no one from the Yen family ever came to disturb her again.,,,,,,,,,,,,,,
旁白,,Did the house Master keep his word* or maybe he just doesn't want to let the family issues spread? Anyways* continuing to fight will only make things worse. Perhaps he just wants to handle it quietly.,,,,,,,,,,,,,,
旁白,,Even if he begrudgingly wants to make a scene I'll just have Susan handle him. She absolutely adores the proverb 'the wolf has a winning game when the shepherds quarrel'.,,,,,,,,,,,,,,
旁白,,As for Gin.,,,,,,,,,,,,,,
,,{Wait},,,,,,,,,,0.5,,,,
,,{CreateBackground},,,,,,,,,,Lounge2,,,,
旁白,,She doesn't have a place to stay. She's temporarily staying in the staff room of the convenience store.,,,,,,,,,,,,,,
旁白,,But* luckily she had acceess to her personal bank accounts. She quickly found a cheap place to rent that was close to her work.,,,,,,,,,,,,,,
旁白,,Seriously* my bedroom is big* comfy and warm.,,,,,,,,,,,,,,
旁白,,Wasn't this all over the new lately? Dirty old men picking up homeless young girls and taking them home? I'm kind of a dirty old man myself no? Just come home with me.,,,,,,,,,,,,,,
旁白,,Although I want to tell all these things to Gin* her recent storm of emotions suggest she needs some time to calm down.,,,,,,,,,,,,,,
,,{Wait},,,,,,,,,,0.5,,,,
,,{CreateBackground},,,,,,,,,,Black,,,,
,,{Loading},,,,,,,,,,1.5,1.5,1,,
,,{CreateBackground},,,,,,,,,,Store,,,,
,,{Wait},,,,,,,,,,0.5,,,,
旁白,,Time flies.,,,,,,,,,,,,,,
旁白,,Work at the convenience store getting back on track* but it's also getting better with each day.,,,,,,,,,,,,,,
旁白,,The store's management is now stable* and sales are gradually increasing.,,,,,,,,,,,,,,
旁白,,I'm also preparing to open another branch. I feel proud that my first business could reach this level.,,,,,,,,,,,,,,
旁白,,My debts to Susan SIma is reducing at a stable pace. It won't take long for me to reach financial freedom.,,,,,,,,,,,,,,
旁白,,Everything is going well.,,,,,,,,,,,,,,
,,{DeleteAllActor},,,,,,,,,,,,,,
,,{CreateBackground},,,,,,,,,,Black,,,,
,,{Loading},,,,,,,,,,1.5,1.5,1,,
,,{CreateBackground},,,,,,,,,,OfficeA1,,,,
,,{Wait},,,,,,,,,,1,,,,
旁白,,One day* while checking the reports and financial statements* Gin suddenly called me.,,,,,,,,,,,,,,
對話,Gin Yen,“Excuse me….Manager?”,450,,,11,,半制服,TRUE,,,,,,,
對話,Manager,“What? If you want to get prepaid* you can forget about it!”,-450,,,2,驚嘆號,制服,TRUE,,,,,,,
對話,Gin Yen,“Sigh* it's not about money. My life is already stable.”,450,,,12,,半制服,,,,,,,,
對話,Gin Yen,“Dom* are you free this weekend?”,450,,,7,,半制服,,,,,,,,
對話,Gin Yen,“Can you go with me….the place is somewhere a bit far away.”,450,,,11,,半制服,,,,,,,,
對話,Manager,“How far?”,-450,,,1,反問號,制服,,,,,,,,
對話,Gin Yen,"""I want to take you with me to clean my sister's tomb.""",450,,,3,,半制服,,,,,,,,
對話,Manager,“……..”,-450,,,5,,制服,,,,,,,,
對話,Manager,“Hm* I think it's about time.”,-450,,,5,,制服,,,,,,,,
旁白,,…..Finally* I get to see Harmony.,,,,,,,,,,,,,,
,,{Wait},,,,,,,,,,0.5,,,,
,,{DeleteAllActor},,,,,,,,,,,,,,
,,{CreateBackground},,,,,,,,,,Black,,,,
,,{FadeBGM},,,,,,,,,,0,1,,,
,,{Loading},,,,,,,,,,1.5,1.5,1,,
,,{PlayBGM},,,,,,,,,,bgm_memory,0.5,,,
,,{CreateBackground},,,,,,,,,,Coast1,,,,
,,{Wait},,,,,,,,,,0.5,,,,
旁白,,Soon* it's the weekend.,,,,,,,,,,,,,,
旁白,,Under the guidance of Gin* we arrived at a sea cliff on the northern coast.,,,,,,,,,,,,,,
旁白,,The tomb where Harmony is deeply asleep lays on a quiet sea cliff,,,,,,,,,,,,,,
旁白,,I came here once with Harmony. This was the place where we had our first date---,,,,,,,,,,,,,,
,,{Wait},,,,,,,,,,0.5,,,,
,,{Loading},,,,,,,,,,1.5,1.5,1,,
,,{DisplayMemory},,,,,,,,,,TRUE,,,,
,,{CreateBackground},,,,,,,,,,Coast,,,,
,,{Wait},,,,,,,,,,0.5,,,,
對話,Jade Yen,“I can't believe our first date is where no one would want to go* Dom. You really don't know how to be romantic.”,450,,,5,,私服,TRUE,,,,,,,
對話,Manager,“Do I look like a romantic european guy?”,-450,,,1,,西裝,TRUE,,,,,,,
對話,Jade Yen,“You look more like someone who knows how to comfort girls with sweet talk.”,450,,,4,,私服,,,,,,,,
對話,Jade Yen,“But* this cliff is pretty peaceful. I don't hate this place.”,450,,,1,開心,私服,,,,,,,,
對話,Manager,“I thought you might like it.”,-450,,,8,得意,西裝,,,,,,,,
對話,Manager,“This is my secret spot. Whenever I want to relax or just stop thinking for a second. I'll stay here for a whole afternoon.”,-450,,,1,,西裝,,,,,,,,
對話,Manager,“Seeing this sunset slowly disappearing into the horizon* I get a sad feeling in my heart.”,-450,,,1,,西裝,,,,,,,,
對話,Jade Yen,“Hey---I didn't know you had such sensitive side.”,450,,,1,,私服,,,,,,,,
對話,Manager,“That just shows you don't know me well at all.”,-450,,,1,,西裝,,,,,,,,
對話,Jade Yen,“We have a long time to get to know each other* right?”,450,,,4,,私服,,,,,,,,
對話,Manager,“Right.”,-450,,,4,,西裝,,,,,,,,
,,{Wait},,,,,,,,,,0.5,,,,
,,{DeleteAllActor},,,,,,,,,,,,,,
旁白,,But before Harmony could get to know me well* we broke up.,,,,,,,,,,,,,,
旁白,,Forever.,,,,,,,,,,,,,,
旁白,,Harmony and I left each other. We were unable to see each other again.,,,,,,,,,,,,,,
旁白,,I never got the chance to say everything I wanted to say or visit all the places I wanted to see with her……,,,,,,,,,,,,,,
旁白,,There was no more chances.,,,,,,,,,,,,,,
,,{DeleteAllActor},,,,,,,,,,,,,,
,,{CreateBackground},,,,,,,,,,Black,,,,
,,{FadeBGM},,,,,,,,,,0,1,,,
,,{Loading},,,,,,,,,,1.5,1.5,1,,
,,{DisplayMemory},,,,,,,,,,FALSE,,,,
,,{PlayBGM},,,,,,,,,,bgm_he,0.5,,,
,,{CreateBackground},,,,,,,,,,Coast2,,,,
,,{Wait},,,,,,,,,,0.5,,,,
旁白,,A light sea breeze slightly blows on a tree* which creates a whisper in the leaves. It was as if Harmony's voice was still ringing in my ears.,,,,,,,,,,,,,,
旁白,,Looking ahead* the environment of the tomb is pretty well cleaned.,,,,,,,,,,,,,,
旁白,,There are even flowers around. Clearly* Gin comes here sometimes.,,,,,,,,,,,,,,
旁白,,The gravestone of Harmony doesn't have any decoration. It's only engraved with her name.,,,,,,,,,,,,,,
旁白,,She chose not to be buried beside the Yen family. Instead* she decided to be buried on this cliff. Maybe this was Harmony's last rebellious act before she died.,,,,,,,,,,,,,,
對話,Manager,“I didn't think that you would clean here* Gin.”,-450,,,1,,西裝,TRUE,,,,,,,
對話,Manager,“I'm sure Harmony would be satisfied with your performance.”,-450,,,1,,西裝,,,,,,,,
對話,Gin Yen,“Dom…..before Sister passed away* she was still thinking about you.”,450,,,3,,私服,,,,,,,,
對話,Manager,“I know.”,-450,,,5,,西裝,,,,,,,,
對話,Manager,“A couple who are linked mentally to each other doesn't need to speak out loud to communicate. They know what the other person is feeling.”,-450,,,5,,西裝,,,,,,,,
對話,Manager,“No matter how much I want to speak with Harmony* she'll never hear me again.”,-450,,,3,,西裝,,,,,,,,
對話,Gin Yen,“Dom* do you think I'm mean?”,450,,,3,,私服,,,,,,,,
對話,Manager,“Hm* about that….”,-450,,,5,,西裝,,,,,,,,
對話,Manager,“I only hate the individual responsible for causing the separation between Harmony and me.”,-450,,,1,,西裝,,,,,,,,
對話,Gin Yen,“…………….”,450,,,3,,私服,,,,,,,,
對話,Manager,“So* I definitely don't hate you.”,-450,,,1,,西裝,,,,,,,,
對話,Manager,“You and Harmony were both victims* being forced to sacrifice your lives for the family.”,-450,,,5,,西裝,,,,,,,,
對話,Gin Yen,“But….I!”,450,,,12,,私服,,,,,,,,
對話,Gin Yen,“I hid the death of my sister….and kept lying to you* giving you hope….”,450,,,3,,私服,,,,,,,,
對話,Gin Yen,“Making you think that you'll meet my sister again one day.”,450,,,3,,私服,,,,,,,,
對話,Gin Yen,“How can someone like me be forgiven?”,450,,,3,,私服,,,,,,,,
對話,Manager,“Of course* you can* I promise.”,-450,,,8,,西裝,,,,,,,,
對話,Gin Yen,“Why?”,450,,,8,汗顏,私服,,,,,,,,
對話,Manager,"""Because you're not so bad* and it's what Harmony would've wanted.""",-450,,,1,,西裝,,,,,,,,
,,{CreatePicture},,,,,,,,,,0,C1,WuJing_C1_001,,
對話,Manager,“Seriously* you two are twins in many aspects. You are both stubborn and tough.”,,,,,,,,,,,,,,
對話,Gin Yen,“Sister she…..”,,,,,,,,,,,,,,
對話,Manager,“The dead would not come back to life but we can always honor their legacy.”,,,,,,,,,,,,,,
對話,Manager,“To make you happy is what Harmony and I want.”,,,,,,,,,,,,,,
對話,Manager,“You need to live your life free. That's what your sister would've wanted.”,,,,,,,,,,,,,,
對話,Gin Yen,“Including my sister?”,,,,,,,,,,,,,,
對話,Manager,“Exactly!”,,,,,,,,,,,,,,
對話,Gin Yen,“So that is how it is* Sister….”,,,,,,,,,,,,,,
對話,Gin Yen,“In the past* I always felt sorry for how I acted towards Sister Harmony. But I never told her what was in my heart.”,,,,,,,,,,,,,,
對話,Gin Yen,“However* I thought it through.”,,,,,,,,,,,,,,
對話,Gin Yen,“I want to confront the feelings in my heart.”,,,,,,,,,,,,,,
對話,Manager,“What's the feeling in your heart?”,,,,,,,,,,,,,,
對話,Gin Yen,“I want to be a normal girl and go on normal dates with you…..”,,,,,,,,,,,,,,
對話,Gin Yen,“It took some courage to finally confess.”,,,,,,,,,,,,,,
對話,Gin Yen,“I don't know* Dom….what do you think?”,,,,,,,,,,,,,,
對話,Manager,“Of course no problem.”,,,,,,,,,,,,,,
對話,Manager,“Whether privately or publicly.”,,,,,,,,,,,,,,
對話,Gin Yen,“Great…..”,,,,,,,,,,,,,,
對話,Gin Yen,“I was waiting for this to happen.”,,,,,,,,,,,,,,
對話,Manager,“Not only in this moment. But we still have many days to spend together! You are the girl who could become my wife!”,,,,,,,,,,,,,,
對話,Manager,“But this big step for someone like you* let's start with a normal date first.”,,,,,,,,,,,,,,
對話,Gin Yen,“Hmph* you really can't leave people alone without insulting them!”,,,,,,,,,,,,,,
旁白,,Gin and I looked at each other under the sunset until it got dark.,,,,,,,,,,,,,,
旁白,,It was at this moment that we truly believe that life is indeed just like tea made with high class tea leaves-----,,,,,,,,,,,,,,
旁白,,Life is bitter at first but always ends up sweet.,,,,,,,,,,,,,,
旁白,,This kind of sweetness makes up for all the hard times.,,,,,,,,,,,,,,
,,{Wait},,,,,,,,,,5,,,,
,,{DeleteAllActor},,,,,,,,,,,,,,
