﻿0.對話方式,1.角色名稱,2.台詞,3.角色起點,4.角色終點,5.行走時間,6.角色表情,7.表情符號,8.服裝,9.淡入,10.特寫,11,12.事件參數1,13.事件參數2,14.事件參數3,15.事件參數4,16.事件參數5
,,{CreateBackground},,,,,,,,,,Store,,,,
,,{PlayBGM},,,,,,,,,,bgm_days01,0.5,,,
,,{Wait},,,,,,,,,,0.5,,,,
對話,Manager,“Hm* our Groceries Category Products have more and more varieties.”,-1,,,1,,制服,TRUE,TRUE,,,,,,
對話,Manager,“It's time to hold a Groceries Promotion Event to increase sales* eliminate the weak* and keep the strong ones.”,-1,,,1,,制服,,TRUE,,,,,,
,,{DeleteAllActor},,,,,,,,,,,,,,
對話,Manager,“Do you want to try our new 'Special Use' daily necessity?”,-450,,,8,,制服,TRUE,,,,,,,
對話,ManA,“No.”,450,,,EX12,,,TRUE,,,,,,,
,,{DeleteAllActor},,,,,,,,,,,,,,
對話,Manager,"""This stretchy stick is handy. Do you want to give it a try?""",-450,,,1,,制服,TRUE,,,,,,,
對話,ManB,“No.”,450,,,EX04,,,TRUE,,,,,,,
,,{DeleteAllActor},,,,,,,,,,,,,,
對話,Manager,“This is the newly developed God Protected Condoms. You can definitely have kids by using it.”,-450,,,7,得意,制服,TRUE,,,,,,,
對話,ManC,“I can't even buy a home. How can I afford to have kids?”,450,,,EX09,,,TRUE,,,,,,,
,,{DeleteAllActor},,,,,,,,,,,,,,
,,{PlayEffect},,,,,,,,,,se_bad,FALSE,,,
對話,Manager,“Dammit. I didn’t want to use this…….”,-1,,,5,無言,制服,TRUE,TRUE,,,,,,
,,{Wait},,,,,,,,,,1,,,,
,,{DeleteAllActor},,,,,,,,,,,,,,
,,{Shake},,,,,,,,,,,,,,
對話,Manager,"“Buy the poked condoms and get a free house!"" (There's a tiny line on the side: made of paper.”)",-1,,,2,,制服,TRUE,TRUE,,,,,,
,,{DeleteAllActor},,,,,,,,,,,,,,
對話,ManA,“I'll buy it all!”,-600,,,EX12,驚嘆號,,TRUE,,,,,,,
對話,ManB,“Give it to me!”,0,,,EX04,驚嘆號,,TRUE,,,,,,,
對話,ManC,“Let me buy it!”,600,,,EX09,驚嘆號,,TRUE,,,,,,,
,,{DeleteAllActor},,,,,,,,,,,,,,
,,{PlayEffect},,,,,,,,,,se_good,FALSE,,,
對話,Manager,“Hehe* now* the population in our area can also increase.”,-1,,,4,得意,制服,TRUE,TRUE,,,,,,
,,{Wait},,,,,,,,,,1.5,,,,
,,{DeleteAllActor},,,,,,,,,,,,,,
