﻿0.對話方式,1.角色名稱,2.台詞,3.角色起點,4.角色終點,5.行走時間,6.角色表情,7.表情符號,8.服裝,9.淡入,10.特寫,11,12.事件參數1,13.事件參數2,14.事件參數3,15.事件參數4,16.事件參數5
,,{CreateBackground},,,,,,,,,,Store,,,,
,,{PlayBGM},,,,,,,,,,bgm_joke01,0.5,,,
,,{Wait},,,,,,,,,,0.5,,,,
對話,Manager,“The Special Goods Container could use more space.”,-450,,,5,,制服,TRUE,,,,,,,
對話,Gin Yen,“Manager* you should develop new special goods.”,450,,,1,,半制服,TRUE,,,,,,,
對話,Manager,“I'm still hesitant* what should we put in this container?”,-450,,,5,,制服,,,,,,,,
對話,Gin Yen,“See what the store's specialty is. You want to grow this store. Choose on your own.”,450,,,5,,半制服,,,,,,,,
,,{PlayEffect},,,,,,,,,,se_poipoi,FALSE,,,
對話,Manager,“Speciality? Is this store not sexual enough?”,-450,-1,0.5,7,得意,制服,,,,,,,,
對話,Gin Yen,“…..I'm getting tired of you.”,450,,,6,無言,半制服,,,,,,,,
對話,Gin Yen,“If you can't come up with something* do an area inspection and look for famous goods.”,450,,,1,,半制服,,,,,,,,
對話,Manager,“Fine* I'll travel worldwide for a week to find an appropriate product. I'll be back in one hour.”,-1,-450,0.5,1,靈光一閃,制服,,,,,,,,
,,{PlayEffect},,,,,,,,,,se_run,FALSE,,,
,Manager,{MoveActor},-450,-900,0.5,1,,制服,,,,,,,,
,,{DeleteActor},,,,,,,,,,Manager,,,,
對話,Gin Yen,“Huh? Is this alright?”,450,550,0.5,8,驚嘆號,半制服,,,,,,,,
,,{Wait},,,,,,,,,,1.5,,,,
,,{DeleteAllActor},,,,,,,,,,,,,,
