0.對話方式,1.角色名稱,2.台詞,3.角色起點,4.角色終點,5.行走時間,6.角色表情,7.表情符號,8.服裝,9.淡入,10.特寫,11,12.事件參數1,13.事件參數2,14.事件參數3,15.事件參數4,16.事件參數5
,,{CreateBackground},,,,,,,,,,OfficeA1,,,,
,,{PlayBGM},,,,,,,,,,bgm_joke01,0.5,,,
,,{Wait},,,,,,,,,,0.5,,,,
對話,夜蓮心,「竟敢偷店裡東西，今天一定要抓到那個傢伙……」,450,,,01,,半制服,TRUE,,,,,,,
對話,端木壹,「蓮心？妳不出去工作在這幹嗎呢？」,-450,,,01,,制服,TRUE,,,,,,,
對話,夜蓮心,「我也是在工作好嗎？我在看監視器呢，一定要抓住偷東西的傢伙。」,450,,,06,,半制服,,,,,,,,
對話,端木壹,「不是有巡邏箱的嗎？警察沒有好好做事啊。」,-450,,,01,,制服,,,,,,,,
對話,夜蓮心,「警察有用的話我們兩個早就被抓進去關了……咳！總之，警察是靠不住的。」,450,,,15,,半制服,,,,,,,,
對話,端木壹,「那妳是發現什麼異常了嗎？」,-450,,,01,反問號,制服,,,,,,,,
對話,夜蓮心,「是啊，最近總覺得店裡的餅乾總是會無緣無故變少。」,450,,,01,,半制服,,,,,,,,
對話,端木壹,「喔，那是我偷吃了。」,-450,,,08,得意,制服,,,,,,,,
對話,夜蓮心,「……」,450,,,12,無言,半制服,,,,,,,,
對話,夜蓮心,「不只如此，店裡賣的涼感衣、發熱衣什麼的，總是會不見。」,450,,,07,,半制服,,,,,,,,
對話,端木壹,「喔，因為無菁老是把衣服撐破，我就直接拿給她穿了。」,-450,,,04,,制服,,,,,,,,
對話,夜蓮心,「……所以我們店裡總是只進XXXL號的衣服，結果都賣不出去？」,450,,,16,,半制服,,,,,,,,
,,{PlayEffect},,,,,,,,,,se_poipoi,FALSE,,,
對話,端木壹,「沒辦法，無菁的胸部實在太大了，我又特別喜歡她穿緊身衣的感覺。」,-450,,,07,得意,制服,,,,1.5,,,,
對話,夜蓮心,「……」,450,,,12,無言,半制服,,,,,,,,
對話,夜蓮心,「好吧，那些都算了，可是店裡的轉蛋總是會被搬空，收銀箱卻沒半毛錢。」,450,,,15,,半制服,,,,,,,,
對話,夜蓮心,「那些鬼滅之刀跟山賊王的轉蛋可是很貴的！」,450,,,07,生氣,半制服,,,,,,,,
對話,端木壹,「喔，我跟伊姍一起轉的，她太想要限定版三色豆子了，結果沒轉到所以沒跟她收錢。」,-450,,,01,開心,制服,,,,,,,,
,,{Shake},,,,,,,,,,,,,,
對話,夜蓮心,「……活該倒店好了！大白癡！」,450,,,08,生氣,半制服,,,,,,,,
,,{Wait},,,,,,,,,,1.5,,,,
,,{DeleteAllActor},,,,,,,,,,,,,,