﻿0.對話方式,1.角色名稱,2.台詞,3.角色起點,4.角色終點,5.行走時間,6.角色表情,7.表情符號,8.服裝,9.淡入,10.特寫,11,12.事件參數1,13.事件參數2,14.事件參數3,15.事件參數4,16.事件參數5
,,{DisableAllButton},,,,,,,,,,,,,,
,,{CreateBackground},,,,,,,,,,Store,,,,
,,{PlayBGM},,,,,,,,,,bgm_days02,0.5,,,
,,{Wait},,,,,,,,,,0.5,,,,
旁白,,There's a completely new store renovated. Located on a corner of ‘Central City.’,,,,,,,,,,,,,,
旁白,,As the manager----Dominic was busy arranging the store.,,,,,,,,,,,,,,
,,{PlayEffect},,,,,,,,,,se_putdown01,FALSE,,,
旁白,,After moving the last shelf to the right spot* Dominic grabbed a towel to wipe his sweat and took a break.,,,,,,,,,,,,,,
對話,Manager,“Phew* it finally looks like a convenience store. Now we can officially open.”,-1,,,5,開心,制服,TRUE,,,,,,,
對話,Manager,“I can finally achieve the wish of my aunt.”,-1,,,8,,制服,,,,,,,,
旁白,,Many years ago* the ‘aunty’ who raised me used to own a grocery store.,,,,,,,,,,,,,,
旁白,,After growing up* I worked for several years for my aunt. But she got severely injured in an accident* and the grocery store was forced to shut down.,,,,,,,,,,,,,,
旁白,,I did everything I could. But I still couldn't save her life.,,,,,,,,,,,,,,
旁白,,Her last will was* wishing I can save this house belonging to me and her.,,,,,,,,,,,,,,
旁白,,Unexpectedly* the small town started to develop fast* vicious construction companies used that chance to corrupt the local officials* to demolish my aunt's store and build new buildings……,,,,,,,,,,,,,,
旁白,,I was forced to borrow some money* to finally keep this store after some difficulties* and changed it into a convenience store.,,,,,,,,,,,,,,
旁白,,If it was really changed into a building by those construction companies* I'm sure my aunt would be heartbroken in Heaven.,,,,,,,,,,,,,,
,,{PlayEffect},,,,,,,,,,se_good,FALSE,,,
對話,Manager,“Done* next is to hire some reliable employees* to run this business rich.”,-1,,,4,得意,制服,,,,,,,,
對話,Manager,“Hm?”,-1,,,5,,制服,,,,,,,,
,,{DeleteActor},,,,,,,,,,Manager,,,,
對話,？？？,,0,,,EX17,,,TRUE,,,,,,,
旁白,,A student girl is leaning over from outside.,,,,,,,,,,,,,,
旁白,,I had a quick look* she might be wearing a white sportive uniform of some senior high school* she's even wearing a sportive vest* she seems to be those teenage girls who skip classes.,,,,,,,,,,,,,,
旁白,,Giving it another glance* her legs are white and long* she's quite firm compared to normal students.,,,,,,,,,,,,,,
旁白,,She poked her head from outside* then she walked in the store.,,,,,,,,,,,,,,
,,{DeleteAllActor},,,,,,,,,,,,,,
,,{PlayEffect},,,,,,,,,,se_bell,FALSE,,,
,,{PlayEffect},,,,,,,,,,se_walk,FALSE,,,
,Xiaoxian Sima,{CreateActor},900,450,0.5,1,,制服,TRUE,,,,,,,
對話,？？？,,,,,,,,,,,,,,,
對話,Manager,“Sorry* we haven't officially start……..”,-450,,,8,,制服,TRUE,,,,,,,
對話,Manager,“----------!”,-450,,,6,驚嘆號,制服,,,,,,,,
,Xiaoxian Sima,{CreateActor},450,,,1,,制服,,,,,,,,
對話,？？？,“Hi* Dominic! How are you today?”,,,,,,制服,,,,,,,,
,Manager,{MoveActor},-450,-550,0.5,,,,,,,,,,,
對話,？？？,“It's been a while we haven't seen each other.”,,,,,,制服,,,,,,,,
,,{FadeBGM},,,,,,,,,,0,1,,,
,,{Flash},,,,,,,,,,,,,,
,,{PlayBGM},,,,,,,,,,bgm_Joke01,0.5,,,
對話,Manager,“I wasn't feeling well today* but now it suddenly got worse----”,-550,,,3,汗顏,制服,,,,,,,,
對話,Manager,“I must take off now* bye!”,-550,-700,0.5,3,,制服,,,,,,,,
,,{PlayEffect},,,,,,,,,,se_heart,FALSE,,,
,,{Shake},,,,,,,,,,,,,,
旁白,,My heartbeats violently sped up like ta-tump* ta-tump* as if it wants to jump out of my chest.,,,,,,,,,,,,,,
,,{PlayEffect},,,,,,,,,,se_heart,FALSE,,,
旁白,,It's certainly not because I loved her at first sight* it's more like……a sudden heart disease?,,,,,,,,,,,,,,
旁白,,Oh god* is it that I* 29 years old* am already among the aged population?,,,,,,,,,,,,,,
,,{DeleteAllActor},,,,,,,,,,,,,,
,Manager,{CreateActor},-450,,,3,,制服,TRUE,,,,,,,
,Xiaoxian Sima,{CreateActor},450,,,3,,制服,TRUE,,,,,,,
對話,？？？,“What are you saying* don't give this look as if you saw a ghost!”,,,,,,,,,,,,,,
,,{DeleteAllActor},,,,,,,,,,,,,,
對話,Manager,“Aren't you the ghost?”,-1,,,2,生氣,制服,,TRUE,,,,,,
,,{Wait},,,,,,,,,,0.5,,,,
,,{DeleteAllActor},,,,,,,,,,,,,,
,Manager,{CreateActor},-450,,,2,,制服,,,,,,,,
,Xiaoxian Sima,{CreateActor},450,,,1,,制服,,,,,,,,
對話,？？？,“What are you saying* don’t you remember me?”,,,,,,,,,,,,,,
,Xiaoxian Sima,{CreateActor},450,,,2,,制服,,,,,,,,
對話,？？？,“Remembering that intense night* you gave out everything to please me with your perfectly trained body…..”,,,,,開心,,,,,,,,,
,,{PlayEffect},,,,,,,,,,se_bad,FALSE,,,
對話,Manager,“Yea! Asking me to walk on a tightrope at 100 meters height* that was indeed giving my life!”,-450,,,2,無言,制服,,,,,,,,
旁白,,I was too relaxed* I didn't notice her at first.,,,,,,,,,,,,,,
旁白,,That's right* I can't fall into this woman's innocent look.,,,,,,,,,,,,,,
旁白,,She's in fact one year younger than me* and she's even a super monopolist----The only daughter of Sima association's founder* Susan Sima.,,,,,,,,,,,,,,
旁白,,The business domain of Sima association expands through all kinds of fields* such as food* chemical industry* construction* electronics* technology* even games and anime industries* like a first-rate monopoly of novels.,,,,,,,,,,,,,,
旁白,,Susan* as the heir* has received England royal education* she's currently faking as a junior high school's teacher* but in fact* she's doing a lot of secret tasks that can't be brought to light.,,,,,,,,,,,,,,
旁白,,Before* in order to keep this store and land* I was forced to borrow money from the Sima family….but that was the beginning of nightmares.,,,,,,,,,,,,,,
,,{FadeBGM},,,,,,,,,,0,1,,,
,,{PlayBGM},,,,,,,,,,bgm_days02,0.5,,,
對話,Xiaoxian Sima,“I feel like you have a comment against me* are you sure this is alright?”,450,,,3,,制服,,,,,,,,
對話,Xiaoxian Sima,“Who's the one who was forced to nowhere to go by the Sima family* who could only join luxurious yacht casino's death games and to work in an underground mine to return his debts?”,450,,,4,,制服,,,,,,,,
對話,Manager,“I'm financially free now! All my debts are almost clear!”,-450,,,2,,制服,,,,,,,,
對話,Xiaoxian Sima,“I regret* as per your written pledge* counting the interests until now* there's still about 10 trillions dollars.”,450,,,4,,制服,,,,,,,,
,,{Shake},,,,,,,,,,,,,,
對話,Manager,“Ten….ten trillions! Even with a lifetime maturbation* it won't reach to this number……”,-450,,,6,驚嘆號,制服,,,,,,,,
對話,Xiaoxian Sima,“But then* I figured out that it's the accountant's wrong calculation* teehee* don't be nervous.”,450,,,1,,制服,,,,,,,,
對話,Manager,“…..Could you be recording a prank emission? I'm sorry but I'm not in!”,-450,,,5,,制服,,,,,,,,
,,{PlayEffect},,,,,,,,,,se_good,FALSE,,,
對話,Xiaoxian Sima,“Don't rush. I especially freed myself here* all to give you good news.”,450,,,1,得意,制服,,,,,,,,
對話,Manager,“What good news can there be?”,-450,,,5,,制服,,,,,,,,
對話,Xiaoxian Sima,“My dad is dead.”,450,,,3,,制服,,,,,,,,
對話,Manager,“How is this good news! Anyways* I should give you my condolences……”,-450,,,6,汗顏,制服,,,,,,,,
對話,Xiaoxian Sima,“It's indeed good news.”,450,,,1,,制服,,,,,,,,
對話,Xiaoxian Sima,“It means that the whole Sima association is mine. Hehehehe------”,450,,,4,,制服,,,,,,,,
對話,Manager,“It's good news to you only* to me* it's nightmare.”,-450,,,3,,制服,,,,,,,,
對話,Xiaoxian Sima,“Don't be like this* I'm here to give you an easy option of returning your debts.”,450,,,2,開心,制服,,,,,,,,
旁白,,“Shit* I have a bad feeling about this…….”,,,,,,,,,,,,,,
對話,Xiaoxian Sima,“These years* the low birthrate issue has been more and more severe* you should know that.”,450,,,1,,制服,,,,,,,,
旁白,,Indeed as the tv says* the future economy may have a bad effect from the low birthrate and collapse completely.,,,,,,,,,,,,,,
對話,Xiaoxian Sima,“So* in order to encourage the citizen's cooperation* the government provided a very very abundant fund.”,450,,,1,,制服,,,,,,,,
對話,Manager,“So* you think I can give it a try?”,-450,,,5,,制服,,,,,,,,
對話,Manager,“But* how can managing a convenience store help in low birthrate? These are two totally different things.”,-450,,,5,反問號,制服,,,,,,,,
對話,Xiaoxian Sima,“Don't worry* I have an idea that you're surely interested* which is------”,450,,,1,,制服,,,,,,,,
,,{Wait},,,,,,,,,,0.5,,,,
,,{DeleteAllActor},,,,,,,,,,,,,,
,,{CreateBackground},,,,,,,,,,Black,,,,
旁白,,When I thought about it afterwards…….,,,,,,,,,,,,,,
旁白,,Undoubtedly* that was some kind of evil murmurs* I once again made a deal with the devil.,,,,,,,,,,,,,,
,,{FadeBGM},,,,,,,,,,0,1,,,
,,{Loading},,,,,,,,,,2,2,1,,
,,{PlayBGM},,,,,,,,,,bgm_days01,0.5,,,
,,{CreateBackground},,,,,,,,,,Store,,,,
,,{Wait},,,,,,,,,,1,,,,
對話,Manager,“-----After a thorough consideration* from today on* your uniforms will be the styles without skirts!”,-280,,,1,得意,制服,TRUE,,,,,,,
旁白,,On the staff training site* I severely and strictly anounced it to the three employees.,,,,,,,,,,,,,,
,Gin Yen,{CreateActor},280,,,2,,制服,TRUE,,,,,,,
,,{Wait},,,,,,,,,,0.5,,,,
,Lycianna Yeh,{CreateActor},-700,,,1,,制服,TRUE,,,,,,,
,,{Wait},,,,,,,,,,0.5,,,,
,Elissa Lin,{CreateActor},700,,,1,,制服,TRUE,,,,,,,
,,{Wait},,,,,,,,,,1,,,,
對話,Gin Yen,“This is really low* despicable and perverted! How is this careful?”,280,,,6,生氣,制服,,,,,,,,
,,{DeleteAllActor},,,,,,,,,,,,,,
,Gin Yen,{CreateActor},0,,,6,,制服,TRUE,TRUE,,,,,,
旁白,,“The first to object is Gin Yen.,,,,,,,,,,,,,,
旁白,,She's a reserved* perfectionist wealthy daughter* and she has an extremely proud pair of big boobs.,,,,,,,,,,,,,,
,,{PlayEffect},,,,,,,,,,se_poipoi,FALSE,,,
旁白,,A rich girl like her* coming to apply for work troubled me* but I hired for her tits.,,,,,,,,,,,,,,
,,{DeleteAllActor},,,,,,,,,,,,,,
,,{Wait},,,,,,,,,,0.5,,,,
,Manager,{CreateActor},-280,,,1,,制服,,,,,,,,
,Gin Yen,{CreateActor},280,,,2,,制服,,,,,,,,
,Lycianna Yeh,{CreateActor},-700,,,1,,制服,,,,,,,,
,Elissa Lin,{CreateActor},700,,,1,,制服,,,,,,,,
對話,Gin Yen,“That's insane! I'm speehless* I can't believe Manager will use this silly plan!”,280,,,2,,制服,,,,,,,,
對話,Gin Yen,“The most insane part is that it's accepted by the government…..”,280,,,9,無言,制服,,,,,,,,
,Elissa Lin,{UpdateActor},,,,7,,制服,,,,,,,,
,Lycianna Yeh,{UpdateActor},,,,12,,制服,,,,,,,,
對話,Manager,“Hm* you're right. Indeed* I also wanted to loudly denounce this kind of insane and obscene plan of the government.”,-280,,,5,,制服,,,,,,,,
,,{PlayEffect},,,,,,,,,,se_good,FALSE,,,
對話,Manager,“But I regret* panties employees are just too attractive!”,-280,,,7,開心,制服,,,,,,,,
對話,Lycianna Yeh,“Jehehe….That's indeed Dominic* a few sentences can already hook a rich daughter's murder intent.”,-700,,,2,,制服,,,,,,,,
對話,Gin Yen,“Huh? Mur* murder intent? Me?”,280,,,8,驚嘆號,制服,,,,,,,,
對話,Lycianna Yeh,“Indeed* the one who's supposed to be killed should just be killed right on the spot.”,-700,,,9,,制服,,,,,,,,
,Elissa Lin,{UpdateActor},,,,6,,制服,,,,,,,,
對話,Manager,“Stop your tongue with this killing words* you're like the random junior high student of online games.”,-280,,,2,,制服,,,,,,,,
,Gin Yen,{UpdateActor},,,,9,,制服,,,,,,,,
,,{DeleteAllActor},,,,,,,,,,,,,,
,Lycianna Yeh,{CreateActor},0,,,9,,制服,TRUE,TRUE,,,,,,
旁白,,Lycianna Yeh----Because of some past stories* she's a killer who's been eager of killing me.,,,,,,,,,,,,,,
,,{PlayEffect},,,,,,,,,,se_poipoi,FALSE,,,
旁白,,Even if her application made me uncomfortable* but because she's cute and her body is badass* so* I especially hired.,,,,,,,,,,,,,,
,,{DeleteAllActor},,,,,,,,,,,,,,
,,{Wait},,,,,,,,,,0.5,,,,
,Manager,{CreateActor},-280,,,2,,制服,,,,,,,,
,Gin Yen,{CreateActor},280,,,9,,制服,,,,,,,,
,Lycianna Yeh,{CreateActor},-700,,,9,,制服,,,,,,,,
,Elissa Lin,{CreateActor},700,,,6,,制服,,,,,,,,
對話,Elissa Lin,“Sister Lycianna* please calm down! We should listen to Manager's thoughts.”,700,,,2,汗顏,制服,,,,,,,,
,Lycianna Yeh,{UpdateActor},,,,3,,制服,,,,,,,,
,,{DeleteAllActor},,,,,,,,,,,,,,
,Elissa Lin,{CreateActor},0,,,2,,制服,TRUE,TRUE,,,,,,
旁白,,Elissa Lin* unknown background* but she's a poor kid that makes everyone love her.,,,,,,,,,,,,,,
旁白,,Although her identity is unclear* and her young aged look makes people think that I'm hiring children* but I especially hired her as she was too cute.,,,,,,,,,,,,,,
,,{DeleteAllActor},,,,,,,,,,,,,,
,,{Wait},,,,,,,,,,0.5,,,,
,Manager,{CreateActor},-280,,,1,,制服,,,,,,,,
,Gin Yen,{CreateActor},280,,,9,,制服,,,,,,,,
,Lycianna Yeh,{CreateActor},-700,,,1,,制服,,,,,,,,
,Elissa Lin,{CreateActor},700,,,2,,制服,,,,,,,,
,,{PlayEffect},,,,,,,,,,se_good,FALSE,,,
對話,Manager,“Oh! Cuty Elissa is willing to be on my side?”,-280,,,4,,制服,,,,,,,,
對話,Elissa Lin,“Manager* fighting!”,700,,,1,,制服,,,,,,,,
對話,Elissa Lin,“You need to stay alive* until you give Elissa my salary!”,700,,,4,開心,制服,,,,,,,,
對話,Manager,“Of* of course* hahaha…….”,-280,,,8,汗顏,制服,,,,,,,,
,Elissa Lin,{UpdateActor},700,,,1,,制服,,,,,,,,
對話,Gin Yen,“Hmph* however you want to mess is fine* but I won't follow your lead.”,280,,,2,,制服,,,,,,,,
對話,Manager,“It seems that the Yen heir is over dignified* this kind of lowly work still can't be done.”,-280,,,5,,制服,,,,,,,,
對話,Gin Yen,“It's your store rule that started it first…..”,280,,,2,,制服,,,,,,,,
對話,Manager,“This is to solve the problem of low birthrate* it's a forced option.”,-280,,,1,,制服,,,,,,,,
對話,Manager,“The convenience store's employees' killing qualities will definitely ignite people's origin desire* to improve the birthrate.”,-280,,,1,,制服,,,,,,,,
對話,Manager,“Don't you think it's a great sacrifice for the country?”,-280,,,7,得意,制服,,,,,,,,
,Lycianna Yeh,{UpdateActor},-700,,,15,,制服,,,,,,,,
對話,Gin Yen,“Uh uh….in that case…..”,280,,,12,,制服,,,,,,,,
對話,Gin Yen,“This little sacrifice I* I can merely accept…..”,280,,,11,,制服,,,,,,,,
旁白,,That was easy….,,,,,,,,,,,,,,
旁白,,Could it be that Gin could even give herself if a passenger just kneels in front of her? I must be more aware of her.,,,,,,,,,,,,,,
對話,Lycianna Yeh,“It seems that the uniform rule won't be changed.”,-700,,,12,無言,制服,,,,,,,,
對話,Manager,“Of course* but to reduce the non adaptation* during the soft opening* you will be switching between normal ones and no skirt ones.”,-280,,,1,,制服,,,,,,,,
對話,Manager,“Hehehe* I can't wait for the official oppening day.”,-280,,,4,,制服,,,,,,,,
對話,Elissa Lin,“Manager* what are you laughing at?”,700,,,5,,制服,,,,,,,,
對話,Manager,“Listen…..”,-280,,,1,,制服,,,,,,,,
,,{DeleteAllActor},,,,,,,,,,,,,,
,,{PlayEffect},,,,,,,,,,se_good,FALSE,,,
對話,Manager,“Letting a girl without skirt ask me if I want to heat up my bento* is my life's dream!!!”,-1,,,7,開心,制服,,TRUE,,,,,,
,,{CancelSkip},,,,,,,,,,,,,,
,,{FadeBGM},,,,,,,,,,0,1,,,
,,{DeleteAllActor},,,,,,,,,,,,,,
,,{Loading},,,,,,,,,,3,2,1,,
,,{CreateBackground},,,,,,,,,,Black,,,,
,,{WatchVideo},,,,,,,,,,Opening,,,,
