﻿0.對話方式,1.角色名稱,2.台詞,3.角色起點,4.角色終點,5.行走時間,6.角色表情,7.表情符號,8.服裝,9.淡入,10.特寫,11,12.事件參數1,13.事件參數2,14.事件參數3,15.事件參數4,16.事件參數5
,,{DisableAllButton},,,,,,,,,,,,,,
,,{ShowTeachMask},,,,,,,,,,7-1,,,,
,,{Teach},,,,,,,,,,TRUE,FALSE,,,
,,{OpenMainPanel},,,,,,,,,,0,,,,
,,{DisableButtonInChild},,,,,,,,,,GameUICanvas/MainAction/BuildCommodity/Menu,,,,
,,{DisableButtonInChild},,,,,,,,,,GameUICanvas/MainAction/BuildCommodity/Panel/Research,,,,
教學,Gin Yen,“Click <Goods Development>.”,,,,,,,,,,GameUICanvas/MainAction/BuildCommodity/Menu/,Research,,,
,,{ClearTeachMask},,,,,,,,,,,,,,
教學,Gin Yen,“You've already developed foods. This time* let's develop drinks. Balancing development is very important!”,,,,,,,,,,,,,,
,,{ShowTeachMask},,,,,,,,,,21-1,,,,
,,{MoveTeach},,,,,,,,,,0,0,,,
,,{DisableButtonInChild},,,,,,,,,,GameUICanvas/MainAction/BuildCommodity/Menu,,,,
,,{DisableButtonInChild},,,,,,,,,,GameUICanvas/MainAction/BuildCommodity/Panel/Research,,,,
教學,Gin Yen,“Choose <Drinks>.”,,,,,,,,,,GameUICanvas/MainAction/BuildCommodity/Panel/Research/,Type1,,,
,,{DisableButtonInChild},,,,,,,,,,GameUICanvas/MainAction/BuildCommodity/Panel/Research,,,,
,,{ShowTeachMask},,,,,,,,,,9,,,,
,,{MoveTeach},,,,,,,,,,0,100,,,
教學,Gin Yen,“Click <500 Yuan> Development Plan.”,,,,,,,,,,GameUICanvas/MainAction/BuildCommodity/Panel/Research/,Cost0,,,
,,{RemoveListener},,,,,,,,,,GameUICanvas/MainAction/BuildCommodity/Panel/Research/,OKBtn,,,
,,{ShowTeachMask},,,,,,,,,,10,,,,
教學,Gin Yen,“Press <Confirm> button.”,,,,,,,,,,GameUICanvas/MainAction/BuildCommodity/Panel/Research/,OKBtn,,,
,,{AddOldListener},,,,,,,,,,GameUICanvas/MainAction/BuildCommodity/Panel/Research/,OKBtn,,,
,,{PlayCustomEffect},,,,,,,,,,GameUI/CommodityOK,FALSE,system,,
,,{PlayCustomEffect},,,,,,,,,,Coin,FALSE,system,,
,,{Teach},,,,,,,,,,FALSE,FALSE,,,
,,{ClearTeachMask},,,,,,,,,,,,,,
,,{CloseMainPanel},,,,,,,,,,,,,,
,,{Loading},,,,,,,,,,2,1,0.5,,
,,{Wait},,,,,,,,,,1.5,,,,
,,{Research},,,,,,,,,,19,,,,
,,{DisableButton},,,,,,,,,,EffectCanvas/ResearchAnim(Clone)/Skip,,,,
,,{WaitForTouchTarget},,,,,,,,,,EffectCanvas/ResearchAnim(Clone)/Mailer/,Rope,,,
,,{Wait},,,,,,,,,,0.5,,,,
,,{DisableButton},,,,,,,,,,EffectCanvas/ResearchAnim(Clone)/Card/Card_Content,,,,
,,{WaitForTouchTarget},,,,,,,,,,EffectCanvas/ResearchAnim(Clone)/,Card,,,
,,{Wait},,,,,,,,,,2,,,,
,,{Teach},,,,,,,,,,TRUE,FALSE,,,
教學,Gin Yen,“You successfully received samples from the manufacturer. This time from Ling Fong Yin…….”,,,,,,,,,,,,,,
教學,Gin Yen,“Guaranteed no usage of additives or reused milk……yet another case of that manufacturer switching packaging labels on products he couldn't sell out…….”,,,,,,,,,,,,,,
教學,Gin Yen,“Never mind. Let me finish some other tasks first.”,,,,,,,,,,,,,,
,,{ResearchComplete},,,,,,,,,,EffectCanvas/ResearchAnim(Clone)/Card/,Card_Content,,,
,,{Teach},,,,,,,,,,FALSE,FALSE,,,
,,{Wait},,,,,,,,,,0.5,,,,
