﻿0.對話方式,1.角色名稱,2.台詞,3.角色起點,4.角色終點,5.行走時間,6.角色表情,7.表情符號,8.服裝,9.淡入,10.特寫,11,12.事件參數1,13.事件參數2,14.事件參數3,15.事件參數4,16.事件參數5
,,{DisableAllButton},,,,,,,,,,,,,,
,,{CloseMainPanel},,,,,,,,,,,,,,
,,{Wait},,,,,,,,,,1,,,,
,,{Teach},,,,,,,,,,TRUE,FALSE,,,
教學,Gin Yen,“New funds received!”,,,,,,,,,,,,,,
,,{ShowTeachMask},,,,,,,,,,0,,,,
教學,Gin Yen,“‘<Here>’ is your fund management. It can be used for <ＧDebts Return>* <ＧDevelopments>* <ＧGoods Order>* <ＧEquipment Purchase>* and holding <ＧBusiness Events>.”,,,,,,,,,,,,,,
教學,Gin Yen,“Selling products is the only way to generate profits for the store and as the manager* you must explore all possible avenues to increase the store's sales and revenue!”,,,,,,,,,,,,,,
教學,Gin Yen,“It's not too late. To keep increasing our income* display the new goods that just arrived!”,,,,,,,,,,,,,,
,,{ShowTeachMask},,,,,,,,,,7,,,,
,,{MoveTeach},,,,,,,,,,-150,-200,,,
教學,Gin Yen,“Click <Goods Management>.”,,,,,,,,,,BackgroundCanvas/MainButtons/,CommoditySetting,,,
,,{OpenMainPanel},,,,,,,,,,0,,,,
,,{DisableButtonInChild},,,,,,,,,,GameUICanvas/MainAction/BuildCommodity/Menu,,,,
,,{DisableButtonInChild},,,,,,,,,,GameUICanvas/MainAction/BuildCommodity/Panel/Research,,,,
,,{ShowTeachMask},,,,,,,,,,16,,,,
,,{MoveTeach},,,,,,,,,,180,-135,,,
教學,Gin Yen,“Click <Goods Display>.”,,,,,,,,,,GameUICanvas/MainAction/BuildCommodity/Menu/,SetupCommodity,,,
,,{ShowTeachMask},,,,,,,,,,17,,,,
,,{MoveTeach},,,,,,,,,,400,0,,,
,,{DisableButtonInChild},,,,,,,,,,GameUICanvas/MainAction/BuildCommodity/Panel/SetupCommodity,,,,
,,{ShowCabinet},,,,,,,,,,4,0,TRUE,,
教學,Gin Yen,“Display the developed Ling Fong Yin on the Drinks Cabinet!”,,,,,,,,,,,,,,
,,{ShowTeachMask},,,,,,,,,,21-2,,,,
教學,Gin Yen,“Click <Drinks> category.”,,,,,,,,,,GameUICanvas/MainAction/BuildCommodity/Panel/SetupCommodity/BuildSetupCommodity/,Type1,,,
,,{ShowTeachMask},,,,,,,,,,18,,,,
,,{EnableSetupCommodity},,,,,,,,,,4,0,,,
教學,Gin Yen,“Drag the <Ling Fong Yin> to the space on <Flagship Cabinet>.”,,,,,,,,,,,,,,
,,{SetupCommodity},,,,,,,,,,,,19,,
,,{ShowCabinet},,,,,,,,,,4,0,FALSE,,
,,{ShowTeachMask},,,,,,,,,,23,,,,
教學,Gin Yen,“Click <Foods> category.”,,,,,,,,,,GameUICanvas/MainAction/BuildCommodity/Panel/SetupCommodity/BuildSetupCommodity/,Type0,,,
,,{ShowTeachMask},,,,,,,,,,19,,,,
,,{EnableSetupCommodity},,,,,,,,,,0,0,,,
,,{ShowCabinet},,,,,,,,,,0,0,TRUE,,
教學,Gin Yen,“Click <Foods> category.”,,,,,,,,,,,,,,
,,{SetupCommodity},,,,,,,,,,,,2,,
,,{ShowCabinet},,,,,,,,,,0,0,FALSE,,
,,{ShowTeachMask},,,,,,,,,,20,,,,
教學,Gin Yen,“Click <Confirm>.”,,,,,,,,,,GameUICanvas/MainAction/BuildCommodity/Panel/SetupCommodity/BuildSetupCommodity/,OKBtn,,,
,,{ClearTeachMask},,,,,,,,,,,,,,
,,{MoveTeach},,,,,,,,,,0,0,,,
教學,Gin Yen,“We've got Foods and Drinks. It's time to develop Groceries!”,,,,,,,,,,,,,,
