﻿0.對話方式,1.角色名稱,2.台詞,3.角色起點,4.角色終點,5.行走時間,6.角色表情,7.表情符號,8.服裝,9.淡入,10.特寫,11,12.事件參數1,13.事件參數2,14.事件參數3,15.事件參數4,16.事件參數5
,,{CreateBackground},,,,,,,,,,Store,,,,
,,{PlayBGM},,,,,,,,,,bgm_days01,0.5,,,
,,{Wait},,,,,,,,,,0.5,,,,
對話,Gin Yen,“Manager? Manager!”,0,,,5,,半制服,TRUE,,,,,,,
對話,Gin Yen,“Weird. Where did he go?”,0,,,12,問號,半制服,,,,,,,,
對話,Gin Yen,“Is he loafing again in the office?”,0,,,2,,半制服,,,,,,,,
對話,Gin Yen,“Seriously* I have to give him a good lesson!”,0,,,2,生氣,半制服,,,,,,,,
,,{Wait},,,,,,,,,,0.5,,,,
,,{DeleteAllActor},,,,,,,,,,,,,,
,,{CreateBackground},,,,,,,,,,Black,,,,
,,{Loading},,,,,,,,,,1.5,1.5,1,,
,,{CreateBackground},,,,,,,,,,OfficeA1,,,,
,,{Wait},,,,,,,,,,0.5,,,,
對話,Gin Yen,““Manager!”,0,,,2,,半制服,TRUE,,,,,,,
對話,Gin Yen,“…….Strange* why is no one here?”,0,,,5,問號,半制服,,,,,,,,
,,{PlayEffect},,,,,,,,,,se_putdown02,FALSE,,,
對話,Gin Yen,“There's only a wired* opened package on the table.”,0,,,5,,半制服,,,,,,,,
對話,Gin Yen,“Seriously…..what did he buy? He opened the box and just left it here…..”,0,,,2,汗顏,半制服,,,,,,,,
對話,Gin Yen,“This* this is!”,0,,,8,,半制服,,,,,,,,
,,{PlayEffect},,,,,,,,,,BAIBU_04s,FALSE,,,
對話,Gin Yen,“This is the sex toy Dom mentioned 'The Electric Vibrator'!?”,0,,,11,驚嘆號,半制服,TRUE,TRUE,,,,,,
對話,Gin Yen,“Hum…..He's again planning something for me* that pervert!”,0,,,7,生氣,半制服,,TRUE,,,,,,
對話,Gin Yen,“…………”,0,,,7,,半制服,,TRUE,,,,,,
對話,Gin Yen,“……But how to one use this thing?”,0,,,11,問號,半制服,,TRUE,,,,,,
,,{Wait},,,,,,,,,,0.5,,,,
,,{DeleteAllActor},,,,,,,,,,,,,,
,,{CreateBackground},,,,,,,,,,Black,,,,
,,{Loading},,,,,,,,,,1.5,1.5,1,,
,,{CreateBackground},,,,,,,,,,Store,,,,
,,{Wait},,,,,,,,,,0.5,,,,
對話,Manager,“Phew* so tiring.”,-1,,,5,汗顏,制服,TRUE,,,,,,,
對話,Manager,"""I have to make an urgent delivery on such a hot day. This reminded me of my days as a mercenary in the desert...""",-1,,,5,,制服,,,,,,,,
對話,Manager,“Luckily* the delivery fee is generous. I get a good earning.”,-1,,,4,開心,制服,,,,,,,,
對話,Manager,“By the way* where's Gin again? She took quite some time even if it's in the restrooms?”,-1,,,1,,制服,,,,,,,,
,,{Wait},,,,,,,,,,0.5,,,,
,,{DeleteAllActor},,,,,,,,,,,,,,
,,{CreateBackground},,,,,,,,,,Black,,,,
,,{FadeBGM},,,,,,,,,,0,1,,,
,,{Loading},,,,,,,,,,1.5,1.5,1,,
,,{PlayBGM},,,,,,,,,,bgm_sexy01,0.5,,,
,,{CreateBackground},,,,,,,,,,OfficeA1,,,,
,,{Wait},,,,,,,,,,0.5,,,,
,,{PlayEffect},,,,,,,,,,se_doorop,FALSE,,,
旁白,,“When I reached the door* I saw it half open* and heard a young girl's moans.,,,,,,,,,,,,,,
對話,Manager,“Strange* is my computer playing pornhub?”,0,,,6,問號,制服,TRUE,TRUE,,,,,,
對話,Manager,“No* I didn't even watch it today! That's for late-night activities.”,0,,,6,,制服,,TRUE,,,,,,
,,{Wait},,,,,,,,,,0.5,,,,
,,{DeleteAllActor},,,,,,,,,,,,,,
旁白,,I quickly look for the source of this sound.,,,,,,,,,,,,,,
,,{Wait},,,,,,,,,,0.5,,,,
,,{CreateBackground},,,,,,,,,,Black,,,,
,,{CreatePicture},,,,,,,,,,0,A3,WuJing_H3_001,,
,,{Wait},,,,,,,,,,0.5,,,,
,,{PlayHEffect},,,,,,,,,,BAIBU_04s,TRUE,,,
旁白,,I found someone lying on the bed that's on the corner of the office; the bed usually helps me sleep during night shifts.,,,,,,,,,,,,,,
旁白,,I saw Gin openly holding a vibrating thing shaped like a stick.,,,,,,,,,,,,,,
旁白,,That electric stick thing is against her intime area and her mouth is leaking out obscene moaning sounds-----,,,,,,,,,,,,,,
對話,Gin Yen,“Aah aah aah…….uhmm……”,,,,,,,,,,,,,,
,,{Flash},,,,,,,,,,,,,,
對話,Gin Yen,“It's so strong* so strong aaah……uh uuh!”,,,,,,,,,,,,,,
旁白,,Isn't that the special priced electric vibrator she's holding (for pure massage only) that I struggled to buy online!,,,,,,,,,,,,,,
對話,Gin Yen,“Why this thing can….yah aah! So good!”,,,,,,,,,,,,,,
,,{Wait},,,,,,,,,,0.5,,,,
,,{DeletePicture},,,,,,,,,,,,,,
,,{CreateBackground},,,,,,,,,,OfficeA1,,,,
對話,Manager,“Gin Yen! What on Earth are you doing in this holy office?”,-1,,,2,,制服,TRUE,TRUE,,,,,,
,,{Wait},,,,,,,,,,1,,,,
,,{StopEffect},,,,,,,,,,BAIBU_04s,,,,
,,{CreateBackground},,,,,,,,,,Black,,,,
,,{FadeBGM},,,,,,,,,,0,1,,,
,,{Loading},,,,,,,,,,1.5,1.5,1,,
,,{PlayBGM},,,,,,,,,,bgm_joke01,0.5,,,
,,{CreateBackground},,,,,,,,,,OfficeA1,,,,
,,{Wait},,,,,,,,,,0.5,,,,
,,{Shake},,,,,,,,,,,,,,
對話,Gin Yen,“Eeek-----!”,450,,,8,驚嘆號,半制服,TRUE,,,,,,,
,Manager,{CreateActor},-450,,,2,,制服,TRUE,,,,,,,
對話,Gin Yen,“This this is……”,450,,,10,汗顏,半制服,,,,,,,,
旁白,,After noticing me* Gin closed her legs in panic* wanting to run away.,,,,,,,,,,,,,,
,Gin Yen,{MoveActor},450,600,0.5,10,,半制服,,,,,,,,
旁白,,However* she seems to have forgotten the vibrator between her legs* so she fell down.,,,,,,,,,,,,,,
對話,Gin Yen,“Yah aah!”,600,,,10,驚嘆號,半制服,,,,,,,,
,,{DeleteActor},,,,,,,,,,Gin Yen,,,,
,,{PlayEffect},,,,,,,,,,se_faint,FALSE,,,
,Manager,{MoveActor},-450,-150,0.5,2,,制服,,,,,,,,
旁白,,I used this chance to make a big step forward* and caught Gin abruptly.,,,,,,,,,,,,,,
,,{PlayEffect},,,,,,,,,,se_putdown02,FALSE,,,
,,{Wait},,,,,,,,,,0.5,,,,
,,{DeleteAllActor},,,,,,,,,,,,,,
,Manager,{CreateActor},-450,,,2,,制服,TRUE,,,,,,,
對話,Gin Yen,“What are you doing* pervert!”,450,,,2,生氣,半制服,TRUE,,,,,,,
對話,Manager,“What are you saying? You dared to open someone else's parcel! This is the punishment you deserve!”,-450,,,2,,制服,,,,,,,,
對話,Gin Yen,“I* I* I didn't open it! I was just checking if you* you ordered any products that's against the kind culture!”,450,,,10,汗顏,半制服,,,,,,,,
對話,Manager,“Oh-----really?”,-450,,,1,,制服,,,,,,,,
對話,Manager,“Then tell me* is this thing against the kind culture?”,-450,,,1,,制服,,,,,,,,
,,{PlayEffect},,,,,,,,,,BAIBU_04s,FALSE,,,
旁白,,While speaking* the vibrator on the floor is still vibrating.,,,,,,,,,,,,,,
對話,Gin Yen,“Of course! This is clearly that…….for doing……”,450,550,0.5,11,汗顏,半制服,,,,,,,,
對話,Manager,“What are you saying? What's the problem with this 'Muscle Vibrator'?”,-450,,,1,,制服,,,,,,,,
對話,Gin Yen,“Muscle…..vibrator?”,550,,,5,汗顏,半制服,,,,,,,,
對話,Manager,“Yes. Nowadays I've been feeling muscle pain. I need to take physiotherapy sessions in an effort to fix it……”,-450,,,1,,制服,,,,,,,,
對話,Manager,“Don't tell me you took it as a sex toy?”,-450,,,7,無言,制服,,,,,,,,
對話,Gin Yen,“Uh!”,550,,,8,玻璃心,半制服,,,,,,,,
,,{StopEffect},,,,,,,,,,BAIBU_04s,,,,
對話,Manager,“It seems I was spot on.”,-450,,,4,,制服,,,,,,,,
,,{PlayEffect},,,,,,,,,,se_page,FALSE,,,
旁白,,I walk to the desk* and take out a piece of paper fron the drawer. It's swaying like a paper fan.,,,,,,,,,,,,,,
旁白,,This is the employment contract that I made Gin sign when she applied for the job.,,,,,,,,,,,,,,
對話,Manager,“How troublesome. A bad worker opening other people's parcels. Should I fire her?”,-450,,,8,,制服,,,,,,,,
對話,Gin Yen,“No! How could you…..”,550,,,12,,半制服,,,,,,,,
對話,Gin Yen,“I'm sorry for touching your parcel. I really need this job* please forgive* please!”,550,,,3,,半制服,,,,,,,,
對話,Manager,“As per this signed contract it is an included punishment rule…..”,-450,,,8,,制服,,,,,,,,
,,{PlayEffect},,,,,,,,,,se_poipoi,FALSE,,,
對話,Manager,“You must face SEX penalty when there's a major transgression.”,-450,,,7,,制服,,,,,,,,
對話,Gin Yen,“SE…..SEX? SEX means…..”,550,,,8,驚嘆號,半制服,,,,,,,,
,,{PlayEffect},,,,,,,,,,se_poipoi,FALSE,,,
對話,Manager,“It's to fuck* to have sex* to get laid. The official name is sexual intercourse.”,-450,,,7,,制服,,,,,,,,
,,{Shake},,,,,,,,,,,,,,
對話,Gin Yen,“Sexual…..Intercourse!”,550,,,10,驚嘆號,半制服,,,,,,,,
對話,Gin Yen,“You perverted Manager! You're lying to me with such a forged contract!”,550,,,2,生氣,半制服,,,,,,,,
對話,Manager,“Don't accuse me! Read it! The contents on this contract was all checked before you signed it.”,-450,,,7,,制服,,,,,,,,
旁白,,Any reasonable individual would decline such an excessive and ridiculous request right away.,,,,,,,,,,,,,,
旁白,,However* Gin only lowered her head.,,,,,,,,,,,,,,
旁白,,After hesitating for a moment* she squeezed a weak air sound from her throat.,,,,,,,,,,,,,,
對話,Gin Yen,“Boowoo…..”,550,,,3,,半制服,,,,,,,,
對話,Gin Yen,“I….I got it. Let me first get mentally ready…..”,550,,,11,,半制服,,,,,,,,
,,{FadeBGM},,,,,,,,,,0,1,,,
,,{Wait},,,,,,,,,,0.5,,,,
,,{PlayBGM},,,,,,,,,,bgm_sexy01,0.5,,,
,,{Wait},,,,,,,,,,0.5,,,,
對話,Manager,“Are you serious* Gin?”,-450,,,5,驚嘆號,制服,,,,,,,,
對話,Manager,“Even if it's the rules of the contract* it's not like you can't change it.”,-450,,,5,,制服,,,,,,,,
1,Gin Yen,“You don't need to speak further* rules are rules* I will follow them…..”,550,,,11,無言,半制服,,,,,,,,
旁白,,Gin's reaction kind of surprised me.,,,,,,,,,,,,,,
旁白,,Why did she accept the offer herself so simply this time?,,,,,,,,,,,,,,
旁白,,In addition to everything that has occurred in the past* there is certainly a hidden motive.....,,,,,,,,,,,,,,
,,{Wait},,,,,,,,,,0.5,,,,
,,{DeleteAllActor},,,,,,,,,,,,,,
,,{CreateBackground},,,,,,,,,,Black,,,,
,,{CreatePicture},,,,,,,,,,0,A3,WuJing_H3_001,,
旁白,,Gin was already lying on the bed* both legs open* waiting for me to put it in.,,,,,,,,,,,,,,
旁白,,She's trembling from nervousness* her face is flushed* and her pants still bear the scars of her previous excitement.,,,,,,,,,,,,,,
旁白,,If I act like an animal and don't keep going* I'm not even worth it.,,,,,,,,,,,,,,
2,Gin Yen,“Indeed…..”,,,,,,,,,,,,,,
3,Gin Yen,“Indeed….I should take my clothes off first….right?”,,,,,,,,,,,,,,
對話,Manager,“Leave them all to me.”,,,,,,,,,,,,,,
對話,Manager,“You just relax. Don't care about other things.”,,,,,,,,,,,,,,
,,{PlayEffect},,,,,,,,,,se_cloth,FALSE,,,
旁白,,I quickly took off my clothes* and threw them aside.,,,,,,,,,,,,,,
旁白,,Gin is 90% a virgin with no experience.,,,,,,,,,,,,,,
旁白,,Can I really do it? The guilt in my heart starts to build up.,,,,,,,,,,,,,,
旁白,,But my lower body already betrayed my thoughts. It's arrogantly raising its head declaring that I should do whatever I want.,,,,,,,,,,,,,,
,,{CreatePicture},,,,,,,,,,0,A3,WuJing_H3_002,,
4,Gin Yen,“So…..so big…..”,,,,,,,,,,,,,,
對話,Manager,“Didn't you already see it many times? Do you still have to be surprised?”,,,,,,,,,,,,,,
5,Gin Yen,“I'm not seeing it everyday!”,,,,,,,,,,,,,,
6,Gin Yen,“And….Isn't it bigger than before?”,,,,,,,,,,,,,,
對話,Manager,“That's right* it's because your body is so excited.”,,,,,,,,,,,,,,
7,Gin Yen,“Goo…..”,,,,,,,,,,,,,,
對話,Manager,“You look nervous* Gin.”,,,,,,,,,,,,,,
對話,Manager,“I have a way that can help you relax”,,,,,,,,,,,,,,
8,Gin Yen,“What…..what is it?”,,,,,,,,,,,,,,
對話,Manager,“You just need to say: 'My pussy is here* please come in my horny pussy!' and then open your pussy with your hands.”,,,,,,,,,,,,,,
對話,Manager,“This is a magical spell that can relieve the nervousness during sex. It's really effective. All the girls who tried it praised it.”,,,,,,,,,,,,,,
9,Gin Yen,“How* how is there such a spell? Stop with your bullshit…..”,,,,,,,,,,,,,,
對話,Manager,“You can just take it as if I'm lying to you but* it doesn't cost you to try saying it.”,,,,,,,,,,,,,,
10,Gin Yen,“Uh…..it's already so embarrassing. How is that not costing me?!”,,,,,,,,,,,,,,
旁白,,After some time of argument* Gin finally regained her moving ability.,,,,,,,,,,,,,,
,,{CreatePicture},,,,,,,,,,0,A3,WuJing_H3_003,,
旁白,,Gin slowly move her thin fingers to open her panties* then use her fingertips to open that fresh and sexy abalone.,,,,,,,,,,,,,,
旁白,,As she's just used my vibrator to pleassure herself* when she opened her pussy a shiny silver wire got pulled out.,,,,,,,,,,,,,,
11,Gin Yen,“Boowoo…..”,,,,,,,,,,,,,,
12,Gin Yen,“Well* here…..it's here* please come in my pussy…..”,,,,,,,,,,,,,,
旁白,,Hearing Gin* and seeing such a beautiful scene* I'm was about to loose my mind.,,,,,,,,,,,,,,
對話,Manager,“It's 'Please come in my horny pussy'!”,,,,,,,,,,,,,,
13,Gin Yen,“Please* please come in my horny pussy!”,,,,,,,,,,,,,,
旁白,,I put my penis against Gin's fresh pussy.,,,,,,,,,,,,,,
旁白,,A sticky wet touch comes from my glans* it looks it's a high enough moisture level.,,,,,,,,,,,,,,
對話,Manager,“Gin* I'm coming in!”,,,,,,,,,,,,,,
旁白,,I slightly straighten my waist letting my glans into her pussy.,,,,,,,,,,,,,,
,,{PlayHEffect},,,,,,,,,,SEX_S_12s,TRUE,,,
,,{CreatePicture},,,,,,,,,,0,A3,WuJing_H3_004,,
旁白,,Soon enough* my glans touched a light and weak layer menbrane which was trying to stop me from going further.,,,,,,,,,,,,,,
旁白,,To someone like me who just wants to go all the way in* this little obstacle is really too weak.,,,,,,,,,,,,,,
旁白,,I just need to straighten my back slightly* and my cock directly went deep inside.,,,,,,,,,,,,,,
,,{StopEffect},,,,,,,,,,SEX_S_12s,,,,
14,Gin Yen,“Uh uh!”,,,,,,,,,,,,,,
15,Gin Yen,“So….so painful…..it hurts……”,,,,,,,,,,,,,,
對話,Manager,“Try to relax your muscles. Take a deep breath.”,,,,,,,,,,,,,,
對話,Manager,“Let me know when you don't feel that much pain* and I'll continue.”,,,,,,,,,,,,,,
旁白,,I stare at Gin's teary eyes. Making sure of her this is what she wants.,,,,,,,,,,,,,,
16,Gin Yen,“Sss* inhale…….hu……..”,,,,,,,,,,,,,,
17,Gin Yen,“Ah…..it seems* it seems not so……painful……”,,,,,,,,,,,,,,
18,Gin Yen,“I…..I can afford it* keep…..keep going……”,,,,,,,,,,,,,,
對話,Manager,“……Ok* I'll keep going then.”,,,,,,,,,,,,,,
旁白,,I still don't know why Gin is insisting so much.,,,,,,,,,,,,,,
旁白,,But we are already here* there's not any reasons to stop.,,,,,,,,,,,,,,
旁白,,I put my cock back in Gin's wet pussy again.,,,,,,,,,,,,,,
,,{PlayHEffect},,,,,,,,,,SEX_S_12s,TRUE,,,
旁白,,The walls filled with wrinkles completely covered my cock* warm and soft* serving my cock so comfortably.,,,,,,,,,,,,,,
19,Gin Yen,“Uuuh* hmm! It's in* it's in again……”,,,,,,,,,,,,,,
20,Gin Yen,“But…..it's not…..less painful…..than earlier……it's better……”,,,,,,,,,,,,,,
對話,Manager,“I really can't do something to you. I'll make you feel much better.”,,,,,,,,,,,,,,
旁白,,With that* I put my hands on Gin's huge boobs* and ruthlessly rub that pair of soft fruit.,,,,,,,,,,,,,,
旁白,,At the same time* I don't forget to tease Gin's seducing pinky nipples with my fingers.,,,,,,,,,,,,,,
旁白,,When my nails wipes past her nipples Gin seems to not being able to affording the excitement and arches her waist.,,,,,,,,,,,,,,
21,Gin Yen,“Yah aah----! Don't go there!”,,,,,,,,,,,,,,
對話,Manager,“Really? I didn't know your nipples were so sensitive? That's different from Sister.”,,,,,,,,,,,,,,
22,Gin Yen,“Not at all….you…..hmm! Bad boy……”,,,,,,,,,,,,,,
,,{StopEffect},,,,,,,,,,SEX_S_12s,,,,
,,{PlayHEffect},,,,,,,,,,FE_M_06s,TRUE,,,
旁白,,I'm latching onto Gin's nipples* sucking loud like a greedy big baby.,,,,,,,,,,,,,,
旁白,,Gin's low resistance is blocked by my actions. She can only get out a very controlled moaning sound from her lips.,,,,,,,,,,,,,,
旁白,,As I kissed Gin's neck* I also blew some air on her ears.,,,,,,,,,,,,,,
,,{StopEffect},,,,,,,,,,FE_M_06s,,,,
對話,Manager,“We can't keep taking it slow like this. I'm about to increase the speed now.”,,,,,,,,,,,,,,
23,Gin Yen,“Goo…..no* slowly…..uuh…..”,,,,,,,,,,,,,,
對話,Manager,“The more you want to control your screams* the harder I'll go.”,,,,,,,,,,,,,,
24,Gin Yen,“Why* why do you do this…..uh! Suddenly pokeing inside me like this uuh!”,,,,,,,,,,,,,,
對話,Manager,“Let me show you my real deal now. I promise you'll be in ecstasy.”,,,,,,,,,,,,,,
,,{CreatePicture},,,,,,,,,,0,A3,WuJing_H3_005,,
,,{PlayHEffect},,,,,,,,,,SEX_M_12s,TRUE,,,
旁白,,With the moisture of our body liquid I start to thrust my penis harder.,,,,,,,,,,,,,,
25,Gin Yen,“Ah yah ah! Ah uh* yah aaah!”,,,,,,,,,,,,,,
26,Gin Yen,“No! I uh* my body uhm* Manager* ah yah ahm! You'll break it!”,,,,,,,,,,,,,,
對話,Manager,“How can I allow myself to break you? You fool.”,,,,,,,,,,,,,,
27,Gin Yen,“But* Manager your* big thing* keeps staying inside me!”,,,,,,,,,,,,,,
28,Gin Yen,“Yaah* it's inside me* ah yah hm! Hitting everywhere!”,,,,,,,,,,,,,,
旁白,,Gin's pussy keeps squeezing my penis as if it wants to stop me from entering once more.,,,,,,,,,,,,,,
旁白,,However* when my cock gets out of her pussy* her pussy walls keep sucking it back as if they don't want me to leave.,,,,,,,,,,,,,,
29,Gin Yen,“That's so intense* Dom! Please* uh eeek* slow down!”,,,,,,,,,,,,,,
30,Gin Yen,“It will break….it'll break! My body will break!”,,,,,,,,,,,,,,
對話,Manager,“I can't help it. Your pussy is so good.”,,,,,,,,,,,,,,
31,Gin Yen,“This* uuh* this is not* hm yah ah! What I want!”,,,,,,,,,,,,,,
,,{StopEffect},,,,,,,,,,SEX_M_12s,,,,
,,{PlayHEffect},,,,,,,,,,SEX_B_15s,TRUE,,,
旁白,,Splurt* splurt……..there are erotic sounds coming from our intimate areas.,,,,,,,,,,,,,,
旁白,,And this sound plus Gin's moanings became the best aphrodisiac* pushing me to give it much harder to Gin.,,,,,,,,,,,,,,
32,Gin Yen,“Why* my body is* so hot! It's so hot in my pussy. It keeps going in and out-----!”,,,,,,,,,,,,,,
對話,Manager,“Do you want to tell me what you think about sex* Gin? What's your experience with my cock?”,,,,,,,,,,,,,,
33,Gin Yen,“I don't know* I don't know! Boowoo* goo! I don't know anything uh yaah!”,,,,,,,,,,,,,,
對話,Manager,“Hm? Your answers are not so clear. Huh* I push harder!”,,,,,,,,,,,,,,
34,Gin Yen,“Aah----! I* hm aah! Your cock* your cock hm yaah---!”,,,,,,,,,,,,,,
旁白,,Under my hard strikes* Gin is already so good that she can't anymore form a correct sentence.,,,,,,,,,,,,,,
旁白,,Having sex with Gin is really so good it is making me throw aside the leftover thought of cherishing her like how I threw my clothes before.,,,,,,,,,,,,,,
旁白,,I uncontrollably kiss Gin's lips to temporarily block her unclear moaning.,,,,,,,,,,,,,,
,,{StopEffect},,,,,,,,,,SEX_B_15s,,,,
35,Gin Yen,“Uhmm* hm uh uh!”,,,,,,,,,,,,,,
36,Gin Yen,“Chirp uhm…..uhm…..tsk chirp tsk…..”,,,,,,,,,,,,,,
37,Gin Yen,“Gulg……uh uh……tsk hm…..chirp hmm…..”,,,,,,,,,,,,,,
旁白,,I keep exploring Gin's mouth with my tongue all while she's weakly grabbing my back to show resistance.,,,,,,,,,,,,,,
38,Gin Yen,“Tsk….uugh! Uuh!”,,,,,,,,,,,,,,
旁白,,Gin's gaze is blurry* her eyes teary* she's panting with a petty poor and weak look.,,,,,,,,,,,,,,
對話,Manager,“You're amazing* Gin…..fucking you is so good.”,,,,,,,,,,,,,,
39,Gin Yen,“Uuh…..”,,,,,,,,,,,,,,
40,Gin Yen,“……Stupid* I also* uuh……”,,,,,,,,,,,,,,
旁白,,I kissed Gin again.,,,,,,,,,,,,,,
,,{PlayHEffect},,,,,,,,,,SEX_B_15s,TRUE,,,
旁白,,As Gin and my tongues are ravelling each other* my cock doesn't forget to strike harder.,,,,,,,,,,,,,,
旁白,,An eletrocuted feeling goes along my glans* penis and spine* all the way until my brain.,,,,,,,,,,,,,,
旁白,,I'm dazing in and out of consciousness while my body is still instinctively pushing hard.,,,,,,,,,,,,,,
旁白,,Finally* my penis starts pulsing intensively* it's at the peak of sexual pleasure.,,,,,,,,,,,,,,
41,Gin Yen,“Yah aah! It feels* weird* I'm* I'm cumming!”,,,,,,,,,,,,,,
42,Gin Yen,“Cumming* cumming* cumming! Dom I'm cumming-----!”,,,,,,,,,,,,,,
對話,Manager,“I'm also cumming* Gin!”,,,,,,,,,,,,,,
43,Gin Yen,“Aah* you're cumming* cum inside* it's fine* cum inside!”,,,,,,,,,,,,,,
44,Gin Yen,“I want to feel you* more and more! So* yah hm! Cum all in----!”,,,,,,,,,,,,,,
對話,Manager,Take this!”,,,,,,,,,,,,,,
,,{StopEffect},,,,,,,,,,SEX_B_15s,,,,
,,{Flash},,,,,,,,,,,,,,
,,{PlayHEffect},,,,,,,,,,SYASEI_4s,FALSE,,,
,,{Wait},,,,,,,,,,0.5,,,,
,,{Flash},,,,,,,,,,,,,,
,,{CreatePicture},,,,,,,,,,0,A3,WuJing_H3_006,,
45,Gin Yen,“Yah aaaah----!”,,,,,,,,,,,,,,
46,Gin Yen,“It's in! The hot thing is all-----in my pussy!”,,,,,,,,,,,,,,
,,{PlayHEffect},,,,,,,,,,SYASEI_4s,FALSE,,,
47,Gin Yen,“I can't* I can't I can't! It's so good! I'm going crazy aaah----!”,,,,,,,,,,,,,,
,,{Flash},,,,,,,,,,,,,,
,,{Wait},,,,,,,,,,0.5,,,,
,,{Flash},,,,,,,,,,,,,,
旁白,,Gin's pussy is using the leftover force to squeeze my penis.,,,,,,,,,,,,,,
,,{PlayHEffect},,,,,,,,,,SYASEI_2s,FALSE,,,
旁白,,The strong contraction makes me uncontrollably continue ejaculating.,,,,,,,,,,,,,,
旁白,,Time goes by really slow* as if my consciousness is still immersed in the pleasure of earlier.,,,,,,,,,,,,,,
,,{CreatePicture},,,,,,,,,,0,A3,WuJing_H3_007,,
旁白,,After a while* I pulled my penis out of Gin's pussy as if I went through a big war.,,,,,,,,,,,,,,
48,Gin Yen,“Ha ah* ha aaah…..aah…….”,,,,,,,,,,,,,,
49,Gin Yen,“So hot…..my body is also* there's still…..I'm…..”,,,,,,,,,,,,,,
50,Gin Yen,“…..hot thing* is still* leaking out…..ha aah…..”,,,,,,,,,,,,,,
旁白,,Gin* who just turned into a woman* is completely exhausted and fallen on the fround. Only her big boobs are slightly moving.,,,,,,,,,,,,,,
旁白,,After relaxing for a bit* Gin finally opened her mouth as if she recovered her mind.,,,,,,,,,,,,,,
51,Gin Yen,“……I didn't expect* I really…..did it…..”,,,,,,,,,,,,,,
52,Gin Yen,“…..Everything is* like* a dream……like that…..”,,,,,,,,,,,,,,
對話,Manager,“Seeing your reaction* my performance seems to have been good* Gin.”,,,,,,,,,,,,,,
53,Gin Yen,“Hum* stop being so proud of yourself! I was forced to give myself to you!”,,,,,,,,,,,,,,
對話,Manager,“Ok ok.”,,,,,,,,,,,,,,
對話,Manager,“Of course* you were good as well. You looked like you were enjoying yourself~~~”,,,,,,,,,,,,,,
54,Gin Yen,“No* I wasn't! How can I enjoy it* you had it all wrong!”,,,,,,,,,,,,,,
對話,Manager,“But you were so pleased that you even called my full name* you haven't done that for a long time.”,,,,,,,,,,,,,,
55,Gin Yen,“That* that was…..”,,,,,,,,,,,,,,
56,Gin Yen,“You misheard it! You stupid perverted man!”,,,,,,,,,,,,,,
旁白,,Although I want to pretend i didnt heard it* but seeing Gin's embarrassed look* and feeling her breaths and temperature.,,,,,,,,,,,,,,
旁白,,She really looks so pitiful.,,,,,,,,,,,,,,
旁白,,Eventually* I hugged Gin in my arms.,,,,,,,,,,,,,,
,,{Wait},,,,,,,,,,1,,,,
