%YAML 1.1
%TAG !u! tag:unity3d.com,2011:
--- !u!74 &7400000
AnimationClip:
  m_ObjectHideFlags: 0
  m_CorrespondingSourceObject: {fileID: 0}
  m_PrefabInstance: {fileID: 0}
  m_PrefabAsset: {fileID: 0}
  m_Name: Work2
  serializedVersion: 6
  m_Legacy: 0
  m_Compressed: 0
  m_UseHighQualityCurve: 1
  m_RotationCurves: []
  m_CompressedRotationCurves: []
  m_EulerCurves: []
  m_PositionCurves: []
  m_ScaleCurves: []
  m_FloatCurves: []
  m_PPtrCurves:
  - curve:
    - time: 0
      value: {fileID: 8271145023213463428, guid: 91e40514aee8b4f4e923ca4919443d50,
        type: 3}
    - time: 0.083333336
      value: {fileID: 6191182197692796821, guid: 91e40514aee8b4f4e923ca4919443d50,
        type: 3}
    - time: 0.16666667
      value: {fileID: 1165961542806184976, guid: 91e40514aee8b4f4e923ca4919443d50,
        type: 3}
    - time: 0.25
      value: {fileID: 5838455944412590171, guid: 91e40514aee8b4f4e923ca4919443d50,
        type: 3}
    - time: 0.33333334
      value: {fileID: 6588073887919181642, guid: 91e40514aee8b4f4e923ca4919443d50,
        type: 3}
    - time: 0.41666666
      value: {fileID: -2678948338216547100, guid: 91e40514aee8b4f4e923ca4919443d50,
        type: 3}
    - time: 0.5
      value: {fileID: -2624611109114398608, guid: 91e40514aee8b4f4e923ca4919443d50,
        type: 3}
    - time: 0.5833333
      value: {fileID: 8068084019651374245, guid: 91e40514aee8b4f4e923ca4919443d50,
        type: 3}
    attribute: m_Sprite
    path: 
    classID: 212
    script: {fileID: 0}
  m_SampleRate: 12
  m_WrapMode: 0
  m_Bounds:
    m_Center: {x: 0, y: 0, z: 0}
    m_Extent: {x: 0, y: 0, z: 0}
  m_ClipBindingConstant:
    genericBindings:
    - serializedVersion: 2
      path: 0
      attribute: 0
      script: {fileID: 0}
      typeID: 212
      customType: 23
      isPPtrCurve: 1
    pptrCurveMapping:
    - {fileID: 8271145023213463428, guid: 91e40514aee8b4f4e923ca4919443d50, type: 3}
    - {fileID: 6191182197692796821, guid: 91e40514aee8b4f4e923ca4919443d50, type: 3}
    - {fileID: 1165961542806184976, guid: 91e40514aee8b4f4e923ca4919443d50, type: 3}
    - {fileID: 5838455944412590171, guid: 91e40514aee8b4f4e923ca4919443d50, type: 3}
    - {fileID: 6588073887919181642, guid: 91e40514aee8b4f4e923ca4919443d50, type: 3}
    - {fileID: -2678948338216547100, guid: 91e40514aee8b4f4e923ca4919443d50, type: 3}
    - {fileID: -2624611109114398608, guid: 91e40514aee8b4f4e923ca4919443d50, type: 3}
    - {fileID: 8068084019651374245, guid: 91e40514aee8b4f4e923ca4919443d50, type: 3}
  m_AnimationClipSettings:
    serializedVersion: 2
    m_AdditiveReferencePoseClip: {fileID: 0}
    m_AdditiveReferencePoseTime: 0
    m_StartTime: 0
    m_StopTime: 0.6666666
    m_OrientationOffsetY: 0
    m_Level: 0
    m_CycleOffset: 0
    m_HasAdditiveReferencePose: 0
    m_LoopTime: 1
    m_LoopBlend: 0
    m_LoopBlendOrientation: 0
    m_LoopBlendPositionY: 0
    m_LoopBlendPositionXZ: 0
    m_KeepOriginalOrientation: 0
    m_KeepOriginalPositionY: 1
    m_KeepOriginalPositionXZ: 0
    m_HeightFromFeet: 0
    m_Mirror: 0
  m_EditorCurves: []
  m_EulerEditorCurves: []
  m_HasGenericRootTransform: 0
  m_HasMotionFloatCurves: 0
  m_Events: []
