﻿0.對話方式,1.角色名稱,2.台詞,3.角色起點,4.角色終點,5.行走時間,6.角色表情,7.表情符號,8.服裝,9.淡入,10.特寫,11,12.事件參數1,13.事件參數2,14.事件參數3,15.事件參數4,16.事件參數5
,,{CreateBackground},,,,,,,,,,Store,,,,
,,{PlayBGM},,,,,,,,,,bgm_unstable,0.5,,,
,,{Wait},,,,,,,,,,0.5,,,,
,,{PlayEffect},,,,,,,,,,se_bell,FALSE,,,
,,{Wait},,,,,,,,,,1,,,,
,,{PlayEffect},,,,,,,,,,se_walk,FALSE,,,
對話,Man,“Heeeeeyyyyy! What's with this oden? It's inedible!”,900,450,0.5,EX09,驚嘆號,,TRUE,,,,,,,
對話,Gin Yen,“What's wrong with your oden?”,-450,,,5,反問號,半制服,TRUE,,,,,,,
對話,Man,“The soup smells like pee! Did someone pee in it or what?”,450,,,EX09,,,,,,,,,,
對話,Gin Yen,“No! We are cautious with hygiene!”,-450,,,2,生氣,半制服,,,,,,,,
對話,Man,“I don't care! You wasted my money! If I get sick* I'll surely ask for compensation!”,450,,,EX09,,,,,,,,,,
,,{DeleteAllActor},,,,,,,,,,,,,,
心想,Gin Yen,(Boo….I think this is what Dom meant when he spoke about people trying to defraud stores.),0,,,2,,半制服,TRUE,TRUE,,,,,,
心想,Gin Yen,(I have to hold my ground!),0,,,2,,半制服,,TRUE,,,,,,
,,{DeleteAllActor},,,,,,,,,,,,,,
對話,Gin Yen,“Since you are so sure that our store has food problems* I'll have to call the police to deal with it.”,-450,,,2,生氣,半制服,TRUE,,,,,,,
對話,Man,“Dammit! You'll regret this! I'll expose you on Facebook!”,450,,,EX09,無言,,TRUE,,,,,,,
,,{PlayEffect},,,,,,,,,,se_run,FALSE,,,
,Man,{MoveActor},450,900,0.5,EX09,,服裝,,,,,,,,
,,{DeleteActor},,,,,,,,,,痞子,,,,
,,{Wait},,,,,,,,,,1.5,,,,
對話,Gin Yen,“Finally he's gone…..”,-450,,,12,無言,半制服,,,,,,,,
,,{Wait},,,,,,,,,,1.5,,,,
,,{DeleteAllActor},,,,,,,,,,,,,,
