﻿0.對話方式,1.角色名稱,2.台詞,3.角色起點,4.角色終點,5.行走時間,6.角色表情,7.表情符號,8.服裝,9.淡入,10.特寫,11,12.事件參數1,13.事件參數2,14.事件參數3,15.事件參數4,16.事件參數5
,,{CreateBackground},,,,,,,,,,Store,,,,
,,{PlayBGM},,,,,,,,,,bgm_unstable,0.5,,,
,,{Wait},,,,,,,,,,0.5,,,,
旁白,,This day* a lady was standing in front of the adult magazine booth* holding a sign saying ‘refuse sex abuse.’,,,,,,,,,,,,,,
對話,Lycianna Yeh,"""Hey* miss. You're causing us trouble by standing here with your sign.""",-450,,,1,,半制服,TRUE,,,,,,,
對話,Women,"""I represent the women against convenience store's who sell sex abuse items. I'll never give up.""",450,,,EX02,,,TRUE,,,,,,,
對話,Lycianna Yeh,“Sigh. Just tell me how much you need and save us some time.”,-450,,,15,,半制服,,,,,,,,
對話,Women,"""Seriously? Who do you think I am! I'll report this to the media and bring down this store!""",450,,,EX02,生氣,,,,,,,,,
,,{PlayEffect},,,,,,,,,,se_run,FALSE,,,
,Women,{MoveActor},450,900,0.5,EX02,生氣,,,,,,,,,
,,{DeleteActor},,,,,,,,,,女權人士,,,,
,,{Wait},,,,,,,,,,1,,,,
,,{PlayEffect},,,,,,,,,,se_bell,FALSE,,,
,,{Wait},,,,,,,,,,1,,,,
,,{DeleteAllActor},,,,,,,,,,,,,,
旁白,,After that incident* the store received some backlash from a group of people and the media. This affected the business badly.,,,,,,,,,,,,,,
,,{Wait},,,,,,,,,,1.5,,,,
,,{DeleteAllActor},,,,,,,,,,,,,,
