﻿0.對話方式,1.角色名稱,2.台詞,3.角色起點,4.角色終點,5.行走時間,6.角色表情,7.表情符號,8.服裝,9.淡入,10.特寫,11,12.事件參數1,13.事件參數2,14.事件參數3,15.事件參數4,16.事件參數5
,,{CreateBackground},,,,,,,,,,Store,,,,
,,{PlayBGM},,,,,,,,,,bgm_joke02,0.5,,,
,,{Wait},,,,,,,,,,0.5,,,,
對話,Lycianna Yeh,“Sir* your fingers got into the oden. You'll need to compensate with 50*000 Yuan for the damages.”,-450,,,6,,半制服,TRUE,,,,,,,
對話,Customer,“50*000 Yuan? Even if you throw out everything* it wouldn't cost that much!”,450,,,EX09,驚嘆號,,TRUE,,,,,,,
對話,Lycianna Yeh,“Because it's too hazardous and can influence the quality of the oden.We'll need to change to a completely new oden machine.”,-450,,,14,得意,半制服,,,,,,,,
對話,Customer,“……..”,450,,,EX09,無言,,,,,,,,,
,,{DeleteAllActor},,,,,,,,,,,,,,
旁白,,Before the new oden machine arrives* the revenue will be reduced.,,,,,,,,,,,,,,
,,{Wait},,,,,,,,,,1.5,,,,
,,{DeleteAllActor},,,,,,,,,,,,,,
