﻿0.對話方式,1.角色名稱,2.台詞,3.角色起點,4.角色終點,5.行走時間,6.角色表情,7.表情符號,8.服裝,9.淡入,10.特寫,11,12.事件參數1,13.事件參數2,14.事件參數3,15.事件參數4,16.事件參數5
,,{CreateBackground},,,,,,,,,,Store,,,,
,,{PlayBGM},,,,,,,,,,bgm_unstable,0.5,,,
,,{Wait},,,,,,,,,,0.5,,,,
,,{PlayEffect},,,,,,,,,,se_bell,FALSE,,,
,,{Wait},,,,,,,,,,1,,,,
,,{PlayEffect},,,,,,,,,,se_walk,FALSE,,,
對話,Customer,“I'm here to pick up my package.”,900,450,0.5,EX02,,,TRUE,,,,,,,
對話,Lycianna Yeh,“Hi. What's the last 3 digits of your phone number?”,-450,,,4,,半制服,TRUE,,,,,,,
對話,Customer,“I'm here on behalf of my boyfriend. I can't remember his phone number* is the name enough?”,450,,,EX02,,,,,,,,,,
對話,Customer,“Receiving a paid package shouldn't require the actual person? You can't find it this way? Do you actually know it or not?”,450,,,EX02,生氣,,,,,,,,,
對話,Lycianna Yeh,“You're right.Are you receiving a small package?”,-450,,,14,,半制服,,,,,,,,
對話,Customer,“……it's a big one.”,450,,,EX02,,,,,,,,,,
對話,Lycianna Yeh,“I'll find it right away!”,-450,,,14,開心,半制服,,,,,,,,
,,{DeleteAllActor},,,,,,,,,,,,,,
心想,Customer,(…..I swear I'm writing a bad review online when I get home!),1,,,EX02,生氣,,TRUE,TRUE,,,,,,
,,{Wait},,,,,,,,,,1.5,,,,
,,{DeleteAllActor},,,,,,,,,,,,,,
