﻿0.對話方式,1.角色名稱,2.台詞,3.角色起點,4.角色終點,5.行走時間,6.角色表情,7.表情符號,8.服裝,9.淡入,10.特寫,11,12.事件參數1,13.事件參數2,14.事件參數3,15.事件參數4,16.事件參數5
,,{CreateBackground},,,,,,,,,,OfficeA1,,,,
,,{PlayBGM},,,,,,,,,,bgm_days02,0.5,,,
,,{Wait},,,,,,,,,,0.5,,,,
對話,端木壹,「喔？終於送來了啊。」,-1,,,01,開心,制服,TRUE,,,,,,,
對話,端木壹,「新的飲料樣品喝起來會是什麼滋味呢*晚點再來確認吧。」,-1,,,08,,制服,,,,,,,,
旁白,,這間合作良好的廠商在開發了新產品後*偶爾會寄樣品過來問我的意見。,,,,,,,,,,,,,,
旁白,,試喝沒問題的話*我也會在正式上市時批貨來賣。,,,,,,,,,,,,,,
對話,端木壹,「長島冰茶Explosion……伏特加和龍舌蘭酒和琴酒的調酒啊*做成鋁罐裝。」,-1,,,08,,制服,,,,,,,,
對話,端木壹,「工作時間可不能亂喝酒*就等晚上看片的時候再喝好了。」,-1,,,07,,制服,,,,,,,,
,端木壹,{UpdateActor},-1,,,07,靈光一閃,制服,,,,,,,,
旁白,,為了避免被誤會我打算在辦公時間酗酒*我隨手找了個提神飲料的包裝箱*把這些調酒全放了進去。,,,,,,,,,,,,,,
旁白,,以為可以安心後*我就繼續去處理今天的業務。,,,,,,,,,,,,,,
,,{Wait},,,,,,,,,,0.5,,,,
,,{DeleteAllActor},,,,,,,,,,,,,,
,,{CreateBackground},,,,,,,,,,Black,,,,
旁白,,但這時的我*還不知道隨手無心的舉動*引發了意想不到的嚴重後果……就如同調酒的名稱一樣。,,,,,,,,,,,,,,
旁白,,Explosion.,,,,,,,,,,,,,,
,,{Wait},,,,,,,,,,0.5,,,,
,,{FadeBGM},,,,,,,,,,0,１,,,
,,{Loading},,,,,,,,,,1.5,1.5,1,,
,,{PlayBGM},,,,,,,,,,bgm_Heroine01,0.5,,,
,,{CreateBackground},,,,,,,,,,OfficeA1,,,,
,,{Wait},,,,,,,,,,0.5,,,,
,,{PlayEffect},,,,,,,,,,se_walk,FALSE,,,
對話,顏無菁,「唉……好累呀*頭腦昏沉沉的偏偏又要值夜班……」,0,,,12,汗顏,半制服,TRUE,,,,,,,
對話,顏無菁,「是不是喝個提神飲料比較好……」,0,,,12,汗顏,半制服,,,,,,,,
對話,顏無菁,「嗯*這是提神飲料？」,0,,,05,,半制服,,,,,,,,
,,{Wait},,,,,,,,,,0.5,,,,
,,{DeleteAllActor},,,,,,,,,,,,,,
,,{PlayEffect},,,,,,,,,,se_putdown02,FALSE,,,
對話,顏無菁,「長島冰茶Explosion……？好像有印象……又想不太起來……」,0,,,05,,半制服,TRUE,TRUE,,,,,,
對話,顏無菁,「這應該是阿壹自己的飲料吧……不管了*再不提神的話我會當場倒下去的。」,0,,,12,,半制服,,,,,,,,
,,{PlayEffect},,,,,,,,,,se_drink,FALSE,,,
對話,顏無菁,「咕嚕、咕嚕……」,0,,,01,,半制服,,,,,,,,
對話,顏無菁,「這罐提神飲料的味道有點奇妙*不過還蠻好喝的耶。」,0,,,04,,半制服,,,,,,,,
,,{PlayEffect},,,,,,,,,,se_good,FALSE,,,
對話,顏無菁,「好像有點上癮了……再開一瓶*再開一瓶就好。」,0,,,04,,半制服,,,,,,,,
,,{Wait},,,,,,,,,,0.5,,,,
,,{DeleteAllActor},,,,,,,,,,,,,,
,,{CreateBackground},,,,,,,,,,Black,,,,
,,{FadeBGM},,,,,,,,,,0,１,,,
,,{Loading},,,,,,,,,,1.5,1.5,1,,
,,{PlayBGM},,,,,,,,,,bgm_days02,0.5,,,
,,{CreateBackground},,,,,,,,,,Store2,,,,
,,{Wait},,,,,,,,,,0.5,,,,
對話,端木壹,「真受不了*居然有人敢喝醉了在我店門口鬧事！」,0,,,02,生氣,制服,TRUE,,,,,,,
對話,端木壹,「下次再鬧的話*乾脆強制讓他們接受冰桶挑戰好了。」,0,,,02,生氣,制服,,,,,,,,
對話,端木壹,「不*或者拿個美國規格的情趣玩具*來捅他們的菊花──說笑說笑。」,0,,,04,,制服,,,,,,,,
,,{Wait},,,,,,,,,,0.5,,,,
,,{DeleteAllActor},,,,,,,,,,,,,,
,,{CreateBackground},,,,,,,,,,Black,,,,
,,{Loading},,,,,,,,,,1.5,1.5,1,,
,,{CreateBackground},,,,,,,,,,OfficeA1,,,,
,,{Wait},,,,,,,,,,0.5,,,,
,,{PlayEffect},,,,,,,,,,se_doorop,FALSE,,,
旁白,,念叨著回到辦公室的我*才打開門就聞到濃濃的酒氣。,,,,,,,,,,,,,,
旁白,,在這酒氣薰天的室內*有個少女正胡亂揮舞著喝乾的鋁罐。,,,,,,,,,,,,,,
,,{FadeBGM},,,,,,,,,,0,１,,,
,,{PlayBGM},,,,,,,,,,bgm_joke01,0.5,,,
對話,顏無菁,「咦？啊咧？阿壹～～？這不是*阿壹嗎～～？」,450,,,04,開心,半制服,TRUE,,,,,,,
對話,顏無菁,「噗哈～～」,450,,,04,開心,半制服,,,,,,,,
對話,端木壹,「襪糙*天啊！好重的酒味！怎麼店裡又有一個醉鬼？」,-450,,,06,驚嘆號,制服,TRUE,,,,,,,
對話,端木壹,「喂喂喂喂喂*妳又在搞什麼飛機了無菁？」,-450,,,02,,制服,,,,,,,,
旁白,,我注意到滿地的空罐*心裡有種不妙的預感。,,,,,,,,,,,,,,
對話,端木壹,「妳該不會把我桌上的飲料全喝了吧！」,-450,,,06,驚嘆號,制服,,,,,,,,
對話,顏無菁,「欸～哪有什麼飲料？沒看到呀～～？」,450,,,05,問號,半制服,,,,,,,,
對話,端木壹,「這滿地不都是妳喝光的空罐嗎？」,-450,,,06,,制服,,,,,,,,
對話,顏無菁,「沒有～啦！真是煩人～～你這囂張的臭小子！」,450,150,0.5,02,生氣,半制服,,,,,,,,
,,{Wait},,,,,,,,,,0.5,,,,
,,{DeleteActor},,,,,,,,,,端木壹,,,,
,,{PlayEffect},,,,,,,,,,se_faint,FALSE,,,
旁白,,操著小混混般的怪異口吻*無菁用力將我推倒在地*還一口氣扒掉我的衣服。,,,,,,,,,,,,,,
,,{Wait},,,,,,,,,,0.5,,,,
,,{DeleteAllActor},,,,,,,,,,,,,,
,,{CreateBackground},,,,,,,,,,Black,,,,
,,{FadeBGM},,,,,,,,,,0,１,,,
,,{Loading},,,,,,,,,,1.5,1.5,1,,
,,{PlayBGM},,,,,,,,,,bgm_sexy02,0.5,,,
,,{CreatePicture},,,,,,,,,,0,A4,WuJing_H4_001,,
,,{Wait},,,,,,,,,,0.5,,,,
對話,端木壹,「很危險的啊混蛋！」,,,,,,,,,,,,,,
旁白,,我原本想直接推開無菁*卻在察覺她那異常強勢的氣場後退縮了。,,,,,,,,,,,,,,
對話,端木壹,「無菁小姐？妳真的喝醉了*不如先洗洗睡怎麼樣？」,,,,,,,,,,,,,,
對話,端木壹,「我今天可以特准妳放個有薪假！」,,,,,,,,,,,,,,
001,顏無菁,「笨～～蛋！我才沒～～醉！」,,,,,,,,,,,,,,
002,顏無菁,「真是囉唆的男人*喝什麼喝？咯！不過就是幾瓶廉價的*飲料而已嘛～～」,,,,,,,,,,,,,,
003,顏無菁,「大不了我、我還給你就是了～～！」,,,,,,,,,,,,,,
,,{PlayHEffect},,,,,,,,,,FE_S_35s,TRUE,,,
旁白,,嘴裡胡言亂語一陣後*無菁的臉立即湊了上來強吻了我。,,,,,,,,,,,,,,
旁白,,不單是雙唇的接觸*還把舌頭主動伸進嘴裡*貪婪地佔據我的口腔。,,,,,,,,,,,,,,
004,顏無菁,「嘖啾、嗚嗯*咕嚕……嗯……」,,,,,,,,,,,,,,
005,顏無菁,「咕嗯……嘖……啾嘖嗯嗯*唔咕……」,,,,,,,,,,,,,,
旁白,,無菁好不容易才放過了我的嘴*露出純真卻誘人的笑容。,,,,,,,,,,,,,,
旁白,,她的眼神迷離*臉頰變得紅透*散發著妖豔的氣息。,,,,,,,,,,,,,,
,,{StopEffect},,,,,,,,,,FE_S_35s,,,,
006,顏無菁,「如何～本大小姐的、特製飲料唷？嘿嘿嘿。」,,,,,,,,,,,,,,
旁白,,老實說我嘴裡只有濃烈的酒味──請還我原本的飲料好嗎？拜託了大小姐。,,,,,,,,,,,,,,
對話,端木壹,「……無菁*快醒醒。」,,,,,,,,,,,,,,
對話,端木壹,「再繼續鬧下去的話*我要玩弄妳的胸部了喔！」,,,,,,,,,,,,,,
,,{PlayEffect},,,,,,,,,,se_poipoi,FALSE,,,
旁白,,我做出抓握的手勢*想讓她因為驚恐而清醒過來。,,,,,,,,,,,,,,
007,顏無菁,「咦～～？要玩弄我的胸部*咯*是嗎？」,,,,,,,,,,,,,,
對話,端木壹,「沒錯！還會像小寶寶一樣拼命吸妳的奶！」,,,,,,,,,,,,,,
008,顏無菁,「咦～？要像小寶寶一樣拼、拼命吸奶*然後再讓我拼命吸、吸你的奶～～？」,,,,,,,,,,,,,,
對話,端木壹,「呃……後半段是妳自己加上去的吧……」,,,,,,,,,,,,,,
009,顏無菁,「啊啊啊～～看來是個有點愛耍性子的壞寶寶呢。」,,,,,,,,,,,,,,
,,{PlayEffect},,,,,,,,,,se_poipoi,FALSE,,,
010,顏無菁,「真拿你沒辦法*這麼想要吸姐姐的胸部*就給你吸好啦～～」,,,,,,,,,,,,,,
旁白,,酒後變性啊！,,,,,,,,,,,,,,
旁白,,無菁一把扯開制服領口*讓頗具視覺震撼效果的巨乳暴露在外。,,,,,,,,,,,,,,
,,{CreatePicture},,,,,,,,,,0,A4,WuJing_H4_002,,
旁白,,下一秒*我的臉就被她的胸部埋住了。,,,,,,,,,,,,,,
,,{PlayEffect},,,,,,,,,,se_poipoi,FALSE,,,
011,顏無菁,「來呀來呀*這是阿壹最喜歡的大胸部～～」,,,,,,,,,,,,,,
012,顏無菁,「如何？嗝*是你最喜歡的胸部*軟軟的*又大又圓～～」,,,,,,,,,,,,,,
013,顏無菁,「啾滋啾滋*像個、肚子餓的小寶寶一樣*儘管來吸呀啊～～」,,,,,,,,,,,,,,
旁白,,可惡！我端木壹難道是被嚇大的嗎？看招！,,,,,,,,,,,,,,
,,{CreatePicture},,,,,,,,,,0,A4,WuJing_H4_003,,
,,{PlayHEffect},,,,,,,,,,SFE_B_29s,TRUE,,,
旁白,,我一掌一個*抓握著豐滿的雪乳*將嘴湊上去用力吸吮尖端。,,,,,,,,,,,,,,
旁白,,另外一邊用手指挑逗著尖端*這正是針對大奶醉鬼的巨乳鉗形攻勢。,,,,,,,,,,,,,,
014,顏無菁,「啊嗚！像小寶寶一樣吸著*敏感的、乳頭啊啊！好有感覺嗯嗯！」,,,,,,,,,,,,,,
015,顏無菁,「不過現在還沒有奶水耶～～寶寶好可憐*乖乖～～」,,,,,,,,,,,,,,
旁白,,雖然我吸得嘖嘖有聲*無菁的反應卻沒預想中強烈*大概是酒精的影響。,,,,,,,,,,,,,,
旁白,,她反而像是要安撫我一般*輕輕拍著我的頭頂。,,,,,,,,,,,,,,
016,顏無菁,「啊啊……可憐的阿壹*吸得好～～大聲唷……」,,,,,,,,,,,,,,
017,顏無菁,「肯定是*啊嗚嗚……都一個人生活*沒被家人好好照顧的關係～～」,,,,,,,,,,,,,,
018,顏無菁,「不要緊不要緊～～姐姐也是一個人*姐姐會盡量照顧你*不會讓你像姐姐一樣～～」,,,,,,,,,,,,,,
,,{StopEffect},,,,,,,,,,SFE_B_29s,,,,
旁白,,……看來是完全醉了。,,,,,,,,,,,,,,
旁白,,不過*她到底是醉到把我當成什麼了？,,,,,,,,,,,,,,
,,{PlayEffect},,,,,,,,,,se_zipper,FALSE,,,
旁白,,正感覺莫名其妙的時候*無菁將手探進我的褲襠*掏出那根兇惡的東西。,,,,,,,,,,,,,,
019,顏無菁,「啊呀～阿壹的這根、寶寶雞雞變得*好粗喔～～」,,,,,,,,,,,,,,
020,顏無菁,「來吧*插進無菁姐姐的小穴～從這裡插進來～～」,,,,,,,,,,,,,,
旁白,,無菁撕開褲襪、拉開內褲的邊緣*可以看見露出的穴口垂下好幾滴晶瑩的黏液。,,,,,,,,,,,,,,
021,顏無菁,「讓姐姐的下面小嘴把你的、雞雞裡的奶奶*都給吸個一乾二淨乾淨吧～～」,,,,,,,,,,,,,,
對話,端木壹,「真是的……妳這樣發騷*我怎可能忍受得住！」,,,,,,,,,,,,,,
旁白,,我一把摟住無菁*將陰莖對準洞穴逕自插了進去。,,,,,,,,,,,,,,
,,{CreatePicture},,,,,,,,,,0,A4,WuJing_H4_004,,
022,顏無菁,「啊啊啊！阿壹寶寶的、雞雞*直接就插進了、我的小穴～～！」,,,,,,,,,,,,,,
023,顏無菁,「雞雞壞壞～～啊嗚*不過沒關係～～嗯啊啊！」,,,,,,,,,,,,,,
024,顏無菁,「姐姐會努力讓你、舒服的啊啊！」,,,,,,,,,,,,,,
旁白,,無菁發出了淒厲的叫聲*同時間小穴吸附的力道也變得更強。,,,,,,,,,,,,,,
,,{PlayHEffect},,,,,,,,,,SEX_M_12s,TRUE,,,
旁白,,我當然不甘於示弱*立刻以更為猛烈的抽送力道予以反擊。,,,,,,,,,,,,,,
對話,端木壹,「怎麼樣？無菁*有沒有充分感受到我的大雞雞？」,,,,,,,,,,,,,,
025,顏無菁,「嗚啊啊、啊嗯！我的小穴穴裡面*感受得到、感受得到雞雞的樣子！」,,,,,,,,,,,,,,
對話,端木壹,「知道厲害的話就快點清醒*妳這個色情醉鬼！」,,,,,,,,,,,,,,
026,顏無菁,「咕嗚、啊啊呀！阿壹的雞雞、是個壞脾氣的頑皮孩子！嗚嗚、在裡面拼命*衝撞著！」,,,,,,,,,,,,,,
,,{CreatePicture},,,,,,,,,,0,A4,WuJing_H4_005,,
旁白,,無菁被肉棒搗得哀叫連連，穴口更是有如噴泉般湧出黏稠的熱泉。,,,,,,,,,,,,,,
旁白,,每一次交合都發出「噗滋、噗滋」的水響聲，與無菁的交喊聲互相交疊，靡靡之音不覺於耳。,,,,,,,,,,,,,,
旁白,,我略為調整呼吸，稍稍放緩抽送的速度，讓無菁有喘口氣的空間。,,,,,,,,,,,,,,
旁白,,但整個房間都是我們體液的味道，只是更加催動兩人的情慾。,,,,,,,,,,,,,,
旁白,,與無菁做愛實在太舒服了，一不小心就會忍不住射出來，讓我不得不慢下動作。,,,,,,,,,,,,,,
旁白,,我將肉棒前端留在小穴裡淺淺抽插，穴口的皺褶吸附著敏感的龜頭與冠狀溝。,,,,,,,,,,,,,,
旁白,,冰涼的空氣與溫熱的小穴兩種完全不同感覺來回交錯，快感層層疊疊的不斷上漲。,,,,,,,,,,,,,,
027,顏無菁,「嗚、嗯、嗯──嗚嗚～不要插得那麼深，會受、受不了的。」,,,,,,,,,,,,,,
對話,端木壹,「這可是妳自己要做的，怎麼能說受不了？」,,,,,,,,,,,,,,
028,顏無菁,「沒辦法，就是，就是會舒服的受不了啊！阿壹的壞雞雞，讓、讓我太爽了啊！」,,,,,,,,,,,,,,
對話,端木壹,「那就讓妳更爽一點吧！」,,,,,,,,,,,,,,
029,顏無菁,「嗚啊啊嗯嗯嗯！」,,,,,,,,,,,,,,
對話,端木壹,「嗚嗯──呼、呼，哈，差點就沒忍住呢……」,,,,,,,,,,,,,,
030,顏無菁,「呼、嚇、呼……為什麼不、不射出來，就差一點點而已，嗯……」,,,,,,,,,,,,,,
031,顏無菁,「難道是為了我著想嗎？嗚嗚，你真的是個好人，以前都是我錯怪你了……」,,,,,,,,,,,,,,
對話,端木壹,「為什麼要在這種時候發好人卡，害我差點都萎了……」,,,,,,,,,,,,,,
旁白,,不知為何*無菁卻開始抽抽噎噎地哭泣起來。,,,,,,,,,,,,,,
032,顏無菁,「感覺得到……嗚嗯嗯*阿壹也是累積了很多壓力呢……」,,,,,,,,,,,,,,
033,顏無菁,「嗚嗚……不要緊的*呀啊啊！儘管用、姐姐發洩*姐姐會努力、努力忍耐的！」,,,,,,,,,,,,,,
034,顏無菁,「姐姐知道的*咕嗚、姐姐的*紅玉姐姐也不在身邊了*所以總是、一個人忍耐著～～」,,,,,,,,,,,,,,
,,{CreatePicture},,,,,,,,,,0,A4,WuJing_H4_006,,
旁白,,無菁拍打著我的頭頂和背脊*嘴裡喃喃自語。,,,,,,,,,,,,,,
旁白,,之前做愛時也是這樣*能感到某種不尋常。,,,,,,,,,,,,,,
旁白,,過去沒見面的這段時間裡*無菁身上究竟發生了什麼？,,,,,,,,,,,,,,
035,顏無菁,「嗚嗯、好*好寂寞對吧？所以想、抱抱女孩子*啊啊嗯、也是很正常的*對吧～～？」,,,,,,,,,,,,,,
036,顏無菁,「所以盡量、嗚嗯嗯嗯*抱姐姐～～讓、讓姐姐好好安慰你*咕嗚嗚～～！」,,,,,,,,,,,,,,
旁白,,……看來暫時很難得到答案吧。,,,,,,,,,,,,,,
旁白,,現在我該做的*就是盡可能地滿足她。,,,,,,,,,,,,,,
,,{StopEffect},,,,,,,,,,SEX_M_12s,,,,
,,{CreatePicture},,,,,,,,,,0,A4,WuJing_H4_007,,
,,{PlayHEffect},,,,,,,,,,SEX_B_15s,TRUE,,,
旁白,,我更加毫無顧忌地挺進衝刺*同時雙手也沒閒著*不時搓揉無菁的雙乳。,,,,,,,,,,,,,,
037,顏無菁,「呀啊啊啊──！更用力來了、阿壹的*壞孩子雞雞！」,,,,,,,,,,,,,,
038,顏無菁,「寂寞的、壞孩子雞雞*嗚嗯嗯！就讓寂寞的、姐姐來幫你咻咻～～！」,,,,,,,,,,,,,,
旁白,,像是完全拋開過去的矜持*無菁大膽地搖動腰部。,,,,,,,,,,,,,,
039,顏無菁,「好拼命地在疼愛、姐姐的*啊呀嗯嗯嗯！姐姐的、小穴！」,,,,,,,,,,,,,,
040,顏無菁,「姐姐也不、不能輸！嗯嗯、呀啊啊啊！姐姐會努力、努力做的啊啊！」,,,,,,,,,,,,,,
041,顏無菁,「姐、姐姐會忍、忍耐*不在、不在阿壹射之前就*啊嗯！就去了！」,,,,,,,,,,,,,,
對話,端木壹,「真努力啊*無菁。」,,,,,,,,,,,,,,
對話,端木壹,「非常好*值得我用肉棒好好鼓勵妳。」,,,,,,,,,,,,,,
042,顏無菁,「但是、不行*姐姐好像*咕啊啊啊！姐姐好像先要去了啊啊啊！」,,,,,,,,,,,,,,
043,顏無菁,「對不起、對不起啊啊……姐姐是個、壞姐姐嗚咕嗚嗚！」,,,,,,,,,,,,,,
對話,端木壹,「不用忍耐*也沒關係。」,,,,,,,,,,,,,,
對話,端木壹,「老實說我也差不多了*因為無菁妳的小穴*真的很爽！」,,,,,,,,,,,,,,
對話,端木壹,「所以儘管去沒關係！給我看看妳高潮到升天的色臉！」,,,,,,,,,,,,,,
044,顏無菁,「真的嗎？啊啊嗚！真的、可以去嗎？」,,,,,,,,,,,,,,
045,顏無菁,「咕呀呀呀啊、太好了*因為姐姐快、快忍不住了啊啊啊！」,,,,,,,,,,,,,,
旁白,,就像搭乘遊樂園裡驚險刺激的雲霄飛車*激戰終於抵達了終點。,,,,,,,,,,,,,,
046,顏無菁,「來了、來了來了！我要不知羞恥地、高潮了呀啊啊啊──！」,,,,,,,,,,,,,,
,,{StopEffect},,,,,,,,,,SEX_B_15s,,,,
,,{Wait},,,,,,,,,,0.5,,,,
,,{CreatePicture},,,,,,,,,,0,A4,WuJing_H4_008,,
,,{Flash},,,,,,,,,,,,,,
,,{PlayHEffect},,,,,,,,,,SYASEI_4s,FALSE,,,
047,顏無菁,「呀啊啊啊啊──！！嗚呀啊啊啊啊──！！」,,,,,,,,,,,,,,
旁白,,我的龜頭抵著無菁子宮口*將大量的白濁噴射進她的子宮。,,,,,,,,,,,,,,
048,顏無菁,「好多、好多阿壹的牛奶──！要把姐姐給灌飽了──！！」,,,,,,,,,,,,,,
旁白,,無菁抽搐著、誇張地弓起背後仰*並且毫無顧忌地叫著。,,,,,,,,,,,,,,
,,{Flash},,,,,,,,,,,,,,
,,{PlayHEffect},,,,,,,,,,SYASEI_4s,FALSE,,,
旁白,,我將積攢起來的精液繼續射進體內*讓她忍不住又高潮了幾次。,,,,,,,,,,,,,,
049,顏無菁,「身體還不斷在、在顫抖著……啊啊哈啊啊啊……控制不了……要變成……笨蛋了……」,,,,,,,,,,,,,,
,,{Flash},,,,,,,,,,,,,,
050,顏無菁,「啊啊啊、哈啊啊啊……嗚咕……啊啊啊……」,,,,,,,,,,,,,,
,,{CreatePicture},,,,,,,,,,0,A4,WuJing_H4_009,,
旁白,,高潮過後的無菁*渾身脫力地倒在我身上。,,,,,,,,,,,,,,
旁白,,我能感受到她的胸部像是經歷過長跑般劇烈地起伏著。,,,,,,,,,,,,,,
051,顏無菁,「阿壹這個、嗚嗯……壞寶寶*想射就隨便射了呢……」,,,,,,,,,,,,,,
052,顏無菁,「真是……想做什麼都……隨心所欲的呢……」,,,,,,,,,,,,,,
旁白,,發射殆盡的陰莖一脫離無菁緊致的小穴*存在裡頭的大量精液便像是拔開了栓子般噴濺出來。,,,,,,,,,,,,,,
053,顏無菁,「呵呵*都射了這麼多出來……姐姐的小穴看來*讓你很舒服喔……」,,,,,,,,,,,,,,
旁白,,說話時*無菁又將手摸向我的陰莖。,,,,,,,,,,,,,,
054,顏無菁,「啊咧？好像還是很硬的樣子。完全沒有消下去耶～～怎麼會這樣～～？」,,,,,,,,,,,,,,
055,顏無菁,「看來還需要好好地*疼愛一番唷～～？」,,,,,,,,,,,,,,
056,顏無菁,「吶～～再來陪姐姐*好好玩一會吧～～？」,,,,,,,,,,,,,,
對話,端木壹,「呃……雖然我是不反對啦*但是妳有弄清楚現在是上班時間嗎？」,,,,,,,,,,,,,,
對話,端木壹,「欸？無菁？」,,,,,,,,,,,,,,
,,{Wait},,,,,,,,,,0.5,,,,
,,{DeletePicture},,,,,,,,,,,,,,
,,{CreateBackground},,,,,,,,,,Black,,,,
旁白,,結果無菁根本沒在聽。,,,,,,,,,,,,,,
旁白,,她發出了細微的鼾聲*居然就這樣在我身上睡著了。,,,,,,,,,,,,,,
旁白,,看著滿地汁液與空罐、污穢不堪的辦公室*感到一陣頭痛。,,,,,,,,,,,,,,
旁白,,沒辦法*先把這丫頭送回休息室好了……,,,,,,,,,,,,,,
,,{Wait},,,,,,,,,,0.5,,,,
,,{DeleteAllActor},,,,,,,,,,,,,,
,,{FadeBGM},,,,,,,,,,0,１,,,
,,{Loading},,,,,,,,,,1.5,1.5,1,,
,,{PlayBGM},,,,,,,,,,bgm_days02,0.5,,,
,,{CreateBackground},,,,,,,,,,OfficeA1,,,,
,,{Wait},,,,,,,,,,0.5,,,,
旁白,,過了一段時間……,,,,,,,,,,,,,,
旁白,,我好不容易才把辦公室清理乾淨*恢復原本的整潔。,,,,,,,,,,,,,,
旁白,,正想鬆口氣時*就見到無菁打開辦公室的門走了進來。,,,,,,,,,,,,,,
,,{PlayEffect},,,,,,,,,,se_walk,FALSE,,,
對話,顏無菁,「…………」,450,,,07,無言,半制服,TRUE,,,,,,,
對話,端木壹,「嗯？無菁妳酒醒啦？」,-450,,,01,,制服,TRUE,,,,,,,
對話,端木壹,「真是夠了*下次別再亂喝我的飲料*幫妳善後可是很辛苦的。」,-450,,,01,,制服,,,,,,,,
對話,顏無菁,「…………」,450,,,07,無言,半制服,,,,,,,,
對話,端木壹,「哈囉？無菁*有在聽嗎？」,-450,,,01,,制服,,,,,,,,
對話,顏無菁,「……忘掉。」,450,,,11,玻璃心,半制服,,,,,,,,
,,{Shake},,,,,,,,,,,,,,
對話,顏無菁,「把今天發生過的事全都忘掉！大笨蛋──！」,450,,,10,生氣,半制服,,,,,,,,
對話,端木壹,「今天的事？怎麼可以*我都還沒記錄今天的營業收入？」,-450,,,06,驚嘆號,制服,,,,,,,,
對話,顏無菁,「總之全部都忘掉！忘掉忘掉忘掉！」,450,,,10,玻璃心,半制服,,,,,,,,
,,{Shake},,,,,,,,,,,,,,
對話,顏無菁,「最好當成！完全沒有過今天！！」,450,,,10,生氣,半制服,,,,,,,,
旁白,,耳朵快被震壞了……真難搞。,,,,,,,,,,,,,,
,,{Wait},,,,,,,,,,0.5,,,,
,,{DeleteAllActor},,,,,,,,,,,,,,
,,{CreateBackground},,,,,,,,,,Black,,,,
旁白,,雖然那副狂野享受做愛的模樣令人回味無窮。,,,,,,,,,,,,,,
旁白,,但如果只有酒醉時才能見到這一面的話*我還是放棄算了。,,,,,,,,,,,,,,
旁白,,千萬不可以讓顏無菁喝酒*我絕對要記好這件事。,,,,,,,,,,,,,,
,,{Wait},,,,,,,,,,1,,,,
,,,,,,,,,,,,,,,,
,,,,,,,,,,,,,,,,
,,,,,,,,,,,,,,,,
,,,,,,,,,,,,,,,,
,,,,,,,,,,,,,,,,
,,,,,,,,,,,,,,,,
,,,,,,,,,,,,,,,,
,,,,,,,,,,,,,,,,
,,,,,,,,,,,,,,,,
,,,,,,,,,,,,,,,,
,,,,,,,,,,,,,,,,
,,,,,,,,,,,,,,,,
,,,,,,,,,,,,,,,,
,,,,,,,,,,,,,,,,
,,,,,,,,,,,,,,,,
,,,,,,,,,,,,,,,,
,,,,,,,,,,,,,,,,
,,,,,,,,,,,,,,,,
,,,,,,,,,,,,,,,,
,,,,,,,,,,,,,,,,
,,,,,,,,,,,,,,,,
,,,,,,,,,,,,,,,,
,,,,,,,,,,,,,,,,
,,,,,,,,,,,,,,,,
,,,,,,,,,,,,,,,,
,,,,,,,,,,,,,,,,
,,,,,,,,,,,,,,,,
,,,,,,,,,,,,,,,,
,,,,,,,,,,,,,,,,
,,,,,,,,,,,,,,,,
,,,,,,,,,,,,,,,,
,,,,,,,,,,,,,,,,
,,,,,,,,,,,,,,,,
,,,,,,,,,,,,,,,,
,,,,,,,,,,,,,,,,
,,,,,,,,,,,,,,,,
,,,,,,,,,,,,,,,,
,,,,,,,,,,,,,,,,
,,,,,,,,,,,,,,,,
,,,,,,,,,,,,,,,,
,,,,,,,,,,,,,,,,
,,,,,,,,,,,,,,,,
,,,,,,,,,,,,,,,,
,,,,,,,,,,,,,,,,
,,,,,,,,,,,,,,,,
,,,,,,,,,,,,,,,,
