﻿0.對話方式,1.角色名稱,2.台詞,3.角色起點,4.角色終點,5.行走時間,6.角色表情,7.表情符號,8.服裝,9.淡入,10.特寫,11,12.事件參數1,13.事件參數2,14.事件參數3,15.事件參數4,16.事件參數5
,,{CreateBackground},,,,,,,,,,Store,,,,
,,{PlayBGM},,,,,,,,,,bgm_joke01,0.5,,,
,,{Wait},,,,,,,,,,0.5,,,,
,女顧客,{CreateActor},300,700,0.5,EX01,,,TRUE,,,,,,,
,,{Wait},,,,,,,,,,1,,,,
對話,顏無菁,「小姐等等！妳還沒付錢呢！」,-450,,,05,驚嘆號,半制服,TRUE,,,,,,,
對話,女顧客,「我、我又沒買東西。」,700,450,0.5,EX01,,,,,,,,,,
對話,顏無菁,「我可是看到妳拿了好幾包泡麵喔。」,-450,,,02,生氣,半制服,,,,,,,,
對話,女顧客,「那、那是……我跟妳們店長很熟！妳先幫我記著*我下次來再一起付。」,450,,,EX01,汗顏,,,,,,,,,
對話,顏無菁,「妳跟店長很熟？妳確定嗎？」,-450,,,02,,半制服,,,,,,,,
對話,女顧客,「當然*我跟他熟得很*小心我叫他開除妳。」,450,,,EX01,,,,,,,,,,
對話,顏無菁,「嗯……」,-450,,,06,無言,半制服,,,,,,,,
對話,女顧客,「妳、妳那什麼表情？」,450,,,EX01,,,,,,,,,,
對話,顏無菁,「那妳說說看*我們店長是個什麼樣的人？」,-450,,,02,,半制服,,,,,,,,
,,{DeleteAllActor},,,,,,,,,,,,,,
心想,女顧客,（雖然不熟*但也見過幾次面*加上這間店的經營方針……）,0,,,EX01,,,TRUE,TRUE,,,,,,
,,{DeleteAllActor},,,,,,,,,,,,,,
對話,女顧客,「他是個變態色胚*沒錯吧？」,450,,,EX01,,,TRUE,,,,,,,
心想,顏無菁,（竟然說對了！）,-450,-550,0.5,08,驚嘆號,半制服,,,,,,,,
對話,顏無菁,「這、這也可能是妳亂猜的*再說說看他平常最喜歡做什麼？」,-550,-450,0.5,02,,半制服,,,,1.5,,,,
對話,女顧客,「還能幹什麼*不就色瞇瞇的盯著妳們這些店員看嗎？」,450,,,EX01,,,,,,,,,,
心想,顏無菁,（竟然又對了！）,-450,-550,0.5,08,驚嘆號,半制服,,,,,,,,
對話,顏無菁,「好吧*妳可能真的跟店長很熟*他就是這麼個變態大色狼。」,-550,,,11,,半制服,,,,,,,,
對話,女顧客,「沒錯、沒錯*而且我跟他可是有很『親密』的關係*妳不要隨便惹我。」,450,,,EX01,,,,,,,,,,
,,{PlayEffect},,,,,,,,,,se_glassbobr,FALSE,,,
對話,顏無菁,「所以妳、妳也被她下手了嗎？那個變態店長連客人都……」,-550,-650,0.5,10,玻璃心,半制服,,,,,,,,
對話,女顧客,「當然……等等*這話是什麼意思？『妳也』又是什麼情況？」,450,,,EX01,,,,,,,,,,
對話,端木壹,「夠了！不要在別人背後亂說壞話！」,-100,,,02,驚嘆號,制服,TRUE,,,,,,,
對話,顏無菁,「店、店長！」,-650,,,08,驚嘆號,半制服,,,,,,,,
對話,女顧客,「可惡……竟然是本人來了……」,450,,,EX01,汗顏,,,,,,,,,
對話,端木壹,「哼哼*我在後面都用監視器看到了*妳應該知道在便利商店偷東西被抓到會怎樣吧？」,-100,,,07,,制服,,,,,,,,
對話,女顧客,「會、會怎樣？」,450,,,EX01,,,,,,,,,,
對話,端木壹,「哼哼*妳不是跟我很熟、還有很親密的關係嗎？跟我去休息室*我慢慢解釋給妳聽。」,-100,,,07,得意,制服,,,,,,,,
對話,女顧客,「嗚……知道了……」,450,,,EX01,,,,,,,,,,
,,{Wait},,,,,,,,,,1,,,,
,,{DeleteAllActor},,,,,,,,,,,,,,
,,{CreateBackground},,,,,,,,,,Black,,,,
對話,女顧客,「啊嗯嗯～求你了*不可以這樣*那裡、那裡一下就好痠好麻嗚嗚……」,,,,EX01,,,,,,,,,,
對話,女顧客,「我、我不行了*這樣會壞掉的、真的會壞掉的……」,,,,EX01,,,,,,,,,,
對話,女顧客,「啊啊啊啊啊！太多工作要做了吧！肩膀好痠啊……眼睛要壞掉了……下次不敢了啦～～～」,,,,EX01,,,,,,,,,,
,,{Wait},,,,,,,,,,1.5,,,,
,,{DeleteAllActor},,,,,,,,,,,,,,
,,,,,,,,,,,,,,,,
,,,,,,,,,,,,,,,,
,,,,,,,,,,,,,,,,
,,,,,,,,,,,,,,,,
,,,,,,,,,,,,,,,,
,,,,,,,,,,,,,,,,
,,,,,,,,,,,,,,,,
,,,,,,,,,,,,,,,,
,,,,,,,,,,,,,,,,
,,,,,,,,,,,,,,,,
,,,,,,,,,,,,,,,,
,,,,,,,,,,,,,,,,
,,,,,,,,,,,,,,,,
,,,,,,,,,,,,,,,,
,,,,,,,,,,,,,,,,
,,,,,,,,,,,,,,,,
,,,,,,,,,,,,,,,,
,,,,,,,,,,,,,,,,
,,,,,,,,,,,,,,,,
,,,,,,,,,,,,,,,,
,,,,,,,,,,,,,,,,
,,,,,,,,,,,,,,,,
,,,,,,,,,,,,,,,,
,,,,,,,,,,,,,,,,
,,,,,,,,,,,,,,,,
,,,,,,,,,,,,,,,,
,,,,,,,,,,,,,,,,
,,,,,,,,,,,,,,,,
,,,,,,,,,,,,,,,,
,,,,,,,,,,,,,,,,
,,,,,,,,,,,,,,,,
,,,,,,,,,,,,,,,,
,,,,,,,,,,,,,,,,
,,,,,,,,,,,,,,,,
,,,,,,,,,,,,,,,,
,,,,,,,,,,,,,,,,
,,,,,,,,,,,,,,,,
,,,,,,,,,,,,,,,,
,,,,,,,,,,,,,,,,
,,,,,,,,,,,,,,,,
,,,,,,,,,,,,,,,,
,,,,,,,,,,,,,,,,
,,,,,,,,,,,,,,,,
,,,,,,,,,,,,,,,,
,,,,,,,,,,,,,,,,
,,,,,,,,,,,,,,,,
,,,,,,,,,,,,,,,,
,,,,,,,,,,,,,,,,
,,,,,,,,,,,,,,,,
,,,,,,,,,,,,,,,,
,,,,,,,,,,,,,,,,
,,,,,,,,,,,,,,,,
,,,,,,,,,,,,,,,,
,,,,,,,,,,,,,,,,
,,,,,,,,,,,,,,,,
,,,,,,,,,,,,,,,,
,,,,,,,,,,,,,,,,
,,,,,,,,,,,,,,,,
,,,,,,,,,,,,,,,,
,,,,,,,,,,,,,,,,
,,,,,,,,,,,,,,,,
,,,,,,,,,,,,,,,,
,,,,,,,,,,,,,,,,
,,,,,,,,,,,,,,,,
,,,,,,,,,,,,,,,,
,,,,,,,,,,,,,,,,
,,,,,,,,,,,,,,,,
,,,,,,,,,,,,,,,,
,,,,,,,,,,,,,,,,
,,,,,,,,,,,,,,,,
,,,,,,,,,,,,,,,,
,,,,,,,,,,,,,,,,
,,,,,,,,,,,,,,,,
,,,,,,,,,,,,,,,,
,,,,,,,,,,,,,,,,
,,,,,,,,,,,,,,,,
,,,,,,,,,,,,,,,,
,,,,,,,,,,,,,,,,
,,,,,,,,,,,,,,,,
,,,,,,,,,,,,,,,,
,,,,,,,,,,,,,,,,
,,,,,,,,,,,,,,,,
,,,,,,,,,,,,,,,,
,,,,,,,,,,,,,,,,
,,,,,,,,,,,,,,,,
,,,,,,,,,,,,,,,,
,,,,,,,,,,,,,,,,
,,,,,,,,,,,,,,,,
,,,,,,,,,,,,,,,,
,,,,,,,,,,,,,,,,
,,,,,,,,,,,,,,,,
,,,,,,,,,,,,,,,,
,,,,,,,,,,,,,,,,
,,,,,,,,,,,,,,,,
,,,,,,,,,,,,,,,,
,,,,,,,,,,,,,,,,
,,,,,,,,,,,,,,,,
,,,,,,,,,,,,,,,,
,,,,,,,,,,,,,,,,
,,,,,,,,,,,,,,,,
,,,,,,,,,,,,,,,,
,,,,,,,,,,,,,,,,
,,,,,,,,,,,,,,,,
,,,,,,,,,,,,,,,,
,,,,,,,,,,,,,,,,
,,,,,,,,,,,,,,,,
,,,,,,,,,,,,,,,,
,,,,,,,,,,,,,,,,
,,,,,,,,,,,,,,,,
,,,,,,,,,,,,,,,,
,,,,,,,,,,,,,,,,
,,,,,,,,,,,,,,,,
,,,,,,,,,,,,,,,,
,,,,,,,,,,,,,,,,
,,,,,,,,,,,,,,,,
,,,,,,,,,,,,,,,,
,,,,,,,,,,,,,,,,
,,,,,,,,,,,,,,,,
,,,,,,,,,,,,,,,,
,,,,,,,,,,,,,,,,
,,,,,,,,,,,,,,,,
,,,,,,,,,,,,,,,,
,,,,,,,,,,,,,,,,
,,,,,,,,,,,,,,,,
,,,,,,,,,,,,,,,,
,,,,,,,,,,,,,,,,
,,,,,,,,,,,,,,,,
,,,,,,,,,,,,,,,,
,,,,,,,,,,,,,,,,
,,,,,,,,,,,,,,,,
,,,,,,,,,,,,,,,,
,,,,,,,,,,,,,,,,
,,,,,,,,,,,,,,,,
,,,,,,,,,,,,,,,,
,,,,,,,,,,,,,,,,
,,,,,,,,,,,,,,,,
,,,,,,,,,,,,,,,,
,,,,,,,,,,,,,,,,
,,,,,,,,,,,,,,,,
,,,,,,,,,,,,,,,,
,,,,,,,,,,,,,,,,
,,,,,,,,,,,,,,,,
,,,,,,,,,,,,,,,,
,,,,,,,,,,,,,,,,
,,,,,,,,,,,,,,,,
,,,,,,,,,,,,,,,,
,,,,,,,,,,,,,,,,
,,,,,,,,,,,,,,,,
,,,,,,,,,,,,,,,,
,,,,,,,,,,,,,,,,
,,,,,,,,,,,,,,,,
,,,,,,,,,,,,,,,,
,,,,,,,,,,,,,,,,
,,,,,,,,,,,,,,,,
,,,,,,,,,,,,,,,,
,,,,,,,,,,,,,,,,
,,,,,,,,,,,,,,,,
,,,,,,,,,,,,,,,,
,,,,,,,,,,,,,,,,
,,,,,,,,,,,,,,,,
,,,,,,,,,,,,,,,,
,,,,,,,,,,,,,,,,
,,,,,,,,,,,,,,,,
,,,,,,,,,,,,,,,,
,,,,,,,,,,,,,,,,
,,,,,,,,,,,,,,,,
,,,,,,,,,,,,,,,,
,,,,,,,,,,,,,,,,
,,,,,,,,,,,,,,,,
,,,,,,,,,,,,,,,,
,,,,,,,,,,,,,,,,
,,,,,,,,,,,,,,,,
,,,,,,,,,,,,,,,,
,,,,,,,,,,,,,,,,
,,,,,,,,,,,,,,,,
,,,,,,,,,,,,,,,,
,,,,,,,,,,,,,,,,
,,,,,,,,,,,,,,,,
,,,,,,,,,,,,,,,,
,,,,,,,,,,,,,,,,
,,,,,,,,,,,,,,,,
,,,,,,,,,,,,,,,,
,,,,,,,,,,,,,,,,
,,,,,,,,,,,,,,,,
,,,,,,,,,,,,,,,,
,,,,,,,,,,,,,,,,
,,,,,,,,,,,,,,,,
,,,,,,,,,,,,,,,,
,,,,,,,,,,,,,,,,
,,,,,,,,,,,,,,,,
,,,,,,,,,,,,,,,,
,,,,,,,,,,,,,,,,
,,,,,,,,,,,,,,,,
,,,,,,,,,,,,,,,,
,,,,,,,,,,,,,,,,
,,,,,,,,,,,,,,,,
,,,,,,,,,,,,,,,,
,,,,,,,,,,,,,,,,
,,,,,,,,,,,,,,,,
,,,,,,,,,,,,,,,,
,,,,,,,,,,,,,,,,
,,,,,,,,,,,,,,,,
,,,,,,,,,,,,,,,,
,,,,,,,,,,,,,,,,
,,,,,,,,,,,,,,,,
,,,,,,,,,,,,,,,,
,,,,,,,,,,,,,,,,
,,,,,,,,,,,,,,,,
,,,,,,,,,,,,,,,,
,,,,,,,,,,,,,,,,
,,,,,,,,,,,,,,,,
,,,,,,,,,,,,,,,,
,,,,,,,,,,,,,,,,
,,,,,,,,,,,,,,,,
,,,,,,,,,,,,,,,,
,,,,,,,,,,,,,,,,
,,,,,,,,,,,,,,,,
,,,,,,,,,,,,,,,,