﻿0.對話方式,1.角色名稱,2.台詞,3.角色起點,4.角色終點,5.行走時間,6.角色表情,7.表情符號,8.服裝,9.淡入,10.特寫,11,12.事件參數1,13.事件參數2,14.事件參數3,15.事件參數4,16.事件參數5
,,{DisableAllButton},,,,,,,,,,,,,,
,,{MoveTeach},,,,,,,,,,0,0,,,
,,{Teach},,,,,,,,,,TRUE,FALSE,,,
教學,Gin Yen,“The morning tasks are all complete!”,,,,,,,,,,,,,,
教學,Gin Yen,“Use this free time* and hire new part-time students!”,,,,,,,,,,,,,,
教學,Gin Yen,“Hiring part-time students should be executed in the Manager's Tasks of the Management Activities.”,,,,,,,,,,,,,,
,,{ShowTeachMask},,,,,,,,,,48,,,,
,,{AddHireWork},,,,,,,,,,,,,,
教學,Gin Yen,“Click <Management Actitivties>.”,,,,,,,,,,BackgroundCanvas/MainButtons/,Activity,,,
,,{ShowTeachMask},,,,,,,,,,49,,,,
,,{MoveTeach},,,,,,,,,,0,170,,,
,,{DisableButtonInChild},,,,,,,,,,GameUICanvas/MainAction/ActivityManager,,,,
教學,Gin Yen,“Click <Manager's Tasks>.”,,,,,,,,,,GameUICanvas/MainAction/ActivityManager/TypeImage/,Business,,,
,,{ClearTeachMask},,,,,,,,,,,,,,
,,{MoveTeach},,,,,,,,,,0,-180,,,
,,{DisableButtonInChild},,,,,,,,,,GameUICanvas/MainAction/ActivityManager,,,,
教學,Gin Yen,“<ＧManager's Tasks> is important work that can only be done by the manager. Including <ＧGeneral Event* Affection Event* Special Event* End Event> the 4 kinds.”,,,,,,,,,,,,,,
教學,Gin Yen,“<ＧGeneral Event> includes Debt Return* Promotion Event Holding* Part-Time Students Hiring etc…”,,,,,,,,,,,,,,
教學,Gin Yen,“This category of event will cost Action Points and Gold. To speed up the store's growth and to increase the employees' amount* in the purpose of improving the financial condition of the convenience store.”,,,,,,,,,,,,,,
教學,Gin Yen,“But before using it* there'll be preposed condition for each event. For example* Promotion Event needs to have the Development Amount of Corresponding Products; Part-Time Students need to expand the staff room……”,,,,,,,,,,,,,,
,,“Besides that* the most important one is <ＧDebt Return>. Each stage the debt is returned* <ＧEquipment Purchase> will be unlocked* and let the store's scope get one step higher.”,,,,,,,,,,,,,,
教學,Gin Yen,“But Debt Return is expensive* so before returning debts* make sure that you have sufficient inventory so it won't lead the store's management into a dead end.”,,,,,,,,,,,,,,
教學,Gin Yen,“<ＧAffection Event> appears when there's a change in the employee's Affection Level.”,,,,,,,,,,,,,,
教學,Gin Yen,“This type of event doesn't cost Action Points and Gold. It can happen at any time. Watch the play of interactions between characters.”,,,,,,,,,,,,,,
教學,Gin Yen,“<ＧSpecial Event> appears after executing its Affection Event* parts of the Special Events need to fulfill specified Shift Schedules Condition to appear.”,,,,,,,,,,,,,,
教學,Gin Yen,“As it's name means* it'll happen……Spe* Special Plays* this category of event doesn't cost Action Points and Gold* it's recommended not to watch it in public.”,,,,,,,,,,,,,,
教學,Gin Yen,“<ＧEnd Event> means* when an employee's Affection Level has reached its Maximum* an End Event Notification will show up.”,,,,,,,,,,,,,,
教學,Gin Yen,“To trigger the end* you need to satisfy all the conditions. Once it's triggered* no matter how many days are left* it will force End Event.”,,,,,,,,,,,,,,
教學,Gin Yen,“Now* although the staff room hasn't been expanded* but for the storyline* just hire 2 times part-time students for now!”,,,,,,,,,,,,,,
,,{ShowTeachMask},,,,,,,,,,50,,,,
教學,Gin Yen,“Click <Hire Part-Time Student I>.”,,,,,,,,,,GameUICanvas/MainAction/ActivityManager/BuildBusiness/ItemSpace/,Item11,,,
,,{RemoveListener},,,,,,,,,,GameUICanvas/MainAction/ActivityManager/BuildBusiness/,OKBtn,,,
,,{ShowTeachMask},,,,,,,,,,51,,,,
教學,Gin Yen,“Click <Confirm>.”,,,,,,,,,,GameUICanvas/MainAction/ActivityManager/BuildBusiness/,OKBtn,,,
,,{Loading},,,,,,,,,,2,1,0.5,,
,,{CloseMainPanel},,,,,,,,,,,,,,
,,{HireWorker},,,,,,,,,,3-4,,,,
,,{ClearTeachMask},,,,,,,,,,,,,,
,,{Teach},,,,,,,,,,FALSE,FALSE,,,
,,{MoveTeach},,,,,,,,,,400,0,,,
,,{Wait},,,,,,,,,,1,,,,
,,{Teach},,,,,,,,,,TRUE,FALSE,,,
,,{ShowTeachMask},,,,,,,,,,52,,,,
,,{DisableButtonInChild},,,,,,,,,,GameUICanvas/MainAction/BuildHireWork,,,,
教學,Gin Yen,“Click <Yvonne Xie>.”,,,,,,,,,,GameUICanvas/MainAction/BuildHireWork/,Worker3,,,
,,{RemoveListener},,,,,,,,,,GameUICanvas/MainAction/BuildHireWork/Space/,OKBtn,,,
,,{ShowTeachMask},,,,,,,,,,53,,,,
教學,Gin Yen,“Click <Confirm>.”,,,,,,,,,,GameUICanvas/MainAction/BuildHireWork/Space/,OKBtn,,,
,,{ClearTeachMask},,,,,,,,,,,,,,
,,{Teach},,,,,,,,,,FALSE,FALSE,,,
,,{Loading},,,,,,,,,,4,3,0.5,,
,,{Teach},,,,,,,,,,FALSE,TRUE,,,
,,{CreateBackground},,,,,,,,,,Store1,,,,
,,{PlayBGM},,,,,,,,,,bgm_joke02,0.5,,,
,,{Wait},,,,,,,,,,0.5,,,,
對話,Yvonne Xie,“Hello* I'm Yvonne I went to college in the Sotuh and came to the North. My expertise is coffee making* hope we'll get along!”,900,450,0.5,EX18,,,TRUE,,,,,,,
對話,Gin Yen,“Welcome~”,-450,,,1,,制服,TRUE,,,,,,,
對話,Yvonne Xie,“This is the coffee I made* enjoy.”,450,,,EX18,開心,,,,,,,,,
,,{PlayEffect},,,,,,,,,,se_drink,FALSE,,,
對話,Gin Yen,“So sweet!! How many cubes of sugar did you do in this cup of coffee?”,-450,,,8,驚嘆號,制服,,,,,,,,
對話,Yvonne Xie,“Eek? Using 'Low Sweet' when recommending to customers* isn't in the common sense of the field?”,450,,,EX18,,,,,,,,,,
對話,Yvonne Xie,“I did it in accordance of the recipe where I used to work* 70g of sugar into 30cc of coffee.”,450,,,EX18,,,,,,,,,,
對話,Gin Yen,“It seems that I'll need to newly give you this store's common senses…..”,-450,,,3,汗顏,制服,,,,,,,,
,,{DeleteAllActor},,,,,,,,,,,,,,
,,{Wait},,,,,,,,,,1,,,,
,,{CancelSkip},,,,,,,,,,,,,,
,,{CancelHireWorker},,,,,,,,,,,,,,
,,{Loading},,,,,,,,,,4,3,0.5,,
,,{Teach},,,,,,,,,,FALSE,FALSE,,,
,,{HireWorkerComplete},,,,,,,,,,,,,,
,,{Wait},,,,,,,,,,2,,,,
