人氣值	清潔度	治安度	天數	班次	行為種類	名稱	玩家金錢	商品賺錢	收入加成(食品)	收入加成(飲品)	收入加成(雜貨)	商品銷量
103	96(-4+0)	96(-4+0)	第1天	晚班	改良	生蠔煎	1,658	1,620	1.2	1.2	1.2	
106	92(-4+0)	92(-4+0)	第1天	大夜	改良	生蠔煎	2,678	1,020	1.2	1.2	1.2	
109	98(-4+10)	88(-4+0)	第2天	早班	活動:	+10清	9,198	7,520	1.2	1.2	1.2	
109	98(-4+0)	88(-4+0)	第2天	早班	研發	飲(中)	9,198	7,520	1.2	1.2	1.2	
112	94(-4+0)	94(-4+10)	第2天	晚班	活動:	+10治	1,862	924	1.2	1.2	1.2	
112	94(-4+0)	94(-4+0)	第2天	晚班	休息		1,862	924	1.2	1.2	1.2	
120	90(-4+0)	90(-4+0)	第2天	大夜	研發	雜(小)	3,114	1,752	1.2	1.2	1.2	
124	86(-4+0)	86(-4+0)	第3天	早班	研發	雜(中)	5,426	3,312	1.2	1.2	1.2	
128	92(-4+10)	82(-4+0)	第3天	晚班	活動:	+10清	6,942	2,616	1.2	1.2	1.2	
128	92(-4+0)	82(-4+0)	第3天	晚班	研發	食(中)	6,942	2,616	1.2	1.2	1.2	
132	88(-4+0)	78(-4+0)	第3天	大夜	研發	食(中)	9,350	3,408	1.2	1.2	1.2	
135	100(-4+20)	74(-4+0)	第4天	早班	活動:	+20清	13,466	4,616	1.2	1.2	1.2	
135	100(-4+0)	84(-4+10)	第4天	早班	活動:	+10治	13,466	4,616	1.2	1.2	1.2	
135	100(-4+0)	84(-4+0)	第4天	早班	研發	食(小)	13,466	4,616	1.2	1.2	1.2	
138	100(-4+10)	80(-4+0)	第4天	晚班	活動:	+10清	16,144	3,528	1.2	1.2	1.2	
138	100(-4+0)	80(-4+0)	第4天	晚班	研發	飲(小)	16,144	3,528	1.2	1.2	1.2	
141	96(-4+0)	96(-4+20)	第4天	大夜	活動:	+20治	27,502	11,358	1.5	1.2	1.2	
141	96(-4+0)	96(-4+0)	第4天	大夜	業務:	舉行食品推廣活動	27,502	11,358	1.5	1.2	1.2	
144	92(-4+0)	100(-4+10)	第5天	早班	活動:	+10治	46,536	19,034	1.2	1.2	1.2	
144	92(-4+0)	100(-4+0)	第5天	早班	改良	超薄型口香糖	46,536	19,034	1.2	1.2	1.2	
147	88(-4+0)	96(-4+0)	第5天	晚班	研發	食(大)	34,860	18,084	1.2	1.2	1.2	
150	84(-4+0)	92(-4+0)	第5天	大夜	研發	雜(大)	35,482	5,622	1.2	1.2	1.2	
153	90(-4+10)	88(-4+0)	第6天	早班	活動:	+10清	48,970	13,488	1.2	1.2	1.2	
153	90(-4+0)	88(-4+0)	第6天	早班	改良	腳踏車牌醬油	48,970	13,488	1.2	1.2	1.2	
156	100(-4+35)	84(-4+0)	第6天	晚班	活動:	+35清	29,498	12,828	1.2	1.2	1.2	
156	100(-4+0)	84(-4+0)	第6天	晚班	研發	飲(大)	29,498	12,828	1.2	1.2	1.2	
159	100(-4+20)	80(-4+0)	第6天	大夜	活動:	+20清	59,318	29,820	1.5	1.2	1.2	
159	100(-4+0)	80(-4+0)	第6天	大夜	業務:	舉行食品推廣活動	59,318	29,820	1.5	1.2	1.2	
162	96(-4+0)	76(-4+0)	第7天	早班	研發	食(大)	82,126	27,808	1.2	1.2	1.2	
165	92(-4+0)	100(-4+35)	第7天	晚班	活動:	+35治	102,910	23,184	1.2	1.2	1.2	
165	92(-4+0)	100(-4+10)	第7天	晚班	活動:	+10治	102,910	23,184	1.2	1.2	1.2	
165	92(-4+0)	100(-4+0)	第7天	晚班	改良	超薄型口香糖	102,910	23,184	1.2	1.2	1.2	
165	92(-4+0)	100(-4+0)	第7天	晚班	業務:	工讀生招募I	97,910	23,184	1.2	1.2	1.2	
168	88(-4+0)	96(-4+0)	第7天	大夜	改良	超薄型口香糖	121,334	23,424	1.2	1.2	1.2	
172	84(-4+0)	100(-4+20)	第8天	早班	活動:	+20治	160,694	39,360	1.5	1.2	1.2	
172	84(-4+0)	100(-4+0)	第8天	早班	業務:	舉行食品推廣活動	160,694	39,360	1.5	1.2	1.2	
176	90(-4+10)	96(-4+0)	第8天	晚班	活動:	+10清	123,393	45,720	1.2	1.2	1.2	
176	90(-4+0)	96(-4+0)	第8天	晚班	改良	珍珠奶茶	123,393	45,720	1.2	1.2	1.2	
180	100(-4+35)	92(-4+0)	第8天	大夜	活動:	+35清	151,501	33,108	1.2	1.2	1.2	
180	100(-4+0)	92(-4+0)	第8天	大夜	研發	飲(大)	151,501	33,108	1.2	1.2	1.2	
184	96(-4+0)	88(-4+0)	第9天	早班	業務:	還債1/3	106,517	5,016	1.2	1.2	1.2	
188	100(-4+20)	84(-4+0)	第9天	晚班	活動:	+20清	105,975	24,936	1.2	1.2	1.2	
188	100(-4+10)	84(-4+0)	第9天	晚班	活動:	+10清	105,975	24,936	1.2	1.2	1.2	
188	100(-4+0)	84(-4+0)	第9天	晚班	研發	飲(中)	105,975	24,936	1.2	1.2	1.2	
192	96(-4+0)	100(-4+35)	第9天	大夜	活動:	+35治	109,779	3,804	1.2	1.2	1.2	
192	96(-4+0)	100(-4+10)	第9天	大夜	活動:	+10治	109,779	3,804	1.2	1.2	1.2	
192	96(-4+0)	100(-4+0)	第9天	大夜	改良	珍珠奶茶	109,779	3,804	1.2	1.2	1.2	
196	92(-4+0)	100(-4+20)	第10天	早班	活動:	+20治	140,851	41,072	1.275	1.275	1.275	
196	92(-4+0)	100(-4+0)	第10天	早班	擴建	關東煮Lv.2	140,851	41,072	1.275	1.275	1.275	
200	87(-5+0)	95(-5+0)	第10天	晚班	擴建	熱狗機Lv.2	161,327	32,751	1.35	1.35	1.35	
204	82(-5+0)	90(-5+0)	第10天	大夜	改良	珍珠奶茶	196,292	34,965	1.35	1.35	1.35	
208	87(-5+10)	85(-5+0)	第11天	早班	活動:	+10清	281,787	90,495	1.6875	1.6875	1.6875	
208	87(-5+0)	85(-5+0)	第11天	早班	業務:	舉行內衣感謝祭活動	281,787	90,495	1.6875	1.6875	1.6875	
212	100(-5+35)	80(-5+0)	第11天	晚班	活動:	+35清	359,134	121,805	1.35	1.35	1.35	
212	100(-5+0)	80(-5+0)	第11天	晚班	改良	腳踏車牌醬油	359,134	121,805	1.35	1.35	1.35	
212	100(-5+0)	80(-5+0)	第11天	晚班	業務:	工讀生招募I	354,134	121,805	1.35	1.35	1.35	
216	100(-5+20)	75(-5+0)	第11天	大夜	活動:	+20清	451,334	97,200	1.35	1.35	1.35	
216	100(-5+0)	75(-5+0)	第11天	大夜	改良	腳踏車牌醬油	451,334	97,200	1.35	1.35	1.35	
216	100(-5+0)	75(-5+0)	第11天	大夜	業務:	工讀生招募I	446,334	97,200	1.8	1.8	1.8	
220	95(-5+0)	80(-5+10)	第12天	早班	活動:	+10治	540,734	104,400	1.35	1.35	1.35	
220	95(-5+0)	80(-5+0)	第12天	早班	擴建	吸塵器	540,734	104,400	1.35	1.35	1.35	
224	90(-5+0)	100(-5+35)	第12天	晚班	活動:	+35治	483,835	72,901	1.6875	1.6875	1.6875	
224	100(-5+10)	100(-5+0)	第12天	晚班	活動:	+10清	483,835	72,901	1.6875	1.6875	1.6875	
224	100(-5+0)	100(-5+0)	第12天	晚班	業務:	舉行內衣感謝祭活動	483,835	72,901	1.6875	1.6875	1.6875	
228	94(-6+0)	100(-6+20)	第12天	大夜	活動:	+20治	567,072	133,237	1.425	1.425	1.425	
228	94(-6+0)	100(-6+0)	第12天	大夜	擴建	關東煮Lv.3	567,072	133,237	0.9975001	1.425	1.425	
232	88(-6+0)	100(-6+10)	第13天	早班	活動:	+10治	601,671	34,599	0.9975001	1.425	1.425	
232	88(-6+0)	100(-6+0)	第13天	早班	改良	玩你命3000	601,671	34,599	0.9975001	1.425	1.425	
236	100(-6+35)	94(-6+0)	第13天	晚班	活動:	+35清	534,689	107,446	0.9975001	1.425	1.425	
236	100(-6+10)	94(-6+0)	第13天	晚班	活動:	+10清	534,689	107,446	0.9975001	1.425	1.425	
236	100(-6+0)	94(-6+0)	第13天	晚班	業務:	還債2/3	534,689	107,446	0.9975001	1.425	1.425	
240	100(-6+20)	88(-6+0)	第13天	大夜	活動:	+20清	573,734	39,045	1.425	1.425	1.425	
240	100(-6+0)	88(-6+0)	第13天	大夜	改良	玩你命3000	573,734	39,045	1.425	1.425	1.425	
244	94(-6+0)	82(-6+0)	第14天	早班	改良	玩你命3000	625,414	51,680	1.425	1.425	1.425	
248	88(-6+0)	86(-6+10)	第14天	晚班	活動:	+10治	626,060	43,606	1.425	1.425	1.425	
248	88(-6+0)	86(-6+0)	第14天	晚班	研發	食(小)	626,060	43,606	1.425	1.425	1.425	
248	88(-6+0)	86(-6+0)	第14天	晚班	業務:	工讀生招募I	621,060	43,606	1.425	1.425	1.425	
252	82(-6+0)	100(-6+35)	第14天	大夜	活動:	+35治	676,766	60,706	1.425	1.425	1.425	
252	82(-6+0)	100(-6+0)	第14天	大夜	研發	飲(大)	676,766	60,706	1.425	1.425	1.425	
256	96(-6+20)	100(-6+20)	第15天	早班	活動:	+20治	506,984	80,218	1.425	1.425	1.425	
256	96(-6+20)	100(-6+0)	第15天	早班	擴建	新型自動吸塵器	506,984	80,218	1.425	1.425	1.425	
260	100(-6+20)	100(-6+10)	第15天	晚班	活動:	+10治	346,090	44,603	1.425	1.425	1.425	
260	100(-6+30)	100(-6+0)	第15天	晚班	活動:	+10清	346,090	44,603	1.425	1.425	1.425	
260	100(-6+20)	100(-6+0)	第15天	晚班	業務:	還債3/3	346,090	44,603	1.425	1.425	1.425	
260	100(-6+20)	100(-6+0)	第15天	晚班	業務:	工讀生招募I	341,090	44,603	1.425	1.425	1.425	
264	100(-6+55)	94(-6+0)	第15天	大夜	活動:	+35清	385,407	44,817	1.425	1.425	1.425	
264	100(-6+20)	94(-6+0)	第15天	大夜	研發	飲(小)	385,407	44,817	1.425	1.425	1.425	
268	100(-6+40)	88(-6+0)	第16天	早班	活動:	+20清	442,069	57,162	1.425	1.425	1.425	
268	100(-6+20)	88(-6+0)	第16天	早班	研發	雜(小)	442,069	57,162	1.425	1.425	1.425	
272	100(-6+30)	82(-6+0)	第16天	晚班	活動:	+10清	487,563	52,989	1.425	1.425	1.425	
272	100(-6+20)	92(-6+10)	第16天	晚班	活動:	+10治	487,563	52,989	1.425	1.425	1.425	
272	100(-6+20)	92(-6+0)	第16天	晚班	改良	秘傳小米酒	487,563	52,989	1.425	1.425	1.425	
276	100(-6+20)	100(-6+35)	第16天	大夜	活動:	+35治	545,418	57,855	1.425	1.425	1.425	
276	100(-6+20)	100(-6+0)	第16天	大夜	改良	秘傳小米酒	545,418	57,855	1.425	1.425	1.425	
280	100(-7+20)	100(-7+20)	第17天	早班	活動:	+20治	508,213	62,795	1.425	1.425	1.425	
280	100(-7+20)	100(-7+0)	第17天	早班	擴建	販售報紙	508,213	62,795	1.425	1.425	1.425	
284	100(-7+20)	100(-7+10)	第17天	晚班	活動:	+10治	508,357	89,562	1.78125	1.78125	1.78125	
284	100(-7+20)	100(-7+0)	第17天	晚班	業務:	舉行內衣感謝祭活動	508,357	89,562	1.78125	1.78125	1.78125	
288	100(-7+55)	93(-7+0)	第17天	大夜	活動:	+35清	647,526	139,169	1.425	1.425	1.425	
288	100(-7+30)	93(-7+0)	第17天	大夜	活動:	+10清	647,526	139,169	1.425	1.425	1.425	
288	100(-7+20)	93(-7+0)	第17天	大夜	改良	秘傳小米酒	647,526	139,169	1.425	1.425	1.425	
293	100(-7+40)	86(-7+0)	第18天	早班	活動:	+20清	884,326	286,800	1.5	1.5	1.5	
293	100(-7+20)	86(-7+0)	第18天	早班	擴建	熱狗機Lv.3	884,326	286,800	1.5	1.5	1.5	
293	100(-7+20)	86(-7+0)	第18天	早班	業務:	工讀生招募I	768,726	286,800	1.5	1.5	1.5	
298	100(-7+20)	79(-7+0)	第18天	晚班	研發	飲(大)	978,976	215,250	1.5	1.5	1.5	
318	100(-8+30)	81(-8+10)	第18天	大夜	活動:	+10治	943,626	64,650	1.5	1.5	1.5	
318	100(-8+30)	81(-8+0)	第18天	大夜	擴建	舊型自動吸塵器	943,626	64,650	1.5	1.5	1.5	
323	100(-8+30)	100(-8+35)	第19天	早班	活動:	+35治	1,143,836	210,210	1.575	1.575	1.575	
323	100(-8+30)	100(-8+0)	第19天	早班	擴建	用餐區Lv.2	1,143,836	210,210	1.575	1.575	1.575	
328	100(-9+30)	100(-9+20)	第19天	晚班	活動:	+20治	1,133,356	80,982	1.65	1.65	1.65	
328	100(-9+40)	100(-9+0)	第19天	晚班	活動:	+10清	1,133,356	80,982	1.65	1.65	1.65	
328	100(-9+30)	100(-9+0)	第19天	晚班	擴建	店到店取件	1,133,356	80,982	1.65	1.65	1.65	
333	100(-9+30)	100(-9+20)	第19天	大夜	活動:	+10治	1,103,184	69,828	1.65	1.65	1.65	
333	100(-9+30)	100(-9+10)	第19天	大夜	擴建	巡邏箱	1,103,184	69,828	1.65	1.65	1.65	
338	100(-9+65)	100(-9+10)	第20天	早班	活動:	+35清	1,349,024	246,840	1.65	1.65	1.65	
338	100(-9+50)	100(-9+10)	第20天	早班	活動:	+20清	1,349,024	246,840	1.65	1.65	1.65	
338	100(-9+30)	100(-9+10)	第20天	早班	研發	食(中)	1,349,024	246,840	1.65	1.65	1.65	
343	100(-9+40)	100(-9+10)	第20天	晚班	活動:	+10清	1,332,580	67,980	1.65	1.65	1.65	
343	100(-9+30)	100(-9+10)	第20天	晚班	研發	雜(大)	1,332,580	67,980	1.65	1.65	1.65	
348	100(-9+30)	100(-9+10)	第20天	大夜	研發	雜(大)	1,395,560	67,980	1.65	1.65	1.65	
353	100(-10+30)	100(-10+45)	第21天	早班	活動:	+35治	1,487,174	101,614	1.725	1.725	1.725	
353	100(-10+30)	100(-10+10)	第21天	早班	擴建	黑柴宅急便	1,487,174	101,614	1.725	1.725	1.725	
358	100(-10+30)	100(-10+10)	第21天	晚班	擴建	特殊商品櫃	1,138,678	74,934	1.725	1.725	1.725	
363	100(-10+30)	100(-10+30)	第21天	大夜	活動:	+20治	1,213,371	75,693	1.725	1.725	1.725	
363	100(-10+40)	100(-10+10)	第21天	大夜	活動:	+10清	1,213,371	75,693	1.725	1.725	1.725	
363	100(-10+30)	100(-10+10)	第21天	大夜	研發	雜(中)	1,213,371	75,693	1.725	1.725	1.725	
368	100(-10+65)	100(-10+10)	第22天	早班	活動:	+35清	1,558,889	345,518	1.725	1.725	1.725	
368	100(-10+30)	100(-10+10)	第22天	早班	改良	經典鐵路便當	1,558,889	345,518	1.725	1.725	1.725	
373	100(-11+50)	99(-11+10)	第22天	晚班	活動:	+20清	1,559,691	73,243	1.725	1.725	1.725	
373	100(-11+30)	100(-11+20)	第22天	晚班	活動:	+10治	1,559,691	73,243	1.725	1.725	1.725	
373	100(-11+30)	100(-11+10)	第22天	晚班	擴建	監視器	1,559,691	73,243	1.725	1.725	1.725	
378	100(-11+40)	100(-11+30)	第22天	大夜	活動:	+10清	1,385,418	75,727	0.8625	1.725	1.725	
378	100(-11+30)	100(-11+30)	第22天	大夜	擴建	紅外線監視器	1,385,418	75,727	0.8625	1.725	1.725	
383	100(-11+30)	100(-11+65)	第23天	早班	活動:	+35治	2,048,427	673,009	1.29375	2.5875	2.5875	
383	100(-11+30)	100(-11+30)	第23天	早班	業務:	舉行Cosplay感謝祭活動	2,048,427	673,009	1.29375	2.5875	2.5875	
388	100(-12+30)	100(-12+30)	第23天	晚班	擴建	員工休息室Lv.1	1,798,926	351,900	0.8625	1.725	1.725	
393	100(-12+40)	100(-12+30)	第23天	大夜	活動:	+10清	2,093,901	294,975	1.725	1.725	1.725	
393	100(-12+30)	100(-12+30)	第23天	大夜	改良	經典鐵路便當	2,093,901	294,975	1.725	1.725	1.725	
398	100(-12+65)	100(-12+30)	第24天	早班	活動:	+35清	1,793,901	0	1.725	1.725	1.725	
398	100(-12+30)	100(-12+30)	第24天	早班	擴建	轉蛋機	1,793,901	0	1.725	1.725	1.725	
398	100(-13+30)	100(-13+30)	第24天	早班	擴建	員工休息室Lv.2	940,701	0	1.725	1.725	1.725	
404	100(-13+50)	100(-13+30)	第24天	晚班	活動:	+20清	901,141	10,440	1.8	1.8	1.8	
404	100(-13+30)	100(-13+30)	第24天	晚班	擴建	用餐區Lv.3	901,141	10,440	1.8	1.8	1.8	
410	100(-13+40)	100(-13+30)	第24天	大夜	活動:	+10清	908,701	7,560	1.8	1.8	1.8	
410	100(-13+30)	100(-13+30)	第24天	大夜	改良	經典鐵路便當	908,701	7,560	1.8	1.8	1.8	
416	100(-14+30)	100(-14+65)	第25天	早班	活動:	+35治	1,009,001	150,300	1.875	1.875	1.875	
416	100(-14+30)	100(-14+40)	第25天	早班	活動:	+10治	1,009,001	150,300	1.875	1.875	1.875	
416	100(-14+30)	100(-14+30)	第25天	早班	擴建	網路購物取件	1,009,001	150,300	1.875	1.875	1.875	
416	100(-14+30)	100(-14+30)	第25天	早班	業務:	舉行雜貨推廣活動	991,516	150,300	1.875	1.875	2.34375	
422	100(-14+30)	100(-14+50)	第25天	晚班	活動:	+20治	1,010,031	18,515	1.875	1.875	2.34375	
422	100(-14+30)	100(-14+30)	第25天	晚班	業務:	特殊商品探索	1,010,031	18,515	0.9374999	1.875	2.34375	
430	100(-14+40)	100(-14+30)	第25天	大夜	活動:	+10清	520,168	10,137	0.9374999	1.875	1.875	
430	100(-14+30)	100(-14+30)	第25天	大夜	擴建	廁所	520,168	10,137	0.9374999	1.875	1.875	
438	100(-15+65)	100(-15+30)	第26天	早班	活動:	+35清	1,130,268	620,100	0.9749999	1.95	1.95	
438	100(-15+30)	100(-15+40)	第26天	早班	活動:	+10治	1,130,268	620,100	0.9749999	1.95	1.95	
438	100(-15+30)	100(-15+30)	第26天	早班	擴建	代繳罰單	1,130,268	620,100	0.9749999	1.95	1.95	
438	100(-15+65)	100(-15+30)	第26天	早班	擴建	萌系女僕掃地機器人	573,822	620,100	0.9749999	1.95	1.95	
446	100(-15+85)	100(-15+30)	第26天	晚班	活動:	+20清	588,447	14,625	1.95	1.95	1.95	
446	100(-15+65)	100(-15+30)	第26天	晚班	業務:	特殊商品探索	588,447	14,625	1.95	1.95	1.95	
454	100(-15+75)	100(-15+30)	第26天	大夜	活動:	+10清	813,909	235,462	2.925	2.925	2.925	
454	100(-15+65)	100(-15+30)	第26天	大夜	業務:	舉行Cosplay感謝祭活動	813,909	235,462	2.925	2.925	2.925	
462	100(-16+65)	100(-16+65)	第27天	早班	活動:	+35治	1,248,821	834,912	1.95	1.95	1.95	
462	100(-16+65)	100(-16+40)	第27天	早班	活動:	+10治	1,248,821	834,912	1.95	1.95	1.95	
462	100(-16+65)	100(-16+30)	第27天	早班	擴建	擴充後勤倉庫2	1,248,821	834,912	1.95	1.95	1.95	
462	100(-16+65)	100(-16+30)	第27天	早班	擴建	咖啡機	564,961	834,912	2.1	2.1	2.1	
470	100(-16+65)	100(-16+50)	第27天	晚班	活動:	+20治	585,961	21,000	2.1	2.1	2.1	
470	100(-16+65)	100(-16+30)	第27天	晚班	業務:	特殊商品探索	585,961	21,000	1.05	2.1	2.1	
470	100(-16+65)	100(-16+30)	第27天	晚班	休息		585,961	21,000	1.05	2.1	2.1	
478	100(-16+75)	100(-16+30)	第27天	大夜	活動:	+10清	889,258	303,297	1.05	2.1	2.1	
478	100(-16+65)	100(-16+30)	第27天	大夜	休息		889,258	303,297	1.05	2.1	2.1	
486	100(-16+100)	100(-16+30)	第28天	早班	活動:	+35清	1,445,758	556,500	1.05	2.1	2.1	
511	100(-16+65)	100(-16+40)	第28天	早班	活動:	+10治	1,445,758	556,500	1.05	2.1	2.1	
511	100(-16+65)	100(-16+30)	第28天	早班	業務:	特殊商品探索	1,445,758	556,500	1.05	2.1	2.1	
511	100(-17+65)	100(-17+65)	第28天	早班	擴建	萌系女僕監視機器人	865,336	556,500	1.05	2.1	2.1	
519	100(-17+85)	100(-17+65)	第28天	晚班	活動:	+20清	1,066,071	200,735	2.1	2.1	2.625	
519	100(-17+65)	100(-17+65)	第28天	晚班	業務:	舉行雜貨推廣活動	1,066,071	200,735	2.1	2.1	2.625	
519	100(-17+65)	100(-17+65)	第28天	晚班	業務:	特殊商品探索	1,066,071	200,735	2.1	2.1	2.625	
527	100(-17+75)	100(-17+65)	第28天	大夜	活動:	+10清	1,289,891	223,820	2.1	2.1	2.1	
527	100(-17+65)	100(-17+65)	第28天	大夜	休息		1,289,891	223,820	2.1	2.1	2.1	
535	100(-17+65)	100(-17+100)	第29天	早班	活動:	+35治	1,070,831	380,940	2.1	2.1	2.1	
535	100(-17+65)	100(-17+75)	第29天	早班	活動:	+10治	1,070,831	380,940	2.1	2.1	2.1	
540	100(-17+65)	100(-17+65)	第29天	早班	擴建	擴充後勤倉庫3	1,070,831	380,940	2.1	2.1	2.1	
540	100(-17+65)	100(-17+65)	第29天	早班	改良	國安菸	874,591	380,940	2.1	2.1	2.1	
548	100(-17+65)	100(-17+85)	第29天	晚班	活動:	+20治	1,050,991	176,400	2.1	2.1	2.1	
548	100(-17+65)	100(-17+65)	第29天	晚班	業務:	特殊商品探索	1,050,991	176,400	1.05	2.1	2.1	
548	100(-17+65)	100(-17+65)	第29天	晚班	改良	國安菸	1,050,991	176,400	1.05	2.1	2.1	
556	100(-17+75)	100(-17+65)	第29天	大夜	活動:	+10清	1,213,481	162,490	1.05	2.1	2.1	
556	100(-17+65)	100(-17+65)	第29天	大夜	改良	國安菸	1,213,481	162,490	1.05	2.1	2.1	
565	100(-17+100)	100(-17+65)	第30天	早班	活動:	+35清	1,527,019	313,538	1.05	2.1	2.625	
565	100(-17+65)	100(-17+75)	第30天	早班	活動:	+10治	1,527,019	313,538	1.05	2.1	2.625	
570	100(-17+65)	100(-17+65)	第30天	早班	業務:	舉行雜貨推廣活動	1,527,019	313,538	1.05	2.1	2.625	
570	100(-17+65)	100(-17+65)	第30天	早班	業務:	特殊商品探索	1,445,598	313,538	1.05	2.1	2.625	
579	100(-17+85)	100(-17+65)	第30天	晚班	活動:	+20清	1,738,560	292,962	2.1	2.1	2.1	
594	100(-17+65)	100(-17+65)	第30天	晚班	休息		1,738,560	292,962	2.1	2.1	2.1	
594	100(-18+65)	100(-18+65)	第30天	晚班	擴建	擴充後勤倉庫4	938,560	292,962	2.1	2.1	2.1	
603	100(-18+75)	100(-18+65)	第30天	大夜	活動:	+10清	1,204,630	266,070	2.1	2.1	2.1	
603	100(-18+65)	100(-18+65)	第30天	大夜	業務:	特殊商品探索	1,204,630	266,070	2.1	2.1	2.1	
