﻿0.對話方式,1.角色名稱,2.台詞,3.角色起點,4.角色終點,5.行走時間,6.角色表情,7.表情符號,8.服裝,9.淡入,10.特寫,11,12.事件參數1,13.事件參數2,14.事件參數3,15.事件參數4,16.事件參數5
,,{CreateBackground},,,,,,,,,,Store,,,,
,,{PlayBGM},,,,,,,,,,bgm_days01,0.5,,,
,,{Wait},,,,,,,,,,0.5,,,,
對話,Gin Yen,"""I've finally understood that the coffee machine is dysfunctional if we use tea leaves…….""",0,,,12,,半制服,TRUE,TRUE,,,,,,
對話,Gin Yen,“I hope this time nothing will go wrong.”,0,,,12,,半制服,,TRUE,,,,,,
,,{PlayEffect},,,,,,,,,,se_bell,FALSE,,,
,,{DeleteAllActor},,,,,,,,,,,,,,
,,{Wait},,,,,,,,,,1,,,,
,,{PlayEffect},,,,,,,,,,se_walk,FALSE,,,
對話,Customer,“I want a large cup of latte* no ice.”,900,450,0.5,EX13,,,TRUE,,,,,,,
對話,Gin Yen,“Sure* coming right up.”,-450,,,1,,半制服,TRUE,,,,,,,
對話,Customer,“Do you provide pick up service for your coffees?”,450,,,EX13,,,,,,,,,,
對話,Gin Yen,“Pick up……do you mean prepaying for the coffee? I'm sorry* but we don't offer this service.”,-450,,,1,反問號,半制服,,,,,,,,
對話,Customer,“I just thought that since your coffee smells so good. It would be more convenient if I could pick up the coffee at any time.”,450,,,EX13,,,,,,,,,,
對話,Gin Yen,“Thanks for the suggestion! I'll pass it along and notify the manager!”,-450,,,4,開心,半制服,,,,,,,,
,,{DeleteAllActor},,,,,,,,,,,,,,
心想,Gin Yen,(Great* the customer seems happy.),0,,,4,得意,半制服,TRUE,TRUE,,,,,,
,,{Wait},,,,,,,,,,1.5,,,,
,,{DeleteAllActor},,,,,,,,,,,,,,
