﻿0.對話方式,1.角色名稱,2.台詞,3.角色起點,4.角色終點,5.行走時間,6.角色表情,7.表情符號,8.服裝,9.淡入,10.特寫,11,12.事件參數1,13.事件參數2,14.事件參數3,15.事件參數4,16.事件參數5
,,{CreateBackground},,,,,,,,,,Store,,,,
,,{PlayBGM},,,,,,,,,,bgm_days01,0.5,,,
,,{Wait},,,,,,,,,,0.5,,,,
,,{PlayEffect},,,,,,,,,,se_bell,FALSE,,,
,,{Wait},,,,,,,,,,1,,,,
,,{PlayEffect},,,,,,,,,,se_walk,FALSE,,,
對話,Little girl,“Do you have ByeBye Bunny towel?”,900,450,0.5,EX10,,,TRUE,,,,,,,
對話,Gin Yen,“ByeBye Bunny? What's that?”,-450,,,5,反問號,半制服,TRUE,,,,,,,
對話,Little girl,"""It's a cute rabbit* white* soft* but without a nose.""",450,,,EX10,,,,,,,,,,
對話,Gin Yen,“Hm….I don't really get it. I think I've seen something like that though……”,-450,,,12,,半制服,,,,,,,,
對話,Gin Yen,“Is it this ‘ByeBye Bunny’ flagship memories towels?”,-450,,,5,,半制服,,,,,,,,
對話,Little girl,“Wow! That's the exact towel! I checked so many stores and they were all sold out!”,450,,,EX10,,,,,,,,,,
對話,Little girl,“Thank you!”,450,,,EX10,開心,,,,,,,,,
對話,Gin Yen,“I'm glad we were able to help you.”,-450,,,1,開心,半制服,,,,,,,,
,,{Wait},,,,,,,,,,1.5,,,,
,,{DeleteAllActor},,,,,,,,,,,,,,
