﻿0.對話方式,1.角色名稱,2.台詞,3.角色起點,4.角色終點,5.行走時間,6.角色表情,7.表情符號,8.服裝,9.淡入,10.特寫,11,12.事件參數1,13.事件參數2,14.事件參數3,15.事件參數4,16.事件參數5
,,{CreateBackground},,,,,,,,,,Black,,,,
,,{Wait},,,,,,,,,,0.5,,,,
旁白,,After our hardwork* Gin* Lycianna and myself* had prepared for the worst case scenario.,,,,,,,,,,,,,,
旁白,,But there are some things we had to confirm on our own. For that* I went alone to the orphanage of Elissa.,,,,,,,,,,,,,,
,,{PlayEffect},,,,,,,,,,se_walk,FALSE,,,
,,{FadeBGM},,,,,,,,,,0,1,,,
,,{Loading},,,,,,,,,,1.5,1.5,1,,
,,{PlayBGM},,,,,,,,,,bgm_days02,0.5,,,
,,{CreateBackground},,,,,,,,,,Orphanage,,,,
,,{Wait},,,,,,,,,,0.5,,,,
旁白,,Following the address listed on the employee profile list* I came to an orphanage located on a corner of the city. For safety* I immediately took some precautions.,,,,,,,,,,,,,,
旁白,,I don't know if I should feel lucky* but the moment I entered* I saw some familiar faces.,,,,,,,,,,,,,,
對話,Manager,“Is Elissa here?”,-700,,,1,,西裝,TRUE,,,,,,,
對話,little girlＡ,“Ah….! It's the Manager!”,-280,,,EX15,,,TRUE,,,,,,,
對話,little girlＢ,“Sister* come and see!”,280,,,EX16,,,TRUE,,,,,,,
對話,little girlＣ,“Is the Manager here to take you back to the store and make you do extra hours?”,700,,,EX10,問號,,TRUE,,,,,,,
,,{Wait},,,,,,,,,,0.5,,,,
,,{DeleteAllActor},,,,,,,,,,,,,,
對話,Elissa Lin,“What happened? Don't make trouble for the customers.”,450,,,1,,私服,TRUE,,,,,,,
,Manager,{CreateActor},-450,,,1,,西裝,TRUE,,,,,,,
對話,Elissa Lin,“Huh! Manager* what-what-why are you here!!!”,450,,,6,,私服,,,,,,,,
對話,Elissa Lin,“Was I supposed to work today?”,450,,,2,,私服,,,,,,,,
對話,Manager,“Nope* it's not your shift today. I just came to visit you. I care about the life of my employees.”,-450,,,1,,西裝,,,,,,,,
對話,Elissa Lin,“I see* welcome!”,450,,,4,,私服,,,,,,,,
對話,Elissa Lin,“Do you guys remember? It's the manager of the convenience store. Come greet him.”,450,,,4,開心,私服,,,,,,,,
,,{Wait},,,,,,,,,,0.5,,,,
,,{DeleteAllActor},,,,,,,,,,,,,,
對話,little girlＡ,“Is it that evil Manager. With scary eyes* whenever he's cashing out?”,-600,,,EX15,,,TRUE,,,,,,,
對話,little girlＢ,“Is he coming to train us to jump through hoops?”,0,,,EX16,,,TRUE,,,,,,,
對話,little girlＣ,“No….Boohoo………I don't want to keep smiling.”,600,,,EX10,汗顏,,TRUE,,,,,,,
,,{Wait},,,,,,,,,,0.5,,,,
,,{DeleteAllActor},,,,,,,,,,,,,,
,,{PlayEffect},,,,,,,,,,se_bad,FALSE,,,
對話,Manager,“Elissa* what the hell have you been telling the kids?”,-450,,,6,玻璃心,西裝,TRUE,,,,,,,
對話,Elissa Lin,“I've been telling them about your great achievements.”,450,,,4,,私服,TRUE,,,,,,,
對話,Elissa Lin,“Like tying up Sister Lycianna when she's naughty* stopping a truck that has lost control and of course all the courses you underwent during staff training.”,450,,,4,,私服,,,,,,,,
對話,Elissa Lin,“I'm used to it now* but they are always scared when listening to my stories.”,450,,,1,,私服,,,,,,,,
對話,Manager,“Ok* fine….I understand…..”,-450,,,5,無言,西裝,,,,,,,,
對話,Manager,“Luckily* I was prepared.”,-450,,,1,,西裝,,,,,,,,
對話,Manager,“Kiddos* be happy! I brought a lot of snacks for you.”,-450,,,4,得意,西裝,,,,,,,,
,,{Wait},,,,,,,,,,0.5,,,,
,,{DeleteAllActor},,,,,,,,,,,,,,
,,{PlayEffect},,,,,,,,,,se_good,FALSE,,,
對話,little girlＡ,“Snacks!”,-600,,,EX15,開心,,,,,,,,,
對話,little girlＢ,“And bread!”,0,,,EX16,開心,,,,,,,,,
對話,little girlＣ,“And varieties of drinks!”,600,,,EX10,開心,,,,,,,,,
旁白,,The children came to take the big box of snacks from me and started eating them happily on the side.,,,,,,,,,,,,,,
,,{Wait},,,,,,,,,,0.5,,,,
,,{DeleteAllActor},,,,,,,,,,,,,,
旁白,,I used this chance to look around the orphanage.,,,,,,,,,,,,,,
旁白,,The structure is simple. My high-tech detecting device is not giving off any reaction. It's like an ordinary house.,,,,,,,,,,,,,,
,,{Wait},,,,,,,,,,0.5,,,,
,,{FadeBGM},,,,,,,,,,0,1,,,
,,{Loading},,,,,,,,,,1.5,1.5,1,,
,,{PlayBGM},,,,,,,,,,bgm_Heroine03,0.5,,,
,,{Wait},,,,,,,,,,0.5,,,,
對話,Elissa Lin,“Please excuse me. We don't really have any tea or sweets to greet you* Manager.”,450,,,7,,私服,TRUE,,,,,,,
對話,Manager,“Don't worry* I certainly know your difficulties. If you need anything* let me know.”,-450,,,1,,西裝,TRUE,,,,,,,
對話,Elissa Lin,“Thank you* Manager.”,450,,,4,,私服,,,,,,,,
對話,Manager,“I'm going to conduct a quick temporary test.”,-450,,,1,,西裝,,,,,,,,
對話,Elissa Lin,“What?!”,450,,,6,,私服,,,,,,,,
對話,Manager,“Elissa* can you tell me who you are?”,-450,,,1,,西裝,,,,,,,,
對話,Elissa Lin,“….Manager* this is a deep question.”,450,,,5,,私服,,,,,,,,
對話,Elissa Lin,“I'm Elissa.”,450,,,1,,私服,,,,,,,,
對話,Manager,“It seems that I asked too general of a question. Let me ask a different question.”,-450,,,5,汗顏,西裝,,,,,,,,
對話,Manager,“Has the government or any hospital done any treatments to you or your brothers and sister?”,-450,,,1,,西裝,,,,,,,,
對話,Elissa Lin,“Treatments?”,450,,,5,,私服,,,,,,,,
對話,Manager,“Don't worry* I dealt with all the bugs and cameras before coming in. You can speak freely.”,-450,,,1,得意,西裝,,,,,,,,
對話,Elissa Lin,“I don't understand what you mean.”,450,,,3,,私服,,,,,,,,
對話,Manager,“Can you tell me more about* the government or the hospital?”,-450,,,1,,西裝,,,,,,,,
對話,Elissa Lin,"""All what we get is funding from the government. There's nothing strange about us.”",450,,,3,問號,私服,,,,,,,,
對話,Manager,“Really? Nothing odd?”,-450,,,5,,西裝,,,,,,,,
對話,Elissa Lin,“Nope* not at all.”,450,,,1,,私服,,,,,,,,
對話,Manager,“….Really* it seems that I was just overthinking.”,-450,,,5,,西裝,,,,,,,,
對話,Manager,“I have another question* Elissa. Do you know someone named Raelynn?”,-450,,,1,,西裝,,,,,,,,
,,{PlayEffect},,,,,,,,,,se_page,FALSE,,,
旁白,,I took out a picture of Raelynn* and observed Elissa's reaction.,,,,,,,,,,,,,,
對話,Elissa Lin,“That's not Raelynn. That's Mother Lindsey!”,450,,,4,驚嘆號,私服,,,,,,,,
對話,Manager,“Lindsey?”,-450,,,5,反問號,西裝,,,,,,,,
對話,Elissa Lin,“Mother Lindsey is the founder of this orphanage.”,450,,,1,,私服,,,,,,,,
對話,Elissa Lin,“Yea* it's Mother Lindsey who adopted us* gave us a place to stay. Lindsey is very kind to Elissa.”,450,,,4,,私服,,,,,,,,
對話,Elissa Lin,“But Mother Lindsey passed away after she got terribly sick. So* only I could care for all my brothers and sisters.”,450,,,3,,私服,,,,,,,,
對話,Manager,“Hm…Elissa* you're really so strong.”,-450,-150,0.5,8,,西裝,,,,,,,,
對話,Elissa Lin,“Teeheehee* so tingling.”,450,,,4,開心,私服,,,,,,,,
,,{Wait},,,,,,,,,,0.5,,,,
,,{DeleteAllActor},,,,,,,,,,,,,,
,,{CreateBackground},,,,,,,,,,Black,,,,
,,{FadeBGM},,,,,,,,,,0,1,,,
,,{Loading},,,,,,,,,,1.5,1.5,1,,
,,{PlayBGM},,,,,,,,,,bgm_memory,0.5,,,
,,{CreateBackground},,,,,,,,,,OfficeA1,,,,
,,{Wait},,,,,,,,,,0.5,,,,
旁白,,After chatting with Elissa* I got back to the convenience store.,,,,,,,,,,,,,,
,,{PlayEffect},,,,,,,,,,se_keybr01,FALSE,,,
旁白,,Once I entered the office* I turned on my computer.,,,,,,,,,,,,,,
對話,Manager,“The responsible is Raelynn Lin* who died from an experiment accident 25 years ago.”,-1,,,5,,西裝,TRUE,TRUE,,,,,,
,,{PlayEffect},,,,,,,,,,se_keybr01,FALSE,,,
對話,Manager,“Even if I considered Elissa's having forged her age* she can only be 20 years old.”,-1,,,5,,西裝,,TRUE,,,,,,
對話,Manager,“How can she have met Raelynn Lin who died 25 years ago? No* she meant Lindsey.”,-1,,,3,,西裝,,TRUE,,,,,,
旁白,,Did Elissa cleverly lie? Or* she's also being lied to.,,,,,,,,,,,,,,
旁白,,Are these two the same person?,,,,,,,,,,,,,,
旁白,,Looking at the screen* I repeatedly thought about these things…..,,,,,,,,,,,,,,
,,{Wait},,,,,,,,,,1,,,,
,,{DeleteAllActor},,,,,,,,,,,,,,
