﻿0.對話方式,1.角色名稱,2.台詞,3.角色起點,4.角色終點,5.行走時間,6.角色表情,7.表情符號,8.服裝,9.淡入,10.特寫,11,12.事件參數1,13.事件參數2,14.事件參數3,15.事件參數4,16.事件參數5
,,{CreateBackground},,,,,,,,,,Store,,,,
,,{PlayBGM},,,,,,,,,,bgm_Heroine03,0.5,,,
,,{Wait},,,,,,,,,,0.5,,,,
旁白,,It's time to teach Elissa how to handle the expiring food.,,,,,,,,,,,,,,
旁白,,After having gone through bread* rice balls* sandwich* and Bentos. It was to handle another category of food.,,,,,,,,,,,,,,
對話,Elissa Lin,"""Manager* even though the frozen hotdogs are expired* they shouldn't be damaged since they didn't defrost* right?""",450,,,1,,制服,,,,,,,,
對話,Manager,“Elissa* what did I tell you?”,-450,,,8,,制服,,,,,,,,
對話,Elissa Lin,“Elissa absolutely didn't think of bringing the hotdogs to the orphanage* not to mention putting them on the hotdog machine!”,450,,,2,,制服,,,,,,,,
對話,Manager,“Then hurry up and deal with it.”,-450,,,1,,制服,,,,,,,,
旁白,,Although she's seemed ok with it. Her eyes were filled with reluctance,,,,,,,,,,,,,,
對話,Elissa Lin,“It just feels like wasting delicious food…….”,450,,,3,無言,制服,,,,,,,,
對話,Manager,"""I know how you feel. But there are rules and regulations that the store must follow. Products can't be displayed for sale if the quality is uncertain.""",-450,,,5,,制服,,,,,,,,
對話,Manager,“And they can't be taken home. You must deal with the products appropriately.”,-450,,,5,,制服,,,,,,,,
對話,Elissa Lin,"""….it seems I'm not made for being a salesperson.""",450,,,3,汗顏,制服,,,,,,,,
旁白,,I had a gut feeling that Elissa didn't listen to everything I said.,,,,,,,,,,,,,,
旁白,,She could understand that food with short shelf life* like bento and hot foods* had to be thrown away. But she refused to accept frozen foods since they last longer.,,,,,,,,,,,,,,
,,{PlayEffect},,,,,,,,,,se_good,FALSE,,,
對話,Manager,"""But* there's still a way to use these hotdogs before throwing them away. So at least it won't be totally wasted.""",-450,,,1,靈光一閃,制服,,,,,,,,
對話,Elissa Lin,“Really? Tell me!”,450,,,6,,制服,,,,,,,,
旁白,,A thought flashed through my mind* and I thought of a win-win solution. That would both teach Elissa and satisfy my personal hobby.,,,,,,,,,,,,,,
對話,Manager,“That will be up to how hard you work.”,-450,,,1,,制服,,,,,,,,
對話,Manager,"""Never mind. I shouldn't let you do this kind of thing…. it's very tiring.""",-450,,,5,,制服,,,,,,,,
對話,Elissa Lin,“Manager! Please* you must let me do it!”,450,,,4,,制服,,,,,,,,
對話,Manager,“Fine* since you insist.”,-450,,,8,,制服,,,,,,,,
對話,Manager,“Do it while there are not many people around. First* squat down* so customers won't be able to see. Otherwise* it won't look good.”,-1,,,1,,制服,,,,,,,,
,,{PlayEffect},,,,,,,,,,se_good,FALSE,,,
對話,Manager,“Then* open your mouth.”,-1,,,7,,制服,,,,,,,,
,,{DeleteAllActor},,,,,,,,,,,,,,
,,{FadeBGM},,,,,,,,,,0,1,,,
,,{Wait},,,,,,,,,,0.5,,,,
,,{CreateBackground},,,,,,,,,,Black,,,,
,,{PlayBGM},,,,,,,,,,bgm_sexy01,0.3,,,
,,{CreatePicture},,,,,,,,,,2,A1,YiShan_H1_001,,
旁白,,I made Elissa sit on her heels. I then took a frozen hotdog to her eyes.,,,,,,,,,,,,,,
旁白,,Elissa's had small white teeth* and her pink tongue looked wet and soft.,,,,,,,,,,,,,,
旁白,,I asked Elissa to stuff the frozen hotdog into her pink and warm mouth.,,,,,,,,,,,,,,
,,{CreatePicture},,,,,,,,,,2,A1,YiShan_H1_003,,
7,Elissa Lin,“Uuuh!”,,,,,,,,,,,,,,
對話,Manager,“Hold it tight* and don't bite it off. Then quietly listen to my instructions.”,,,,,,,,,,,,,,
8,Elissa Lin,(I don't know what he means* but I'm sure he wouldn't lie to me…….),,,,,,,,,,,,,,
對話,Manager,“Lick it and then suck it.”,,,,,,,,,,,,,,
,,{CreatePicture},,,,,,,,,,2,A1,YiShan_H1_002,,
9,Elissa Lin,“Chirp….chirp rrr….slurp….chirprrr chirprrr chirprrr chirprrr”,,,,,,,,,,,,,,
旁白,,The frozen hotdog was definitely frozen* but Elissa still did her best licking the hotdog with her agile wet tongue.,,,,,,,,,,,,,,
旁白,,Her tongue is stirring the hotdog* and it's slowly defrosting.,,,,,,,,,,,,,,
對話,Manager,Yes! That's it…..you can only lick. So be careful as to not bite it with your teeth.,,,,,,,,,,,,,,
對話,Manager,“Good….yes….good girl……you're doing amazing! Suck it hard.”,,,,,,,,,,,,,,
,,{CreatePicture},,,,,,,,,,2,A1,YiShan_H1_006,,
10,Elissa Lin,“Shu chirp chirp shu chirp shu chirp shu shu chirp chirp shu chirp shu chirp shu.”,,,,,,,,,,,,,,
11,Elissa Lin,(So freezing* but I will hold on! I will do my best!),,,,,,,,,,,,,,
,,{CreatePicture},,,,,,,,,,2,A1,YiShan_H1_007,,
12,Elissa Lin,“Pujj pujj pujj pujj pujj.”,,,,,,,,,,,,,,
旁白,,I didn't expect her to take it this seriously. It seems that my plan will go better than expected.,,,,,,,,,,,,,,
,,{CreatePicture},,,,,,,,,,2,A1,YiShan_H1_008,,
13,Elissa Lin,“Shu chirp chirp shu chirp shu chirp shu shu chirp chirp shu chirp shu chirp shu.”,,,,,,,,,,,,,,
14,Elissa Lin,“Goo chirp goo chirp goo chirp goo chirp goo chirp goo chirp!”,,,,,,,,,,,,,,
旁白,,I pushed the hotdog deep into Elissa's oral cavity and then pulled it out. I repeated this several times.,,,,,,,,,,,,,,
旁白,,Her serious look made me feel guilty. But the feeling of excitement was greater.,,,,,,,,,,,,,,
,,{CreatePicture},,,,,,,,,,2,A1,YiShan_H1_004,,
15,Elissa Lin,“Caugh* caugh* caugh* sorry…….”,,,,,,,,,,,,,,
,,The inexperienced Elissa choked. So I let her take a break.,,,,,,,,,,,,,,
,,{CreatePicture},,,,,,,,,,2,A1,YiShan_H1_001,,
16,Elissa Lin,“But what is the use of doing this to the hotdogs if they are thrown away?”,,,,,,,,,,,,,,
對話,Manager,“Of course it's useful.”,,,,,,,,,,,,,,
對話,Manager,“First* the hotdog will have your saliva* meaning that the hotdogs were enjoyed. So it doesn't count as wasted food. It's just not finished.”,,,,,,,,,,,,,,
對話,Manager,“Secondly* since they have your saliva* they can't be sold to customers.”,,,,,,,,,,,,,,
對話,Manager,“Third* this hotdog was used as an employee training tool. We've completely used its last value.”,,,,,,,,,,,,,,
對話,Manager,“In conclusion* this product was used to its fullest by you.”,,,,,,,,,,,,,,
17,Elissa Lin,“Oh* Isee. I didn't know that. You're so smart!”,,,,,,,,,,,,,,
對話,Manager,“You can do the same to the remaining expired hotdogs.”,,,,,,,,,,,,,,
18,Elissa Lin,“Yes* manager!”,,,,,,,,,,,,,,
,,{CreatePicture},,,,,,,,,,2,A1,YiShan_H1_007,,
旁白,,Under my supervision* Elissa 'dealt' with the leftover hotdogs.,,,,,,,,,,,,,,
旁白,,Elissa neatly licked each hotdog,,,,,,,,,,,,,,
,,{DeletePicture},,,,,,,,,,,,,,
,,{CreateBackground},,,,,,,,,,Black,,,,
旁白,,When she finished handling them* I took out a Nut Milk Popsicle from the freezer.,,,,,,,,,,,,,,
,,{CreatePicture},,,,,,,,,,2,A1,YiShan_H1_010,,
對話,Manager,“Take it. This is your reward for being such a hard worker..”,,,,,,,,,,,,,,
19,Elissa Lin,“Wow! It's a popsicle! Popsicles are my favorite sweet.”,,,,,,,,,,,,,,
對話,Manager,“Eat this popsicle with the same technique.”,,,,,,,,,,,,,,
,,{CreatePicture},,,,,,,,,,2,A1,YiShan_H1_012,,
20,Elissa Lin,“Uuuuuh…..”,,,,,,,,,,,,,,
21,Elissa Lin,“Slurp chirprrr chirprrr chirprrr chirprrr chirprrr”,,,,,,,,,,,,,,
旁白,,Elissa started licking and sucking the same way as she did with the hotdogs.,,,,,,,,,,,,,,
,,{CreatePicture},,,,,,,,,,2,A1,YiShan_H1_011,,
旁白,,After she got some experience* her moves became much smoother. The way she licked her popsicle looked more and more sexual.,,,,,,,,,,,,,,
,,{CreatePicture},,,,,,,,,,2,A1,YiShan_H1_009,,
22,Elissa Lin,After she got some experience* her moves became much smoother. The way she licked her popsicle looked more and more sexual.,,,,,,,,,,,,,,
旁白,,“Slurp chirprrr chirprrr slurp slurp shu rrr chirprrr chirprrr slurp slurp.”,,,,,,,,,,,,,,
旁白,,Even though this doesn't feel right* it is against my principles to let good opportunities pass me by!,,,,,,,,,,,,,,
對話,Manager,Otherwise* I wouldn't have opened the NoSkirt convenience store!,,,,,,,,,,,,,,
旁白,,“Good* you're very talented.”,,,,,,,,,,,,,,
旁白,,I used my imagination to imagine my dick was there instead of the popsicle.,,,,,,,,,,,,,,
23,Elissa Lin,Just by looking at Elissa* I could imagine how good it would feel to be sucked by Elissa's tiny mouth.,,,,,,,,,,,,,,
,,“Slurp chirprr chirprr slurp slurp.”,,,,,,,,,,,,,,
,,{CreateBackground},,,,,,,,,,Store,,,,
,,{Flash},,,,,,,,,,,,,,
,Manager,{CreateActor},-450,,,4,,制服,TRUE,,,,,,,
24,Elissa Lin,“Crack!!”,450,,,7,,制服,TRUE,,,,,,,
,Manager,{UpdateActor},-450,,,6,,制服,,,,,,,,
旁白,,Unexpectedly* Elissa ruthlessly bit off the popsicle!,,,,,,,,,,,,,,
旁白,,This caused me pain! Even though she didn't actually bite off my dick* just the thought of it gave me bad mental images…….,,,,,,,,,,,,,,
25,Elissa Lin,"""cough cough cough cough""",450,,,3,,制服,,,,,,,,
對話,Manager,“This is not good! If you get pneumonia from the cold* it would be bad. You need treatment as soon as possible.”,-450,,,2,驚嘆號,制服,,,,,,,,
26,Elissa Lin,"""Don't be nervous. I just choked. I'm not afraid of the cold.""",450,,,3,,制服,,,,,,,,
對話,Manager,“Just in case* drink this specially made milk! Kneel down and open your mouth.”,-450,,,1,,制服,,,,,,,,
旁白,,I acted as soon as I got the chance.,,,,,,,,,,,,,,
旁白,,My moves were slower than usual. Maybe because I still have some hesitation. Elissa is the pure little angel of our store.,,,,,,,,,,,,,,
旁白,,But my hesitation quickly disappeared.,,,,,,,,,,,,,,
旁白,,Whether it's Gin or Lycianna. There's always this feeling of teasing.,,,,,,,,,,,,,,
旁白,,I guess in my heart* I'm a sadist. A pervert who just follows his desire.,,,,,,,,,,,,,,
旁白,,I eventually reached out my hand to press Elissa's head to her knees.,,,,,,,,,,,,,,
旁白,,Elissa's eyes aligned perfectly with my crotch. I immediately took off my pants and offered my dick.,,,,,,,,,,,,,,
,,{DeleteAllActor},,,,,,,,,,,,,,
,,{CreateBackground},,,,,,,,,,Black,,,,
,,{CreatePicture},,,,,,,,,,2,A1,YiShan_H1_013,,
27,Elissa Lin,“It's the first time I'm seeing the real thing.”,,,,,,,,,,,,,,
旁白,,After Elissa saw my cock* she looked confused and curiously poked it a few times.,,,,,,,,,,,,,,
旁白,,My cock became hard* and it instantly stood up.,,,,,,,,,,,,,,
28,Elissa Lin,“Wow! It got bigger!”,,,,,,,,,,,,,,
29,Elissa Lin,“Where's the hot milk?”,,,,,,,,,,,,,,
對話,Manager,"""The hot milk is a magical liquid extracted from my cells. It contains rich proteins* proteolytic enzymes* citric acid phosphatase* and fat. It heals you when you get sick and strengthens you when you're not sick.""",,,,,,,,,,,,,,
30,Elissa Lin,“So* as I said* where's that hot milk?”,,,,,,,,,,,,,,
對話,Manager,“Hum hum* what you're looking for is right in front of you. Come* suck on it.”,,,,,,,,,,,,,,
,,{CreatePicture},,,,,,,,,,2,A1,YiShan_H1_014,,
31,Elissa Lin,“Ah~”,,,,,,,,,,,,,,
對話,Manager,“Don't forget the way you dealt with the frozen hotdogs earlier. Do not bite off.”,,,,,,,,,,,,,,
旁白,,I guided Elissa and let her get to know my dick.,,,,,,,,,,,,,,
旁白,,Her tiny palms couldn't hold it as easily as the frozen hotdogs.,,,,,,,,,,,,,,
32,Elissa Lin,“It feels kinda hard and hot. It smells weird…..and I feel a bit weird…..”,,,,,,,,,,,,,,
對話,Manager,“That is exactly the hot milk's smell. Come and suck on it like earlier.”,,,,,,,,,,,,,,
旁白,,As Elissa was staring. I held her little head and poked the tip of my dick towards her mouth.,,,,,,,,,,,,,,
旁白,,Elissa was feeling confused* but she trusted my orders. She eventually used her tongue to carefully lick the tip of my cock.,,,,,,,,,,,,,,
,,{CreatePicture},,,,,,,,,,2,A1,YiShan_H1_015,,
33,Elissa Lin,“Slurp slurp slurp slurp slurp slurp.”,,,,,,,,,,,,,,
旁白,,Elissa sucked a few times before taking the whole cock in her mouth.,,,,,,,,,,,,,,
34,Elissa Lin,“Uh! Chirprrr…..”,,,,,,,,,,,,,,
35,Elissa Lin,“Uhgoo….uuh….goo….uuhgoo.”,,,,,,,,,,,,,,
旁白,,Elissa couldn't fit my entire dick in her mouth* just a small part.,,,,,,,,,,,,,,
旁白,,But she still did her best to follow the previous instructions. She used her tongue to wrap around the tip of my dick and lick it. The erotic sound of the saliva was echoing in the staff room.,,,,,,,,,,,,,,
,,{CreatePicture},,,,,,,,,,2,A1,YiShan_H1_016,,
36,Elissa Lin,“Shu chirp shu chirp shu chirp shu chirp shu chirp shu chirp.”,,,,,,,,,,,,,,
37,Elissa Lin,“Chirprrr…..chirprrr…..chirprrr….chirprr chirprr chirprr.”,,,,,,,,,,,,,,
38,Elissa Lin,“Chirprrr chirprrr chirprrr chirprrr chirprrr chirprrr chirprrr chirprrr chirprrr.”,,,,,,,,,,,,,,
對話,Manager,“Yes! That’s it! Be careful with your teeth. Make sure you don’t bite it.”,,,,,,,,,,,,,,
對話,Manager,“Very good! You're doing amazing! You're my employee for a reason.”,,,,,,,,,,,,,,
旁白,,She had only licked a popsicle and hotdog. Yet she already had an amazing blowjob technique.,,,,,,,,,,,,,,
旁白,,I didn’t think it would be this good!,,,,,,,,,,,,,,
39,Elissa Lin,“Chirprrr chirprrr chirprrr chirprrr! Slurp slurp slurp!”,,,,,,,,,,,,,,
40,Elissa Lin,(I’m so happy that I’ve been praised by my manager.),,,,,,,,,,,,,,
41,Elissa Lin,“Chirprrr chirprrr chirprrr chirprrr! Slurp slurp slurp!”,,,,,,,,,,,,,,
42,Elissa Lin,“Chirprrr chirprrr chirprrr chirprrr chirprrr chirprrr!”,,,,,,,,,,,,,,
43,Elissa Lin,(I….. I’m getting weird…. It’s definitely the effect of his hot milk…..I must suck it out hard…..),,,,,,,,,,,,,,
,,{CreatePicture},,,,,,,,,,2,A1,YiShan_H1_017,,
44,Elissa Lin,“Chirprrr chirprrr chirprrr chirprrr chirprrr chirprrr!”,,,,,,,,,,,,,,
旁白,,Her tiny tongue was wrapped around the sensitive tip of my cock. Like a snake* licking back and forth* left and right. She then proceeded to start sucking.,,,,,,,,,,,,,,
45,Elissa Lin,“Slurp slurp slurp slurp slurp slurp!”,,,,,,,,,,,,,,
對話,Manager,“Hm….mhm……”,,,,,,,,,,,,,,
旁白,,The pleasure gave me goosebumps. I felt my scrotum tighten.,,,,,,,,,,,,,,
旁白,,The surging cum squeezed up my dick* nearly exploding.,,,,,,,,,,,,,,
46,Elissa Lin,“Slurp slurp slurp slurp slurp slurp!”,,,,,,,,,,,,,,
對話,Manager,“Haah…..haah…..haah…..”,,,,,,,,,,,,,,
旁白,,I unexpectedly came already …..how embarrassing…..,,,,,,,,,,,,,,
旁白,,I held the urge to shoot my cum. I grabbed Elissa’s head and forced her to swallow my cock entirely.,,,,,,,,,,,,,,
,,{CreatePicture},,,,,,,,,,2,A1,YiShan_H1_018,,
47,Elissa Lin,“Uhgoo…..uuuh…….”,,,,,,,,,,,,,,
旁白,,My cock is completely filling her mouth. The tip was already deep in Elissa’s tight throat.,,,,,,,,,,,,,,
48,Elissa Lin,“Uh ah uuh aah….hm aaah….hmm…..”,,,,,,,,,,,,,,
48,Elissa Lin,“Hahm…..hmmmm……ohm…..uuuh……”,,,,,,,,,,,,,,
50,Elissa Lin,(I’m unable to breathe…….),,,,,,,,,,,,,,
對話,Manager,“Put it all in.”,,,,,,,,,,,,,,
51,Elissa Lin,(I can’t disappoint him. I need to work harder.),,,,,,,,,,,,,,
,,{CreatePicture},,,,,,,,,,2,A1,YiShan_H1_018_S,,
52,Elissa Lin,“Goorrr….goo uh…..uh goo uh goo…..goom……”,,,,,,,,,,,,,,
旁白,,My cock was pushed deeper into Elissa’s throat.,,,,,,,,,,,,,,
旁白,,I abruptly thrust back and forth Elissa’s mouth. Hitting deep into her throat as if I’m fucking her pussy.,,,,,,,,,,,,,,
53,Elissa Lin,“Chirprrr chirprrr chirprrr chirprrr chirprrr chirprrr!”,,,,,,,,,,,,,,
對話,Manager,“Haah…..haah….. it’s….. it’s coming out……the hot milk…..is coming out……..”,,,,,,,,,,,,,,
54,Elissa Lin,“Chirprrr chirprrr chirprrr chirprrr chirprrr chirprrr!”,,,,,,,,,,,,,,
55,Elissa Lin,“Chirprrr chirprrr chirprrr chirprrr paff chirp paff chirp.”,,,,,,,,,,,,,,
對話,Manager,“Uuh aah…”,,,,,,,,,,,,,,
56,Elissa Lin,“Chirprrr chirprrr chirprrr chirprrr paff chirp paff chirp.”,,,,,,,,,,,,,,
,,{Flash},,,,,,,,,,,,,,
,,{PlayHEffect},,,,,,,,,,SYASEI_4s,FALSE,,,
,,{CreatePicture},,,,,,,,,,2,A1,YiShan_H1_019,,
旁白,,The thick and hot cum violently sprayed out.,,,,,,,,,,,,,,
旁白,,My cum went straight into Elissa’s throat. Not giving her any chance of spitting it out.,,,,,,,,,,,,,,
,,{CreatePicture},,,,,,,,,,2,A1,YiShan_H1_020,,
57,Elissa Lin,“Caugh caugh caugh……it has a stinky smell……so salty…..this isn’t milk.”,,,,,,,,,,,,,,
對話,Manager,“That’s a valuable medicinal material. Swallow everything.”,,,,,,,,,,,,,,
58,Elissa Lin,“Yes…..”,,,,,,,,,,,,,,
,,{CreatePicture},,,,,,,,,,2,A1,YiShan_H1_021,,
59,Elissa Lin,“Gulp gulp ugh…..”,,,,,,,,,,,,,,
對話,Manager,“Good* good girl. Do you feel better now?”,,,,,,,,,,,,,,
60,Elissa Lin,“Huh! I’m suddenly not freezing nor feeling cold! So magical!”,,,,,,,,,,,,,,
對話,Manager,“You see? Have I ever lied to you?”,,,,,,,,,,,,,,
旁白,,I guess that’s the power of the placebo effect. Elissa trusts me completely.,,,,,,,,,,,,,,
61,Elissa Lin,“As expected from the manager! So impressive!”,,,,,,,,,,,,,,
對話,Manager,“When you don’t feel well* come to me for some milk. I don’t want my most important employee getting sick.”,,,,,,,,,,,,,,
62,Elissa Lin,“Manager…..”,,,,,,,,,,,,,,
63,Elissa Lin,“I like you the most.”,,,,,,,,,,,,,,
,,{Wait},,,,,,,,,,1,,,,
,,{DeletePicture},,,,,,,,,,,,,,
,,{CreateBackground},,,,,,,,,,Store,,,,
旁白,,Elissa happily hugged me.,,,,,,,,,,,,,,
旁白,,I was just looking for a chance to release my desire. I didn’t think she’d trust me at all.,,,,,,,,,,,,,,
旁白,,I admit I’m horny* but I’m not evil.,,,,,,,,,,,,,,
旁白,,So for the next few days* I secretly upgraded Elissa's employee meal to a luxurious bento.,,,,,,,,,,,,,,
,,{Wait},,,,,,,,,,1,,,,
