﻿0.對話方式,1.角色名稱,2.台詞,3.角色起點,4.角色終點,5.行走時間,6.角色表情,7.表情符號,8.服裝,9.淡入,10.特寫,11,12.事件參數1,13.事件參數2,14.事件參數3,15.事件參數4,16.事件參數5
,,{CreateBackground},,,,,,,,,,Store,,,,
,,{PlayBGM},,,,,,,,,,bgm_Heroine03,0.5,,,
,,{Wait},,,,,,,,,,0.5,,,,
對話,Manager,“Lots of customers today.”,-450,,,5,,制服,TRUE,,,,,,,
旁白,,Maybe due to today's hot weather. There are always customers who come into the convenience store just for some free air conditioning.,,,,,,,,,,,,,,
,Elissa Lin,{CreateActor},450,,,1,,制服,TRUE,,,,,,,
對話,Manager,“Humph. They think they can sit a day in the convenience store just by buying black tea for 10 Yuan. I can't allow this to happen.”,-450,,,2,,制服,,,,,,,,
對話,Manager,“Elissa* let me teach you how to use the mopping technique to chase off space-occupying customers. You need to pay close attention.”,-450,,,2,,制服,,,,,,,,
對話,Elissa Lin,“But isn't the customer always right?”,450,,,1,問號,制服,,,,,,,,
對話,Manager,“Only for the customers who spend money. We need to show them the value of each cent for those who don’t spend anything .”,-450,,,1,,制服,,,,,,,,
對話,Elissa Lin,“Yes!”,450,,,4,,制服,,,,,,,,
對話,Manager,“Like that perverted woman who doesn't want to leave the reception.”,-450,,,5,無言,制服,,,,,,,,
,,{DeleteAllActor},,,,,,,,,,,,,,
,,{Wait},,,,,,,,,,0.5,,,,
,,{PlayEffect},,,,,,,,,,se_good,FALSE,,,
對話,Customer,“Little Elissa…….I'm melting……give me a kiss.”,600,,,EX01,,,TRUE,,,,,,,
,Elissa Lin,{CreateActor},-1,,,1,,制服,TRUE,,,,,,,
對話,Manager,“You dare harass my employee! I'll call the police on you.”,-600,,,7,,制服,,,,,,,,
對話,Customer,“I was kidding! You need to learn how to take a joke.”,600,,,EX01,驚嘆號,,,,,,,,,
對話,Manager,“Besides harassing Elissa. Is there anything you would like to buy?”,-600,,,1,,制服,,,,,,,,
對話,Customer,“I’d love to spend money. But unfortunately* your fridges are all emptied. What a pity.”,600,,,EX01,,,,,,,,,,
對話,Manager,“Elissa* go refill the fridges. Don’t let this customer leave without spending.”,-600,,,1,,制服,,,,,,,,
對話,Elissa Lin,“Yes* Manager!”,1,,,4,,制服,,,,,,,,
,,{DeleteAllActor},,,,,,,,,,,,,,
旁白,,Following my instructions* Elissa rushed to refill the fridges.,,,,,,,,,,,,,,
旁白,,However* she didn't come back for a long time.,,,,,,,,,,,,,,
旁白,,Just to make sure* I quickly went to the storage room to see if something had happened.,,,,,,,,,,,,,,
,,{Wait},,,,,,,,,,0.5,,,,
,,{FadeBGM},,,,,,,,,,0,1,,,
,,{CreateBackground},,,,,,,,,,Black,,,,
,,{Loading},,,,,,,,,,2,2,1,,
,,{CreateBackground},,,,,,,,,,Lounge1,,,,
,,{PlayBGM},,,,,,,,,,bgm_memory,0.5,,,
,,{Wait},,,,,,,,,,0.5,,,,
對話,Manager,“Elissa* are you ok?”,-450,,,6,驚嘆號,制服,TRUE,,,,,,,
旁白,,What appeared in front of me was Elissa kneeling on the floor.,,,,,,,,,,,,,,
對話,Elissa Lin,“Sorry…..Manager* Elissa* felt a bit tired* so I slacked off on the job…..”,450,,,3,無言,制服,TRUE,,,,,,,
旁白,,I immediately put my hand on her forehead to check her temperature.,,,,,,,,,,,,,,
旁白,,……no sign of a problem.,,,,,,,,,,,,,,
旁白,,I then checked her pulse. I knew what was going on right away.,,,,,,,,,,,,,,
對話,Manager,“You can ask for sick leave if you have a cold…..why didn't you tell me?”,-450,,,5,,制服,,,,,,,,
對話,Elissa Lin,“There are so many customers waiting to be served. How could I leave it like that……”,450,,,3,,制服,,,,,,,,
對話,Manager,“Such a nonsense! Go get your rest now!”,-450,,,2,,制服,,,,,,,,
,,{DeleteAllActor},,,,,,,,,,,,,,
旁白,,I carried Elissa to the staff room and gave her cold pills and water. I told her to rest well and not to think about work.,,,,,,,,,,,,,,
旁白,,Fortunately* Gin can take Elissa’s shift right away. So today’s sales weren’t affected.,,,,,,,,,,,,,,
,,{Wait},,,,,,,,,,0.5,,,,
,,{Loading},,,,,,,,,,2,2,1,,
,,{CreateBackground},,,,,,,,,,Lounge1,,,,
,,{Wait},,,,,,,,,,0.5,,,,
對話,Manager,“Elissa* are you feeling better?”,-1,,,5,,制服,TRUE,TRUE,,,,,,
旁白,,A few hours passed before I returned to the staff room.,,,,,,,,,,,,,,
對話,Elissa Lin,“………………………………….”,,,,,,,,,,,,,,
旁白,,Elissa was asleep on the sofa in the corner of the staff room. She didn’t respond* but she was stabilizing.,,,,,,,,,,,,,,
旁白,,Just by…….looking at her small breast go up and down as she breathed. I couldn’t help but lean in closer.,,,,,,,,,,,,,,
旁白,,That unique scent from Elissa's body is so irresistible it makes me wants to just take a sniff everytime I see her.,,,,,,,,,,,,,,
對話,Manager,“….It shouldn’t be a problem to just touch. I’ll consider it as a caring fee.”,-1,,,7,,制服,,TRUE,,,,,,
旁白,,I quickly removed Elissa's shirt!,,,,,,,,,,,,,,
,,{DeleteAllActor},,,,,,,,,,,,,,
,,{Wait},,,,,,,,,,0.5,,,,
對話,Elissa Lin,“………….!?”,0,,,3,,裸,TRUE,TRUE,,,,,,
對話,Manager,“Ah?”,,,,,,,,,,,,,,
旁白,,I was very quiet. How did Elissa wake up at this time?,,,,,,,,,,,,,,
對話,Manager,“I just need to check if your body is completely ok.”,,,,,,,,,,,,,,
旁白,,Since I already started. I must commit to it entirely!,,,,,,,,,,,,,,
,,{FadeBGM},,,,,,,,,,0,1,,,
,,{PlayBGM},,,,,,,,,,bgm_sexy01,0.3,,,
旁白,,I carefully admired Elissa's body. Her soft boobs and her two little cute pink nipples.,,,,,,,,,,,,,,
旁白,,Her breasts are going up and down* following her breathing.,,,,,,,,,,,,,,
旁白,,The sweat trickling down her warm chest fumigates an almost unique scent. It is just like an aphrodisiac enticing me closer to her and bringing out the inner demons within me.,,,,,,,,,,,,,,
,,{PlayEffect},,,,,,,,,,se_poipoi,FALSE,,,
旁白,,I first rubbed her boobs softly with my hands* forming them like a Mochi.,,,,,,,,,,,,,,
旁白,,They may be small* but the soft-touch beats mature boobs. It even has a unique immature aura.,,,,,,,,,,,,,,
8,Elissa Lin,“Your hands are so big and warm.”,0,,,1,,裸,,TRUE,,,,,,
9,Elissa Lin,“You’re so good. It was unexpected that you would rub my boobs* but it’s still comfortable…….”,0,,,1,,裸,,TRUE,,,,,,
對話,Manager,“If I’m not mistaken* this should be around a B cup. There should still be room for growth in the future.”,,,,,,,,,,,,,,
10,Elissa Lin,“You don't like small boobs?”,0,,,3,,裸,,TRUE,,,,,,
對話,Manager,“There's no boobs that men won't like.”,,,,,,,,,,,,,,
對話,Manager,“Everything about Elissa I just cannot resist.”,,,,,,,,,,,,,,
11,Elissa Lin,“You might have said something important* but I'm feeling dizzy. I didn't get it.”,0,,,3,,裸,,TRUE,,,,,,
對話,Manager,“Don't worry* I'll deal with everything.”,,,,,,,,,,,,,,
對話,Manager,“Elissa* your pants are in the way. Your panties are as well. Take them off! Take everything off!”,,,,,,,,,,,,,,
12,Elissa Lin,“Even my socks?”,0,,,1,問號,裸,,TRUE,,,,,,
對話,Manager,“No* taking your socks off doesn't give an erotic feeling. Appropriately keeping some clothes on can increase pleasure instead.”,,,,,,,,,,,,,,
13,Elissa Lin,“It sounds complex.”,0,,,1,,裸,,TRUE,,,,,,
對話,Manager,“You don't need to worry. Leave everything to me.”,,,,,,,,,,,,,,
對話,Manager,“You need to start to recover nutrition. You need to replenish Vitamin C. Lemons have a lot of vitamin C.”,,,,,,,,,,,,,,
旁白,,I took out the lemon juice from the staff room and poured it onto her white body.,,,,,,,,,,,,,,
,,{Flash},,,,,,,,,,,,,,
14,Elissa Lin,“Ah~so cold.”,0,,,4,,裸,,TRUE,,,,,,
15,Elissa Lin,“Haah…..haah haah…….aah…..aaah…..so cold…..so tingling…..haaaah…….”,0,,,7,,裸,,TRUE,,,,,,
16,Elissa Lin,“Haah….haaah~but….your hands…..are so warm…..ah ha…..haah……”,0,,,7,,裸,,TRUE,,,,,,
對話,Manager,“You just need to endure for a bit* or your cold won't heal.”,,,,,,,,,,,,,,
17,Elissa Lin,“Haah…..haah ah-ha…..but my body feels sore and hot.”,0,,,7,,裸,,TRUE,,,,,,
對話,Manager,“Next* you need to replenish some nutrition. I chose the sweet honey.”,,,,,,,,,,,,,,
對話,Manager,“I'll blend it with the enzymes of saliva to accelerate the skin absorbance.”,,,,,,,,,,,,,,
,,{Flash},,,,,,,,,,,,,,
旁白,,I took the honey from the staff room and poured it on Elissa's body.,,,,,,,,,,,,,,
旁白,,I then started to use my lips and tongue to taste Elissa's honey and lemon-covered body.,,,,,,,,,,,,,,
,,{PlayHEffect},,,,,,,,,,SFE_B_29s,TRUE,,,
對話,Manager,“Slurp slurp chirprrr chirprrr.”,,,,,,,,,,,,,,
18,Elissa Lin,“Haah….aah…..aaaah…..haah…..no…..so tingling…..haaah.”,0,,,7,,裸,,TRUE,,,,,,
19,Elissa Lin,“You're tongue is on me….licking like this…..Won't you lick the sweat on me?”,0,,,1,,裸,,TRUE,,,,,,
20,Elissa Lin,“Boohoo* I didn't shower first. I don't want you to hate me…..”,0,,,3,,裸,,TRUE,,,,,,
對話,Manager,“Chirprrr chirprrr chirprrr chirprrr chirprrr chirprrr chirprrr chiprrrr chirprrr.”,,,,,,,,,,,,,,
21,Elissa Lin,“You're….licking harder now…..you can't continue like this…..my smell…..you will taste it. I need you to stop.”,0,,,1,,裸,,TRUE,,,,,,
22,Elissa Lin,“Haah ha…..haaah……..aaaah……haah……no……so tingling……haaah……aaah…..”,0,,,7,,裸,,TRUE,,,,,,
旁白,,The taste of Elissa's body was sweet and immature. The moans from Elissa gave a sensational feeling.,,,,,,,,,,,,,,
旁白,,It was more seducing than honey sweets. Making me indulged and unable to get out.,,,,,,,,,,,,,,
23,Elissa Lin,“Haah…..haah……aah…..ah…..ah…..no…..haah…..”,0,,,3,,裸,,TRUE,,,,,,
24,Elissa Lin,(My body is feeling weird….aah….is this sound…….coming from me…..haah….it feels pleasant again……),0,,,1,,裸,,TRUE,,,,,,
25,Elissa Lin,(I feel cold* and my body is freezing* uuh….but my belly is hot* why is that?),0,,,1,,裸,,TRUE,,,,,,
26,Elissa Lin,“Haah…..haah…..aaah…..haah…..Manager…..Elissa feels my body strange……ah…..haah…..”,0,,,7,,裸,,TRUE,,,,,,
,,{StopEffect},,,,,,,,,,SFE_B_29s,,,,
對話,Manager,“This is a normal reaction.”,,,,,,,,,,,,,,
對話,Manager,“To avoid you getting sick again. I will warm you up!”,,,,,,,,,,,,,,
旁白,,I firmly took off my pants and let my cock breathe.,,,,,,,,,,,,,,
旁白,,I used my cock to rub on Elissa's soft breasts. Trying to find pleasure.,,,,,,,,,,,,,,
對話,Manager,“Although I don't hate small boobs* it feels like something's missing…….”,,,,,,,,,,,,,,
對話,Manager,“Fucking small boobs. That is a question worth thinking about.”,,,,,,,,,,,,,,
27,Elissa Lin,“A question worth thinking about?”,0,,,1,問號,裸,,TRUE,,,,,,
28,Elissa Lin,“Did I make you mad? What should I do?”,0,,,3,,裸,,TRUE,,,,,,
旁白,Manager,"“I'm just thinking that it's quite hard to transfer my warmth into you like this. So do me a favor* quickly those tits together* allow my ""holy sword"" to go straight into your heart so that I can rid your body of this evil demon.”",,,,,,,,TRUE,,,,,,
29,Elissa Lin,(He already sacrificed himself for me once. I cannot be letting him down again.),0,,,3,,裸,,,,,,,,
,,{DeleteAllActor},,,,,,,,,,,,,,
,,{CreatePicture},,,,,,,,,,2,A2,YiShan_H2_001,,
30,Elissa Lin,“Like this?”,,,,,,,,,,,,,,
旁白,,Elissa pressed on her boobs* exposing her tiny cleavage.,,,,,,,,,,,,,,
對話,Manager,“Very good! Perfect!”,,,,,,,,,,,,,,
,,{CreatePicture},,,,,,,,,,2,A2,YiShan_H2_002,,
旁白,,I put my huge rock-hard cock in between the spot* squeezed out by her tiny boobs.,,,,,,,,,,,,,,
31,Elissa Lin,“Uh…..uh…..it's in…..uhm……”,,,,,,,,,,,,,,
32,Elissa Lin,(I don't know if this is what you wanted* but it looks like you're in pain.),,,,,,,,,,,,,,
旁白,Manager,“Hm….I feel it's ok!”,,,,,,,,,,,,,,
,,{CreatePicture},,,,,,,,,,2,A2,YiShan_H2_003,,
33,Elissa Lin,(He started moving. I needed to work harder.),,,,,,,,,,,,,,
,,{PlayHEffect},,,,,,,,,,FE_M_15s,TRUE,,,
34,Elissa Lin,“Uh…..uhm…..hmm hmm uuh……”,,,,,,,,,,,,,,
旁白,,I used my cock to rub her small cleavage. The excitement gave me an ecstasy of enjoyment.,,,,,,,,,,,,,,
35,Elissa Lin,“Haaaah…..ah ha ha…..haah…..ha ha…..ah…..ha ha……haah……”,,,,,,,,,,,,,,
36,Elissa Lin,"""My boobs are getting rubbed……yet I'm starting to feel hot…….""",,,,,,,,,,,,,,
37,Elissa Lin,“Boohooo* I feel like something is coming out……”,,,,,,,,,,,,,,
38,Elissa Lin,“I can't…..can't hold it…..something's coming out…..cannot* I must hold it…..”,,,,,,,,,,,,,,
旁白,,Elissa* you have a sensitive body.,,,,,,,,,,,,,,
旁白,,I'm just playing with your boobs. Yet your pussy is already contracting uncontrollably and squirting.,,,,,,,,,,,,,,
,,{CreatePicture},,,,,,,,,,2,A2,YiShan_H2_004,,
39,Elissa Lin,(Boohoo* that feeling…..it's coming out!),,,,,,,,,,,,,,
40,Elissa Lin,"""Haaaah….ah ha ha…..haah…..ha ha……ah…..ha ha……haah……""",,,,,,,,,,,,,,
41,Elissa Lin,"""I'm so embarrassed. Everything came out…..and he saw it……)",,,,,,,,,,,,,,
42,Elissa Lin,(But what is this feeling? Embarrassing….but so good at the same time…….),,,,,,,,,,,,,,
旁白,,It seems that Elissa enjoyed the feeling of orgasming. She's breathing pleasantly.,,,,,,,,,,,,,,
旁白,,And I almost reached my limit.,,,,,,,,,,,,,,
43,Elissa Lin,(Uh* that feeling came again. This time I must try to control it. I can't let his efforts be in vain…..),,,,,,,,,,,,,,
44,Elissa Lin,“Haaaah……ah ha ha……haah…..ha ha…..ah…..ha ha……haah……”,,,,,,,,,,,,,,
對話,Manager,“This is the last sprint! Take my hot milk! Elissa!”,,,,,,,,,,,,,,
45,Elissa Lin,“Ok!”,,,,,,,,,,,,,,
46,Elissa Lin,(This time* I will focus! I can't let his effort be wasted!),,,,,,,,,,,,,,
對話,Manager,“Ooh ooh! Go! I'm exploding in pleasure!”,,,,,,,,,,,,,,
,,{StopEffect},,,,,,,,,,FE_M_15s,,,,
,,{Flash},,,,,,,,,,,,,,
,,{PlayHEffect},,,,,,,,,,SYASEI_4s,FALSE,,,
,,{CreatePicture},,,,,,,,,,2,A2,YiShan_H2_007,,
47,Elissa Lin,“Uhm…..ugh……uuuh…..hm…..”,,,,,,,,,,,,,,
旁白,,The thick white cum sprays out* straight into Elissa'a mouth.,,,,,,,,,,,,,,
48,Elissa Lin,(Something came in?),,,,,,,,,,,,,,
49,Elissa Lin,(Is this the hot milk he said would heal my sickness?),,,,,,,,,,,,,,
50,Elissa Lin,“Hm…..hm…..uuuuh……uhm……”,,,,,,,,,,,,,,
51,Elissa Lin,(It smells so bad! But…..this I trust the manager. I need to do my best to swallow it.),,,,,,,,,,,,,,
52,Elissa Lin,(Uuuh* I can't* it's too much……I can't swallow it all.),,,,,,,,,,,,,,
旁白,,The inside of Elissa's mouth was filled with cum and instantly exploded.,,,,,,,,,,,,,,
,,{Flash},,,,,,,,,,,,,,
,,{PlayHEffect},,,,,,,,,,SYASEI_2s,FALSE,,,
旁白,,But I couldn't stop cumming. Which made her unable to swallow it at once.,,,,,,,,,,,,,,
53,Elissa Lin,“Ugh….glurp….glurp…..glurp…..ugh…..”,,,,,,,,,,,,,,
54,Elissa Lin,“Caugh caugh caugh caugh…..”,,,,,,,,,,,,,,
55,Elissa Lin,(I spit out his hot milk. What should I do….),,,,,,,,,,,,,,
56,Elissa Lin,“Sorry…..the hot milk was too much….I couldn't swallow it all.”,,,,,,,,,,,,,,
對話,Manager,"""It's alright. My hot milk is very nutritious. Just a small sip can heal your cold.""",,,,,,,,,,,,,,
,,{DeletePicture},,,,,,,,,,,,,,
,,{CreateBackground},,,,,,,,,,Black,,,,
,,{Wait},,,,,,,,,,1,,,,
旁白,,I don't know if it's luck or a miracle* but Elissa soon improved. She continued working the next day full of energy.,,,,,,,,,,,,,,
旁白,,However* I got a serious cold the next day. The nasal discharge and sore pain disturbed me for many days.,,,,,,,,,,,,,,
旁白,,Is this the punishment for taking advantage of a sick employee?,,,,,,,,,,,,,,
,,{Wait},,,,,,,,,,1,,,,
