﻿0.對話方式,1.角色名稱,2.台詞,3.角色起點,4.角色終點,5.行走時間,6.角色表情,7.表情符號,8.服裝,9.淡入,10.特寫,11,12.事件參數1,13.事件參數2,14.事件參數3,15.事件參數4,16.事件參數5
,,{CreateBackground},,,,,,,,,,Lounge1,,,,
,,{PlayBGM},,,,,,,,,,bgm_days01,0.5,,,
,,{Wait},,,,,,,,,,0.5,,,,
對話,Manager,“It's almost done!”,-450,,,4,開心,制服,TRUE,,,,,,,
旁白,,Every week I will use one day to develop a new product. The employees of that shift will join the testing phase.,,,,,,,,,,,,,,
,Elissa Lin,{CreateActor},450,,,1,,半制服,TRUE,,,,,,,
旁白,,Today's shift employee was Elissa. We both came to the staff room* to test whether this new product is good or not.,,,,,,,,,,,,,,
,,{PlayEffect},,,,,,,,,,se_good,FALSE,,,
對話,Manager,“Come! Elissa* this is the new drink I developed* ‘Baolyta Redgoat’!”,-450,,,4,得意,制服,,,,,,,,
1,Elissa Lin,“Baolyta Redgoat? Aren't we always selling that? Why did you develop this again?”,450,,,5,,半制服,,,,,,,,
對話,Manager,“This is not a regular Baolyta Redgoat. This is my unique and improved Baolyta Redgoat!”,-450,,,2,,制服,,,,,,,,
對話,Manager,“Come on! Ask me about the difference between my version and the regular Baolyta Redgoat.”,-450,,,1,,制服,,,,,,,,
2,Elissa Lin,“What's so different?”,450,,,5,,半制服,,,,,,,,
對話,Manager,“I'm so touched that you're this cooperative. I wish Lycianna and Gin would learn more from you.”,-450,,,8,,制服,,,,,,,,
對話,Manager,“Since you want to know* I'll kindly tell you!”,-450,,,4,,制服,,,,,,,,
3,Elissa Lin,“I already know what you're going to say! Your next words will be* I'll kindly tell you! To prevent the world from being destroyed……”,450,,,4,,半制服,,,,,,,,
對話,Manager,"""Stop* stop* stop! If you keep going* we'll be get sued!""",-450,,,6,汗顏,制服,,,,,,,,
4,Elissa Lin,“Then* what's so special with this Redgoat? I want to know.”,450,,,1,,半制服,,,,,,,,
對話,Manager,“Do you remember when I used honey and lemon to heal your cold?”,-450,,,1,,制服,,,,,,,,
5,Elissa Lin,“Yes* I also remember the Three Star Onions and Tangerine!”,450,,,4,,半制服,,,,,,,,
對話,Manager,“No* you don't need to remember that…..”,-450,,,6,汗顏,制服,,,,,,,,
對話,Manager,“Anyway* human skin can also absorb nutrition. Therefore I developed this ‘Applicable Redgoat.’”,-450,,,1,,制服,,,,,,,,
對話,Manager,“They just need to apply it to their skin* and they will be as energetic as they would've been from drinking a redgoat. Additionally* the absorbance is even faster and better!”,-450,,,4,得意,制服,,,,,,,,
6,Elissa Lin,“Oh* oh! It's a Redgoat that can be applied! That sounds impressive! You have to let me try.”,450,,,6,,半制服,,,,,,,,
對話,Manager,“I was waiting for you to ask. Try it!”,-450,,,1,,制服,,,,,,,,
7,Elissa Lin,“I'm ready!”,450,,,1,開心,半制服,,,,,,,,
對話,Manager,“Watch me shake it! Shake shake! Redgoat big spurt!!”,-450,,,2,,制服,,,,,,,,
,,{Flash},,,,,,,,,,,,,,
8,Elissa Lin,“Yay hehe* I'm all wet.”,450,,,6,驚嘆號,半制服,,,,,,,,
對話,Manager,“Do you feel anything?”,-450,,,1,,制服,,,,,,,,
9,Elissa Lin,"""Hm* I don't feel anything besides being wet and sticky.""",450,,,3,,半制服,,,,,,,,
對話,Manager,“The effect is quite fast….”,-450,,,5,,制服,,,,,,,,
10,Elissa Lin,“Hm? That's strange. Is the room getting hot?”,450,,,3,問號,半制服,,,,,,,,
對話,Manager,“No* the A/C is functional.”,-450,,,1,,制服,,,,,,,,
,,{FadeBGM},,,,,,,,,,0,1,,,
,,{Flash},,,,,,,,,,,,,,
,,{PlayBGM},,,,,,,,,,bgm_sexy02,0.5,,,
11,Elissa Lin,“Haah…..ha ha…..so hot…..so hot…..I feel so hot…..I'm so hot that I have to remove my clothes…..”,450,,,3,,半制服,,,,,,,,
對話,Manager,“This is the reaction from accelerating metabolism!”,-450,,,1,,制服,,,,,,,,
12,Elissa Lin,“I can't keep my clothes on…..I want to take them off…..don't look……”,450,,,3,,半制服,,,,,,,,
對話,Manager,“No* I must document everything carefully. Quickly tell me how you feel now.”,-450,,,1,,制服,,,,,,,,
,,{PlayEffect},,,,,,,,,,se_cloth,FALSE,,,
,,{Wait},,,,,,,,,,0.5,,,,
,,{DeleteAllActor},,,,,,,,,,,,,,
,Manager,{CreateActor},-450,,,1,,制服,,,,,,,,
13,Elissa Lin,(Uh* the manager is watching……so embarrassing….),450,,,7,,裸,,,,,,,,
14,Elissa Lin,(But…..this is a very important job. I can't let him down!),450,,,3,,裸,,,,,,,,
15,Elissa Lin,“I feel my body is heating up….I feel numb and good…..my boobs feel quite agitated…..it feels like my lower abdomen keeps contracting…..haah…..haah…..haah haah…..”,450,,,3,,裸,,,,,,,,
對話,Manager,“That's how it works. When metabolism is increased* the muscles contract.”,-450,,,1,,制服,,,,,,,,
16,Elissa Lin,“And…..there's this……urge of going to the restrooms…..I can't hold it longer………aah…..I can't…….”,450,550,0.5,3,,裸,,,,,,,,
對話,Manager,“Strange? Why would she want to use the restrooms? It shouldn't be like this.”,-450,,,5,反問號,制服,,,,,,,,
17,Elissa Lin,“…..please let me go to the restrooms….I really can't……”,550,600,0.5,2,,裸,,,,,,,,
對話,Manager,“Sorry* but you still can't. I need to observe the changes in your body. Please bear with me.”,-450,,,5,,制服,,,,,,,,
,,{Wait},,,,,,,,,,0.5,,,,
,,{DeleteAllActor},,,,,,,,,,,,,,
18,Elissa Lin,(I can't let him down…..but…..I'm almost peeing myself…..and there is that good and embarrassing feeling from earlier.),0,,,7,,裸,TRUE,TRUE,,,,,,
19,Elissa Lin,“Haah….haah…..it's coming out……coming out……uh ah……aaah…….”,0,,,2,,裸,,TRUE,,,,,,
20,Elissa Lin,“I can't hold it any longer!! Aaaah cumming……it's squirting out…….”,0,,,7,,裸,,TRUE,,,,,,
對話,Manager,“I didn't think this could happen…..what an unexpected effect.”,,,,,,,,,,,,,,
,,{PlayHEffect},,,,,,,,,,SFE_S_36s,FALSE,,,
旁白,,I investigated further by using my tongue to taste Elissa's white and hairless pussy.,,,,,,,,,,,,,,
旁白,,Her pussy is giving off a fresh body scent and an erotic aura from the orgasm liquid.,,,,,,,,,,,,,,
旁白,,The two scents were blending into something much sweeter. The sense of immorality from licking the slit makes the taste much more delicious.,,,,,,,,,,,,,,
21,Elissa Lin,“You're licking my pussy…..you have to stop…….because there….uuh…...”,0,,,3,,裸,,TRUE,,,,,,
22,Elissa Lin,“Why does it feel so good……I should make him stop…..quickly…..”,0,,,3,,裸,,TRUE,,,,,,
23,Elissa Lin,“I need to make him stop……but it feels so good….ugh….. it is too good…….”,0,,,7,,裸,,TRUE,,,,,,
對話,Manager,“The scent of her liquid changed?”,,,,,,,,,,,,,,
對話,Manager,“This taste is not bad. It's making me lose control.”,,,,,,,,,,,,,,
24,Elissa Lin,“Haah ….haah …..haaah…….”,0,,,3,,裸,,TRUE,,,,,,
25,Elissa Lin,“So hot……I'm feeling hotter now……but this hot sensation……it's so good…..is this also the effect of Redgoat?”,0,,,3,,裸,,TRUE,,,,,,
對話,Manager,“Slurp slurp slurp slurp…….”,,,,,,,,,,,,,,
26,Elissa Lin,“I……….I……I can't stand it anymore…….Uuuh.”,0,,,2,,裸,,TRUE,,,,,,
27,Elissa Lin,“Aaaaaaah…….”,0,,,2,,裸,,TRUE,,,,,,
28,Elissa Lin,“Cumming! I'm cumming again! I'm such a naughty girl!”,0,,,7,,裸,,TRUE,,,,,,
旁白,,The sweet bean of the forbidden garden keeps getting teased by my agile tongue.,,,,,,,,,,,,,,
旁白,,As more squirt was coming out. Elissa ran out of energy and could barely stand.,,,,,,,,,,,,,,
,,{StopEffect},,,,,,,,,,FE_S_35s,,,,
,,{Flash},,,,,,,,,,,,,,
,,{PlayHEffect},,,,,,,,,,SYASEI_2s,FALSE,,,
,,{Wait},,,,,,,,,,0.5,,,,
,,{DeleteAllActor},,,,,,,,,,,,,,
29,Elissa Lin,“I……I…….can't control it…….uuuh.”,450,,,3,,裸,TRUE,,,,,,,
對話,Manager,“It seems that this product gives you energy and has an aphrodisiac effect.”,-450,,,1,,制服,TRUE,,,,,,,
30,Elissa Lin,“Manager……I…..feel uncomfortable…..but so good at the same time…..”,450,,,3,,裸,,,,,,,,
對話,Manager,“I understand. That's what orgasm is like.”,-450,,,1,,制服,,,,,,,,
對話,Manager,“But I can't leave you in this state. Since we know the effect* we should resolve it.”,-450,,,4,,制服,,,,,,,,
對話,Manager,“The solution is to drink my hot milk!”,-450,,,7,,制服,,,,,,,,
,,{Wait},,,,,,,,,,0.5,,,,
,,{DeleteAllActor},,,,,,,,,,,,,,
,,{CreateBackground},,,,,,,,,,Black,,,,
,,{Loading},,,,,,,,,,1.5,1.5,1,,
,,{CreatePicture},,,,,,,,,,2,A3,YiShan_H3_001,,
,,{Wait},,,,,,,,,,0.5,,,,
旁白,,I carried Elissa to the sofa* her face red* and she kept moaning.,,,,,,,,,,,,,,
,,{PlayEffect},,,,,,,,,,se_zipper,FALSE,,,
旁白,,I took off my pants* exposing my rock-hard cock.,,,,,,,,,,,,,,
31,Elissa Lin,“Your cock. It's still so big.”,,,,,,,,,,,,,,
32,Elissa Lin,“And still giving off a strong smell.”,,,,,,,,,,,,,,
33,Elissa Lin,“´Why……it doesn't smell good…..yet I can't stop smelling it.”,,,,,,,,,,,,,,
34,Elissa Lin,(And I…..want to lick……I want to lick his cock.),,,,,,,,,,,,,,
旁白,,Elissa did how I taught her. She did her best to squeeze her tiny boobs* making a firm and soft gap.,,,,,,,,,,,,,,
旁白,,Watching this scenery. I couldn't control my desire anymore. I put my cock in the gap between her breasts and started thrusting.,,,,,,,,,,,,,,
,,{PlayHEffect},,,,,,,,,,SEX_S_12s,TRUE,,,
,,{CreatePicture},,,,,,,,,,2,A3,YiShan_H3_002,,
35,Elissa Lin,“Haah…..haah…..ha…..aaaah…..haaah….”,,,,,,,,,,,,,,
36,Elissa Lin,“The manager looks happy* which makes me feel happy.”,,,,,,,,,,,,,,
37,Elissa Lin,“I just want the manager to be happier!”,,,,,,,,,,,,,,
38,Elissa Lin,“I want* I want* I want! I want more!”,,,,,,,,,,,,,,
,,{CreatePicture},,,,,,,,,,2,A3,YiShan_H3_003,,
旁白,,Elissa put the tip of my dick in her mouth like a baby eager for breastmilk. She then proceeded to start sucking.,,,,,,,,,,,,,,
39,Elissa Lin,“Purrz purrz purrz purrz.”,,,,,,,,,,,,,,
40,Elissa Lin,“Amazing….the manager's taste filled Elissa's mouth.”,,,,,,,,,,,,,,
41,Elissa Lin,“Elissa wants to drink the manager's hot milk!”,,,,,,,,,,,,,,
42,Elissa Lin,(I must pleasure the manager more!),,,,,,,,,,,,,,
43,Elissa Lin,(I must work harder* be more tender* softer……),,,,,,,,,,,,,,
對話,Manager,“I didn't expect you to be this good…..dammit….I'm about to……”,,,,,,,,,,,,,,
旁白,,Seeing Elissa so eager for my cum. I suddenly had no endurance.,,,,,,,,,,,,,,
旁白,,I want to fill the mouth and stomach of this girl who desires me so much.,,,,,,,,,,,,,,
,,{StopEffect},,,,,,,,,,SEX_S_12s,,,,
,,{Flash},,,,,,,,,,,,,,
,,{PlayHEffect},,,,,,,,,,SYASEI_4s,FALSE,,,
,,{CreatePicture},,,,,,,,,,2,A3,YiShan_H3_004,,
旁白,,Eventually* a huge cumshot sprayed straight into Elissa's mouth.,,,,,,,,,,,,,,
44,Elissa Lin,“Ugh….gulp……goo uh…..goo uh……guuullllp……”,,,,,,,,,,,,,,
45,Elissa Lin,“So much* the manager's hot milk is filling me up inside.”,,,,,,,,,,,,,,
,,{CreatePicture},,,,,,,,,,2,A3,YiShan_H3_005,,
46,Elissa Lin,“It's not enough…..I want more hot milk…..”,,,,,,,,,,,,,,
47,Elissa Lin,[Gulp gulp…..gulp……”,,,,,,,,,,,,,,
48,Elissa Lin,“Is that it? I'm so sad…..”,,,,,,,,,,,,,,
旁白,,Crazy….I couldn't help but tease Elissa again.,,,,,,,,,,,,,,
對話,Manager,“Phew…..this should be enough to counteract the effects. But I didn't think that I'd be affected by the aphrodisiac. I shot so much cum.”,,,,,,,,,,,,,,
49,Elissa Lin,“I…..I…..still feel hot….I…..the effects haven't been resolved yet…..Manager……Manager……Please…….give me more hot milk.”,,,,,,,,,,,,,,
對話,Manager,“Elissa! Wait! I need a break* wait!”,,,,,,,,,,,,,,
,,{Wait},,,,,,,,,,0.5,,,,
,,{DeletePicture},,,,,,,,,,,,,,
,,{CreateBackground},,,,,,,,,,Black,,,,
旁白,,The next day,,,,,,,,,,,,,,
,,{FadeBGM},,,,,,,,,,0,1,,,
,,{Loading},,,,,,,,,,1.5,1.5,1,,
,,{PlayBGM},,,,,,,,,,bgm_joke02,0.5,,,
,,{CreateBackground},,,,,,,,,,Store,,,,
,,{Wait},,,,,,,,,,0.5,,,,
,Elissa Lin,{CreateActor},0,,,1,開心,半制服,TRUE,TRUE,,,,,,
旁白,,Elissa looked bright and energetic. Her skin was even softer.,,,,,,,,,,,,,,
旁白,,While I'm out of energy* sore* and my body filled with pain. All because of yesterday's continuous big cumshots.,,,,,,,,,,,,,,
,,{Wait},,,,,,,,,,0.5,,,,
,,{DeleteAllActor},,,,,,,,,,,,,,
對話,Manager,“That Redgoat…..development should be stopped immediately…….”,-450,,,5,汗顏,制服,TRUE,,,,,,,
50,Elissa Lin,“You look tired. Do you want to drink some Redgoat to boost your energy?”,450,,,4,問號,半制服,TRUE,,,,,,,
,,{PlayEffect},,,,,,,,,,se_bad,FALSE,,,
對話,Manager,“You…..don't come close! Get that thing far away from me!!”,-450,-600,0.5,6,驚嘆號,制服,,,,,,,,
旁白,,I don't want to see this energy drink Redgoat for at least a week!,,,,,,,,,,,,,,
,,{Wait},,,,,,,,,,1,,,,
,,{DeleteAllActor},,,,,,,,,,,,,,
