0.對話方式,1.角色名稱,2.台詞,3.角色起點,4.角色終點,5.行走時間,6.角色表情,7.表情符號,8.服裝,9.淡入,10.特寫,11,12.事件參數1,13.事件參數2,14.事件參數3,15.事件參數4,16.事件參數5
,,{CreateBackground},,,,,,,,,,Store1,,,,
,,{PlayBGM},,,,,,,,,,bgm_joke01,0.5,,,
,,{Wait},,,,,,,,,,0.5,,,,
對話,端木壹,「真是的，不是跟妳過說了嗎？熱狗要放在鐵棒上加熱，妳不要自作主張戳一個洞套上去。」,-450,,,02,生氣,制服,TRUE,,,,,,,
對話,斯蘭,「這種熱熱的鐵棒用來加熱自慰套不是最適合了嗎？」,450,,,WK03,,,TRUE,,,,,,,
對話,端木壹,「這就不是自慰套……妳這樣會影響客人食慾的。」,-450,,,06,無言,制服,,,,,,,,
對話,斯蘭,「我的方法比較快，剛好能開個洞，拿一瓶東泉辣椒醬塞進去擠一擠，就變成勁辣熱狗了。」,450,,,WK03,得意,,,,,,,,,
對話,端木壹,「痾……你台中人嗎？」,-450,,,06,,制服,,,,,,,,
對話,斯蘭,「那不是重點，你那些無聊的規定，簡直就像沒有加潤滑液的自慰套，粗糙又讓人不舒服。」,450,,,WK03,,,,,,,,,,
對話,端木壹,「你不要再說了，旁邊還有小朋友呢！」,-450,,,02,,制服,,,,,,,,
對話,斯蘭,「那種東西就只是爽完之後的副作用，就像射精後摘下來的保險套一樣沒用又噁心。」,450,,,WK03,,,,,,,,,,
對話,斯蘭,「你不是想開分店嗎？那就該都照我說的做。」,450,,,WK03,,,,,,,,,,
對話,斯蘭,「一定能像我做的多功能按摩棒，想在那裡插（旗）就在哪裡插（旗）。」,450,,,WK03,得意,,,,,,,,,
對話,端木壹,「看來我需要重新教育一下妳生活常識才行……」,-450,,,05,汗顏,制服,,,,,,,,
,,{Wait},,,,,,,,,,1,,,,
,,{DeleteAllActor},,,,,,,,,,,,,,